<?xml version='1.0' encoding='UTF-8'?>
<!-- This file was generated by dvisvgm 2.13.1 -->
<svg version='1.1' xmlns='http://www.w3.org/2000/svg' xmlns:xlink='http://www.w3.org/1999/xlink' width='47.876224pt' height='19.92528pt' viewBox='-29.072345 19.744592 47.876224 19.92528'>
<defs>
<path id='g1-40' d='M3.297634 2.391034C3.297634 2.361146 3.297634 2.34122 3.128269 2.171856C1.882939 .916563 1.564134-.966376 1.564134-2.49066C1.564134-4.224159 1.942715-5.957659 3.16812-7.202989C3.297634-7.32254 3.297634-7.342466 3.297634-7.372354C3.297634-7.442092 3.257783-7.47198 3.198007-7.47198C3.098381-7.47198 2.201743-6.794521 1.613948-5.529265C1.105853-4.433375 .986301-3.327522 .986301-2.49066C.986301-1.713574 1.09589-.508095 1.643836 .617684C2.241594 1.843088 3.098381 2.49066 3.198007 2.49066C3.257783 2.49066 3.297634 2.460772 3.297634 2.391034Z'/>
<path id='g1-41' d='M2.879203-2.49066C2.879203-3.267746 2.769614-4.473225 2.221669-5.599004C1.62391-6.824408 .767123-7.47198 .667497-7.47198C.607721-7.47198 .56787-7.43213 .56787-7.372354C.56787-7.342466 .56787-7.32254 .757161-7.143213C1.733499-6.156912 2.30137-4.572852 2.30137-2.49066C2.30137-.787049 1.932752 .966376 .697385 2.221669C.56787 2.34122 .56787 2.361146 .56787 2.391034C.56787 2.450809 .607721 2.49066 .667497 2.49066C.767123 2.49066 1.663761 1.8132 2.251557 .547945C2.759651-.547945 2.879203-1.653798 2.879203-2.49066Z'/>
<path id='g2-52' d='M3.689166-1.143711V-1.39477H2.915068V-4.505106C2.915068-4.651557 2.915068-4.700374 2.761644-4.700374C2.677958-4.700374 2.650062-4.700374 2.580324-4.60274L.27198-1.39477V-1.143711H2.322291V-.571856C2.322291-.334745 2.322291-.251059 1.75741-.251059H1.569116V0C1.917808-.013948 2.364134-.027895 2.615193-.027895C2.873225-.027895 3.319552-.013948 3.668244 0V-.251059H3.47995C2.915068-.251059 2.915068-.334745 2.915068-.571856V-1.143711H3.689166ZM2.371108-3.947198V-1.39477H.530012L2.371108-3.947198Z'/>
<path id='g0-104' d='M2.859278-6.804483C2.859278-6.814446 2.859278-6.914072 2.729763-6.914072C2.500623-6.914072 1.77335-6.834371 1.514321-6.814446C1.43462-6.804483 1.325031-6.794521 1.325031-6.615193C1.325031-6.495641 1.414695-6.495641 1.564134-6.495641C2.042341-6.495641 2.062267-6.425903 2.062267-6.326276L2.032379-6.127024L.587796-.388543C.547945-.249066 .547945-.229141 .547945-.169365C.547945 .059776 .747198 .109589 .836862 .109589C.996264 .109589 1.155666-.009963 1.205479-.14944L1.39477-.9066L1.613948-1.803238C1.673724-2.022416 1.733499-2.241594 1.783313-2.470735C1.803238-2.530511 1.882939-2.859278 1.892902-2.919054C1.92279-3.008717 2.231631-3.566625 2.570361-3.835616C2.789539-3.995019 3.098381-4.184309 3.526775-4.184309S4.064757-3.845579 4.064757-3.486924C4.064757-2.948941 3.686177-1.863014 3.447073-1.255293C3.367372-1.026152 3.317559-.9066 3.317559-.707347C3.317559-.239103 3.666252 .109589 4.134496 .109589C5.070984 .109589 5.439601-1.344956 5.439601-1.424658C5.439601-1.524284 5.349938-1.524284 5.32005-1.524284C5.220423-1.524284 5.220423-1.494396 5.17061-1.344956C5.021171-.816936 4.702366-.109589 4.154421-.109589C3.985056-.109589 3.915318-.209215 3.915318-.438356C3.915318-.687422 4.004981-.926526 4.094645-1.145704C4.254047-1.574097 4.702366-2.759651 4.702366-3.337484C4.702366-3.985056 4.303861-4.403487 3.556663-4.403487C2.929016-4.403487 2.450809-4.094645 2.082192-3.636364L2.859278-6.804483Z'/>
<path id='g0-110' d='M.876712-.587796C.846824-.438356 .787049-.209215 .787049-.159402C.787049 .019925 .926526 .109589 1.075965 .109589C1.195517 .109589 1.374844 .029888 1.444583-.169365C1.454545-.18929 1.574097-.657534 1.633873-.9066L1.853051-1.803238C1.912827-2.022416 1.972603-2.241594 2.022416-2.470735C2.062267-2.6401 2.141968-2.929016 2.15193-2.968867C2.30137-3.277709 2.82939-4.184309 3.775841-4.184309C4.224159-4.184309 4.313823-3.815691 4.313823-3.486924C4.313823-2.86924 3.825654-1.594022 3.666252-1.165629C3.576588-.936488 3.566625-.816936 3.566625-.707347C3.566625-.239103 3.915318 .109589 4.383562 .109589C5.32005 .109589 5.688667-1.344956 5.688667-1.424658C5.688667-1.524284 5.599004-1.524284 5.569116-1.524284C5.469489-1.524284 5.469489-1.494396 5.419676-1.344956C5.220423-.667497 4.891656-.109589 4.403487-.109589C4.234122-.109589 4.164384-.209215 4.164384-.438356C4.164384-.687422 4.254047-.926526 4.343711-1.145704C4.533001-1.673724 4.951432-2.769614 4.951432-3.337484C4.951432-4.004981 4.523039-4.403487 3.805729-4.403487C2.909091-4.403487 2.420922-3.765878 2.251557-3.536737C2.201743-4.094645 1.793275-4.403487 1.334994-4.403487S.687422-4.014944 .587796-3.835616C.428394-3.496887 .288917-2.909091 .288917-2.86924C.288917-2.769614 .388543-2.769614 .408468-2.769614C.508095-2.769614 .518057-2.779577 .577833-2.998755C.747198-3.706102 .946451-4.184309 1.305106-4.184309C1.504359-4.184309 1.613948-4.054795 1.613948-3.726027C1.613948-3.516812 1.58406-3.407223 1.454545-2.889166L.876712-.587796Z'/>
</defs>
<g id='page1' transform='matrix(2 0 0 2 0 0)'>
<use x='-14.536172' y='17.344276' xlink:href='#g0-104'/>
<use x='-8.796103' y='18.838657' xlink:href='#g2-52'/>
<use x='-4.326733' y='17.344276' xlink:href='#g1-40'/>
<use x='-.452359' y='17.344276' xlink:href='#g0-110'/>
<use x='5.527566' y='17.344276' xlink:href='#g1-41'/>
</g>
</svg>