<?xml version='1.0' encoding='UTF-8'?>
<!-- This file was generated by dvisvgm 2.13.1 -->
<svg version='1.1' xmlns='http://www.w3.org/2000/svg' xmlns:xlink='http://www.w3.org/1999/xlink' width='39.09808pt' height='11.457032pt' viewBox='-21.804259 15.804721 39.09808 11.457032'>
<defs>
<path id='g0-2' d='M3.875467-2.769614L1.882939-4.752179C1.763387-4.871731 1.743462-4.891656 1.663761-4.891656C1.564134-4.891656 1.464508-4.801993 1.464508-4.692403C1.464508-4.622665 1.484433-4.60274 1.594022-4.493151L3.58655-2.49066L1.594022-.488169C1.484433-.37858 1.464508-.358655 1.464508-.288917C1.464508-.179328 1.564134-.089664 1.663761-.089664C1.743462-.089664 1.763387-.109589 1.882939-.229141L3.865504-2.211706L5.927771-.14944C5.947696-.139477 6.017435-.089664 6.07721-.089664C6.196762-.089664 6.276463-.179328 6.276463-.288917C6.276463-.308842 6.276463-.348692 6.246575-.398506C6.236613-.418431 4.652553-1.982565 4.154421-2.49066L5.977584-4.313823C6.027397-4.373599 6.176837-4.503113 6.22665-4.562889C6.236613-4.582814 6.276463-4.622665 6.276463-4.692403C6.276463-4.801993 6.196762-4.891656 6.07721-4.891656C5.997509-4.891656 5.957659-4.851806 5.84807-4.742217L3.875467-2.769614Z'/>
<path id='g1-83' d='M6.425903-6.924035C6.425903-6.953923 6.405978-7.023661 6.316314-7.023661C6.266501-7.023661 6.256538-7.013699 6.136986-6.874222L5.65878-6.306351C5.399751-6.774595 4.881694-7.023661 4.234122-7.023661C2.968867-7.023661 1.77335-5.877958 1.77335-4.672478C1.77335-3.865504 2.30137-3.407223 2.809465-3.257783L3.875467-2.978829C4.244085-2.889166 4.79203-2.739726 4.79203-1.92279C4.79203-1.026152 3.975093-.089664 2.998755-.089664C2.361146-.089664 1.255293-.308842 1.255293-1.544209C1.255293-1.783313 1.305106-2.022416 1.315068-2.082192C1.325031-2.122042 1.334994-2.132005 1.334994-2.15193C1.334994-2.251557 1.265255-2.261519 1.215442-2.261519S1.145704-2.251557 1.115816-2.221669C1.075965-2.181818 .518057 .089664 .518057 .119552C.518057 .179328 .56787 .219178 .627646 .219178C.67746 .219178 .687422 .209215 .806974 .069738L1.295143-.498132C1.723537 .079701 2.400996 .219178 2.978829 .219178C4.333748 .219178 5.50934-1.105853 5.50934-2.34122C5.50934-3.028643 5.17061-3.367372 5.021171-3.506849C4.79203-3.73599 4.64259-3.775841 3.755915-4.004981C3.536737-4.064757 3.178082-4.164384 3.088418-4.184309C2.819427-4.273973 2.480697-4.562889 2.480697-5.090909C2.480697-5.897883 3.277709-6.744707 4.224159-6.744707C5.051059-6.744707 5.65878-6.316314 5.65878-5.200498C5.65878-4.881694 5.618929-4.702366 5.618929-4.64259C5.618929-4.632628 5.618929-4.542964 5.738481-4.542964C5.838107-4.542964 5.84807-4.572852 5.88792-4.742217L6.425903-6.924035Z'/>
<path id='g1-84' d='M4.254047-6.047323C4.323786-6.326276 4.363636-6.386052 4.483188-6.41594C4.572852-6.435866 4.901619-6.435866 5.110834-6.435866C6.117061-6.435866 6.56538-6.396015 6.56538-5.618929C6.56538-5.469489 6.525529-5.080946 6.485679-4.821918C6.475716-4.782067 6.455791-4.662516 6.455791-4.632628C6.455791-4.572852 6.485679-4.503113 6.575342-4.503113C6.684932-4.503113 6.704857-4.582814 6.724782-4.732254L6.993773-6.465753C7.003736-6.505604 7.013699-6.60523 7.013699-6.635118C7.013699-6.744707 6.914072-6.744707 6.744707-6.744707H1.215442C.976339-6.744707 .966376-6.734745 .896638-6.545455L.298879-4.79203C.288917-4.772105 .239103-4.632628 .239103-4.612702C.239103-4.552927 .288917-4.503113 .358655-4.503113C.458281-4.503113 .468244-4.552927 .52802-4.712329C1.066002-6.256538 1.325031-6.435866 2.799502-6.435866H3.188045C3.466999-6.435866 3.466999-6.396015 3.466999-6.316314C3.466999-6.256538 3.437111-6.136986 3.427148-6.107098L2.092154-.787049C2.002491-.418431 1.972603-.308842 .9066-.308842C.547945-.308842 .488169-.308842 .488169-.119552C.488169 0 .597758 0 .657534 0C.926526 0 1.205479-.019925 1.474471-.019925C1.753425-.019925 2.042341-.029888 2.321295-.029888S2.879203-.019925 3.148194-.019925C3.437111-.019925 3.73599 0 4.014944 0C4.11457 0 4.234122 0 4.234122-.199253C4.234122-.308842 4.154421-.308842 3.895392-.308842C3.646326-.308842 3.516812-.308842 3.257783-.328767C2.968867-.358655 2.889166-.388543 2.889166-.547945C2.889166-.557908 2.889166-.607721 2.929016-.757161L4.254047-6.047323Z'/>
</defs>
<g id='page1' transform='matrix(1.5 0 0 1.5 0 0)'>
<rect x='-14.536172' y='10.536481' width='26.065387' height='7.638022'/>
<g fill='#f00'>
<use x='-14.536172' y='17.344276' xlink:href='#g1-83'/>
<use x='-5.639044' y='17.344276' xlink:href='#g0-2'/>
<use x='4.323569' y='17.344276' xlink:href='#g1-84'/>
</g>
</g>
</svg>