<?xml version='1.0' encoding='UTF-8'?>
<!-- This file was generated by dvisvgm 2.13.1 -->
<svg version='1.1' xmlns='http://www.w3.org/2000/svg' xmlns:xlink='http://www.w3.org/1999/xlink' width='1020.472453pt' height='139.472097pt' viewBox='-58.960265 19.74824 1020.472453 139.472097'>
<defs>
<path id='g0-40' d='M3.965131-6.914072C3.835616-6.894147 3.676214-6.764633 3.566625-6.684932C2.391034-5.798257 1.733499-4.4533 1.733499-3.028643V-2.859278C1.793275-1.444583 2.540473-.009963 3.775841 .727273C3.865504 .777086 3.955168 .826899 4.054795 .826899C4.224159 .826899 4.353674 .687422 4.353674 .537983C4.353674 .368618 4.184309 .298879 4.064757 .199253C3.008717-.52802 2.430884-1.783313 2.430884-3.058531C2.430884-4.343711 3.01868-5.608966 4.124533-6.346202C4.234122-6.405978 4.353674-6.485679 4.353674-6.635118C4.353674-6.804483 4.224159-6.924035 4.044832-6.924035C4.014944-6.924035 3.995019-6.924035 3.965131-6.914072Z'/>
<path id='g0-41' d='M1.09589-6.914072C.956413-6.894147 .86675-6.774595 .86675-6.645081C.86675-6.455791 1.05604-6.366127 1.205479-6.266501C2.241594-5.489415 2.789539-4.303861 2.789539-3.048568C2.789539-1.783313 2.211706-.537983 1.135741 .219178C.996264 .308842 .86675 .388543 .86675 .547945S.996264 .826899 1.155666 .826899C1.544209 .826899 2.211706 .14944 2.560399-.288917C3.178082-1.075965 3.486924-2.062267 3.486924-3.048568C3.486924-4.443337 2.839352-5.808219 1.673724-6.665006C1.534247-6.774595 1.364882-6.924035 1.175592-6.924035C1.145704-6.924035 1.125778-6.924035 1.09589-6.914072Z'/>
<path id='g0-43' d='M2.311333-3.35741H.687422C.508095-3.347447 .368618-3.227895 .368618-3.048568L.398506-2.919054C.478207-2.759651 .637609-2.749689 .787049-2.749689H2.311333V-1.135741C2.311333-.966376 2.420922-.806974 2.610212-.806974C2.789539-.806974 2.919054-.946451 2.919054-1.125778V-2.749689H4.433375C4.582814-2.749689 4.742217-2.759651 4.821918-2.919054L4.851806-3.048568C4.851806-3.227895 4.712329-3.347447 4.533001-3.35741H2.919054V-4.961395C2.919054-5.13076 2.809465-5.290162 2.620174-5.290162C2.440847-5.290162 2.311333-5.150685 2.311333-4.971357V-3.35741Z'/>
<path id='g0-45' d='M1.085928-2.450809C.946451-2.420922 .86675-2.281445 .86675-2.15193C.86675-1.972603 .986301-1.853051 1.205479-1.853051H4.014944C4.234122-1.853051 4.353674-1.972603 4.353674-2.15193C4.353674-2.291407 4.273973-2.440847 4.11457-2.460772H1.484433C1.414695-2.460772 1.334994-2.470735 1.255293-2.470735C1.195517-2.470735 1.145704-2.460772 1.085928-2.450809Z'/>
<path id='g0-46' d='M2.540473-1.255293C2.221669-1.175592 2.002491-.966376 2.002491-.637609C2.002491-.278954 2.261519-.009963 2.689913-.009963C3.008717-.089664 3.227895-.298879 3.227895-.627646C3.227895-.986301 2.968867-1.255293 2.540473-1.255293Z'/>
<path id='g0-97' d='M1.683686-3.73599C1.863014-3.765878 2.062267-3.785803 2.251557-3.785803C2.839352-3.785803 3.526775-3.556663 3.526775-2.769614C2.331258-2.769614 .547945-2.480697 .547945-1.275218C.547945-.348692 1.474471 .049813 2.211706 .049813C2.689913 .049813 3.158157-.039851 3.536737-.268991C3.556663-.278954 3.576588-.298879 3.606476-.298879H3.626401C3.676214-.298879 3.815691-.14944 3.945205-.099626C4.224159 0 4.592777 0 4.881694 0C5.120797 0 5.220423-.14944 5.220423-.328767V-.358655C5.210461-.52802 5.070984-.617684 4.901619-.617684H4.60274C4.41345-.617684 4.214197-.637609 4.214197-.826899C4.214197-.876712 4.224159-.916563 4.224159-.956413V-2.769614C4.224159-3.716065 3.496887-4.323786 2.520548-4.383562H2.161893C1.633873-4.383562 .806974-4.323786 .806974-3.656289C.806974-3.367372 1.026152-3.198007 1.255293-3.198007C1.504359-3.198007 1.693649-3.39726 1.693649-3.636364C1.693649-3.666252 1.693649-3.706102 1.683686-3.73599ZM3.526775-2.171856V-1.325031C3.526775-.67746 2.789539-.557908 2.291407-.557908C1.872976-.557908 1.24533-.747198 1.24533-1.275218C1.24533-1.843088 2.161893-2.022416 2.560399-2.092154C2.879203-2.141968 3.20797-2.171856 3.526775-2.171856Z'/>
<path id='g0-98' d='M.956413-5.489415V-.388543C.956413-.069738 1.115816-.009963 1.315068-.009963C1.564134-.009963 1.653798-.139477 1.653798-.37858V-.448319C1.992528-.129514 2.371108 .049813 2.82939 .049813C3.975093 .049813 4.861768-1.006227 4.861768-2.15193C4.861768-3.217933 4.124533-4.353674 2.889166-4.353674C2.440847-4.353674 1.992528-4.174346 1.653798-3.875467V-5.718555C1.653798-6.057285 1.484433-6.097136 1.275218-6.097136H.358655C.219178-6.067248 .109589-5.947696 .109589-5.798257C.109589-5.608966 .239103-5.489415 .428394-5.489415H.956413ZM4.154421-2.032379C4.084682-1.295143 3.576588-.557908 2.769614-.557908C2.092154-.557908 1.643836-1.344956 1.643836-1.912827C1.643836-2.032379 1.653798-2.15193 1.653798-2.271482C1.653798-2.381071 1.643836-2.500623 1.643836-2.620174C1.643836-3.247821 2.281445-3.745953 2.86924-3.745953C3.716065-3.745953 4.164384-2.849315 4.164384-2.171856C4.164384-2.122042 4.164384-2.082192 4.154421-2.032379Z'/>
<path id='g0-99' d='M3.646326-3.73599C3.646326-3.706102 3.636364-3.676214 3.636364-3.646326C3.636364-3.35741 3.875467-3.198007 4.094645-3.198007C4.293898-3.198007 4.473225-3.317559 4.523039-3.576588C4.523039-4.343711 3.696139-4.383562 3.108344-4.383562C2.281445-4.383562 1.594022-4.134496 1.105853-3.417186C.856787-3.048568 .727273-2.600249 .727273-2.161893C.727273-1.115816 1.534247 .049813 2.899128 .049813C3.58655 .049813 4.26401-.209215 4.572852-.86675C4.60274-.936488 4.632628-1.026152 4.632628-1.105853C4.632628-1.285181 4.493151-1.374844 4.313823-1.374844H4.214197C4.004981-1.374844 3.955168-1.165629 3.895392-1.036115C3.73599-.707347 3.337484-.557908 2.998755-.557908C2.11208-.557908 1.424658-1.305106 1.424658-2.15193C1.424658-3.01868 2.052304-3.775841 3.01868-3.775841C3.227895-3.775841 3.437111-3.755915 3.646326-3.73599Z'/>
<path id='g0-100' d='M3.566625-5.489415V-3.915318C3.247821-4.164384 2.86924-4.353674 2.460772-4.353674C1.235367-4.353674 .358655-3.327522 .358655-2.141968C.358655-1.05604 1.105853-.039851 2.201743 .049813H2.30137C2.779577 .049813 3.217933-.14944 3.566625-.498132V-.348692C3.566625-.129514 3.676214-.009963 3.905355-.009963H4.742217C4.931507-.009963 5.110834-.089664 5.110834-.308842C5.110834-.518057 4.961395-.617684 4.762142-.617684H4.26401V-5.768369C4.26401-5.967621 4.164384-6.107098 3.915318-6.107098C3.855542-6.107098 3.795766-6.097136 3.73599-6.097136H3.068493C2.889166-6.097136 2.719801-6.007472 2.719801-5.798257C2.719801-5.618929 2.839352-5.489415 3.048568-5.489415H3.566625ZM1.05604-2.042341C1.05604-2.092154 1.046077-2.132005 1.046077-2.181818C1.046077-2.948941 1.643836-3.745953 2.450809-3.745953H2.510585C3.01868-3.716065 3.496887-3.267746 3.566625-2.799502V-2.291407C3.566625-2.181818 3.576588-2.062267 3.576588-1.942715C3.576588-1.225405 2.978829-.557908 2.34122-.557908C1.564134-.557908 1.125778-1.354919 1.05604-2.042341Z'/>
<path id='g0-101' d='M1.265255-1.912827H4.234122C4.443337-1.912827 4.622665-1.96264 4.622665-2.261519C4.622665-2.799502 4.473225-3.367372 4.144458-3.765878C3.785803-4.184309 3.247821-4.383562 2.709838-4.383562C1.58406-4.383562 .547945-3.486924 .547945-2.141968V-2.052304C.597758-.86675 1.653798 .049813 2.849315 .049813H2.948941C3.496887 .029888 4.084682-.179328 4.423412-.637609C4.503113-.757161 4.622665-.936488 4.622665-1.09589C4.622665-1.305106 4.443337-1.374844 4.26401-1.374844C3.965131-1.374844 3.955168-1.185554 3.855542-1.016189C3.646326-.697385 3.267746-.557908 2.899128-.557908C2.092154-.557908 1.474471-1.105853 1.265255-1.912827ZM1.275218-2.510585C1.464508-3.158157 1.892902-3.775841 2.709838-3.775841C3.437111-3.775841 3.865504-3.198007 3.905355-2.510585H1.275218Z'/>
<path id='g0-102' d='M1.823163-4.293898H1.026152C.956413-4.293898 .876712-4.303861 .797011-4.303861C.557908-4.303861 .428394-4.174346 .428394-3.975093C.428394-3.755915 .607721-3.686177 .787049-3.686177H1.823163V-.617684H.986301C.916563-.617684 .846824-.627646 .767123-.627646C.52802-.627646 .418431-.488169 .418431-.318804C.418431-.169365 .508095-.029888 .667497-.009963H3.616438C3.815691-.009963 3.92528-.139477 3.92528-.308842C3.92528-.508095 3.795766-.627646 3.566625-.627646C3.486924-.627646 3.417186-.617684 3.347447-.617684H2.520548V-3.686177H3.835616C4.024907-3.686177 4.154421-3.815691 4.154421-3.995019C4.154421-4.254047 3.92528-4.293898 3.765878-4.293898H2.520548V-4.851806C2.520548-5.349938 2.948941-5.549191 3.35741-5.549191C3.566625-5.549191 3.496887-5.459527 3.556663-5.339975C3.636364-5.200498 3.785803-5.120797 3.935243-5.120797C4.194271-5.120797 4.353674-5.330012 4.353674-5.579078C4.353674-6.107098 3.676214-6.156912 3.39726-6.156912C2.689913-6.156912 1.823163-5.758406 1.823163-4.891656V-4.293898Z'/>
<path id='g0-103' d='M3.287671-4.054795H3.277709C3.048568-4.273973 2.6401-4.353674 2.331258-4.353674C1.504359-4.353674 .667497-3.726027 .667497-2.779577C.667497-2.500623 .737235-2.201743 .886675-1.96264C.9066-1.92279 .956413-1.872976 .966376-1.823163V-1.8132C.966376-1.703611 .777086-1.384807 .777086-1.165629C.777086-.876712 .886675-.687422 1.016189-.428394C.617684-.229141 .288917 .288917 .288917 .797011C.288917 1.833126 1.62391 2.271482 2.570361 2.271482C3.048568 2.271482 3.526775 2.211706 3.965131 2.012453C4.41345 1.803238 4.891656 1.444583 4.931507 .9066V.826899C4.931507-.418431 3.616438-.617684 2.590286-.617684H1.982565C1.932752-.627646 1.892902-.637609 1.843088-.647572H1.753425C1.504359-.647572 1.374844-.9066 1.374844-1.115816C1.374844-1.215442 1.39477-1.315068 1.424658-1.414695C1.673724-1.285181 1.932752-1.185554 2.221669-1.165629H2.321295C3.16812-1.165629 3.975093-1.8132 3.975093-2.759651C3.975093-3.01868 3.905355-3.267746 3.785803-3.496887C3.765878-3.516812 3.73599-3.566625 3.73599-3.606476C3.73599-3.696139 4.104608-3.765878 4.283935-3.795766C4.323786-3.606476 4.4533-3.457036 4.662516-3.457036C4.851806-3.457036 5.041096-3.58655 5.070984-3.805729V-3.855542C5.070984-4.234122 4.662516-4.41345 4.323786-4.41345C3.955168-4.41345 3.486924-4.254047 3.287671-4.054795ZM.876712 .856787C.876712 .826899 .86675 .806974 .86675 .777086C.86675 .229141 1.444583-.059776 1.902864-.059776C2.012453-.059776 2.122042-.049813 2.221669-.049813H2.729763C3.337484-.049813 4.273973 0 4.343711 .737235V.797011C4.343711 1.155666 3.92528 1.39477 3.626401 1.504359C3.297634 1.633873 2.938979 1.673724 2.590286 1.673724C2.221669 1.673724 1.853051 1.613948 1.504359 1.464508C1.24533 1.354919 .9066 1.165629 .876712 .856787ZM1.364882-2.67995V-2.759651C1.364882-3.277709 1.793275-3.755915 2.321295-3.755915H2.351183C2.82939-3.726027 3.217933-3.347447 3.277709-2.839352V-2.759651C3.277709-2.241594 2.849315-1.763387 2.321295-1.763387H2.291407C1.8132-1.793275 1.424658-2.171856 1.364882-2.67995Z'/>
<path id='g0-104' d='M.956413-5.489415V-.617684H.438356C.239103-.617684 .109589-.488169 .109589-.318804C.109589-.109589 .259029-.009963 .478207-.009963H2.11208C2.34122-.009963 2.500623-.089664 2.500623-.308842C2.500623-.508095 2.361146-.617684 2.171856-.617684H1.653798V-2.281445C1.653798-3.058531 2.11208-3.745953 2.919054-3.745953C3.437111-3.745953 3.566625-3.35741 3.566625-2.919054V-.617684H3.088418C2.879203-.617684 2.769614-.468244 2.769614-.308842C2.769614-.079701 2.948941-.009963 3.148194-.009963H4.742217C4.961395-.009963 5.110834-.109589 5.110834-.318804C5.110834-.488169 4.98132-.617684 4.782067-.617684H4.26401V-2.799502C4.26401-3.476961 4.084682-4.353674 2.968867-4.353674C2.49066-4.353674 2.002491-4.164384 1.653798-3.835616V-5.718555C1.653798-6.057285 1.484433-6.097136 1.275218-6.097136H.358655C.219178-6.067248 .109589-5.947696 .109589-5.798257C.109589-5.608966 .239103-5.489415 .428394-5.489415H.956413Z'/>
<path id='g0-105' d='M2.391034-3.686177V-.617684H1.155666C.9066-.617684 .777086-.508095 .777086-.318804C.777086-.179328 .86675-.029888 1.026152-.009963H4.204234C4.41345-.009963 4.533001-.119552 4.533001-.308842C4.533001-.508095 4.403487-.627646 4.174346-.627646C4.094645-.627646 4.014944-.617684 3.945205-.617684H3.088418V-3.955168C3.088418-4.244085 2.909091-4.293898 2.719801-4.293898H1.235367C1.066002-4.293898 .856787-4.254047 .856787-3.985056C.856787-3.765878 1.006227-3.686177 1.24533-3.686177H2.391034ZM2.520548-6.097136C2.251557-6.057285 2.092154-5.828144 2.092154-5.608966S2.271482-5.110834 2.560399-5.110834C2.86924-5.110834 3.088418-5.349938 3.088418-5.608966C3.088418-5.828144 2.909091-6.107098 2.610212-6.107098C2.580324-6.107098 2.550436-6.097136 2.520548-6.097136Z'/>
<path id='g0-107' d='M1.09589-5.489415V-.617684H.537983C.328767-.617684 .209215-.498132 .209215-.308842C.209215-.129514 .328767-.009963 .56787-.009963H2.241594C2.430884-.009963 2.540473-.14944 2.540473-.308842C2.540473-.508095 2.400996-.617684 2.211706-.617684H1.653798V-1.414695L2.440847-2.161893L3.636364-.617684C3.576588-.617684 3.506849-.627646 3.437111-.627646C3.227895-.627646 3.068493-.508095 3.068493-.308842C3.068493-.089664 3.247821 0 3.447073 0C3.516812 0 3.58655-.009963 3.646326-.009963H4.443337C4.513076-.009963 4.592777 0 4.672478 0C4.931507 0 5.061021-.119552 5.061021-.318804C5.061021-.577833 4.851806-.617684 4.672478-.617684H4.4533C4.26401-.617684 4.11457-.926526 3.985056-1.085928C3.656289-1.524284 3.297634-1.96264 2.968867-2.410959C2.938979-2.440847 2.889166-2.49066 2.889166-2.540473V-2.550436C2.889166-2.630137 3.815691-3.447073 3.995019-3.596513C4.044832-3.646326 4.094645-3.686177 4.174346-3.686177H4.483188C4.692403-3.686177 4.841843-3.785803 4.841843-3.995019C4.841843-4.214197 4.652553-4.303861 4.463263-4.303861C4.393524-4.303861 4.333748-4.293898 4.273973-4.293898H2.859278C2.650062-4.293898 2.500623-4.204234 2.500623-3.985056C2.500623-3.825654 2.610212-3.686177 2.799502-3.686177H3.257783L1.653798-2.181818V-5.499377C1.653798-5.569116 1.663761-5.648817 1.663761-5.728518C1.663761-5.987547 1.534247-6.107098 1.285181-6.107098C1.215442-6.107098 1.145704-6.097136 1.085928-6.097136H.488169C.33873-6.097136 .199253-5.967621 .199253-5.808219C.199253-5.608966 .33873-5.489415 .537983-5.489415H1.09589Z'/>
<path id='g0-108' d='M2.261519-5.489415V-.617684H.876712C.687422-.617684 .56787-.488169 .56787-.308842C.56787-.089664 .737235-.009963 .936488-.009963H4.41345C4.572852-.039851 4.652553-.179328 4.652553-.318804C4.652553-.488169 4.542964-.617684 4.353674-.617684H2.958904V-5.718555C2.958904-6.057285 2.789539-6.097136 2.580324-6.097136H.946451C.787049-6.097136 .56787-6.067248 .56787-5.798257C.56787-5.618929 .687422-5.489415 .886675-5.489415H2.261519Z'/>
<path id='g0-109' d='M1.075965-3.975093C1.075965-4.254047 .876712-4.303861 .67746-4.303861C.587796-4.303861 .498132-4.293898 .428394-4.293898H.308842C.129514-4.293898-.049813-4.224159-.049813-3.995019C-.049813-3.845579 .049813-3.706102 .209215-3.686177H.518057V-.617684C.458281-.617684 .398506-.627646 .328767-.627646C.129514-.627646-.049813-.537983-.049813-.318804C-.049813-.119552 .089664-.009963 .298879-.009963H1.275218C1.484433-.009963 1.643836-.099626 1.643836-.318804S1.464508-.627646 1.265255-.627646C1.195517-.627646 1.135741-.617684 1.075965-.617684V-2.181818C1.075965-2.759651 1.155666-3.556663 1.77335-3.716065C1.823163-3.73599 1.882939-3.745953 1.932752-3.745953C2.331258-3.745953 2.331258-3.188045 2.331258-2.879203V-.617684H2.181818C1.972603-.617684 1.823163-.52802 1.823163-.318804C1.823163-.119552 1.942715-.009963 2.171856-.009963H3.108344C3.317559-.009963 3.457036-.119552 3.457036-.318804C3.457036-.537983 3.277709-.627646 3.078456-.627646C3.008717-.627646 2.948941-.617684 2.889166-.617684V-2.181818C2.889166-2.759651 2.968867-3.556663 3.58655-3.716065C3.636364-3.73599 3.696139-3.745953 3.745953-3.745953C4.144458-3.745953 4.144458-3.188045 4.144458-2.879203V-.617684H3.995019C3.785803-.617684 3.636364-.52802 3.636364-.318804C3.636364-.119552 3.755915-.009963 3.985056-.009963H4.921544C5.13076-.009963 5.270237-.119552 5.270237-.318804C5.270237-.537983 5.090909-.627646 4.891656-.627646C4.821918-.627646 4.762142-.617684 4.702366-.617684V-2.929016C4.702366-3.486924 4.60274-4.363636 3.775841-4.363636C3.377335-4.363636 2.938979-4.11457 2.759651-3.815691C2.590286-4.134496 2.34122-4.353674 1.96264-4.353674C1.633873-4.353674 1.305106-4.194271 1.075965-3.975093Z'/>
<path id='g0-111' d='M2.470735-4.383562C1.285181-4.273973 .56787-3.20797 .56787-2.141968V-2.042341C.607721-.956413 1.454545 .049813 2.620174 .049813H2.739726C3.92528-.049813 4.652553-1.09589 4.652553-2.15193V-2.261519C4.612702-3.367372 3.755915-4.383562 2.580324-4.383562H2.470735ZM1.265255-2.102117C1.265255-2.141968 1.255293-2.191781 1.255293-2.231631C1.255293-2.968867 1.793275-3.775841 2.630137-3.775841C3.39726-3.775841 3.875467-3.058531 3.955168-2.351183V-2.261519C3.955168-1.514321 3.486924-.557908 2.610212-.557908H2.570361C1.823163-.617684 1.344956-1.305106 1.265255-2.102117Z'/>
<path id='g0-114' d='M2.211706-3.556663V-3.915318C2.211706-4.164384 2.11208-4.293898 1.853051-4.293898H.647572C.458281-4.293898 .308842-4.204234 .308842-3.995019S.438356-3.686177 .67746-3.686177H1.514321V-.617684H.657534C.428394-.617684 .308842-.498132 .308842-.318804C.308842-.14944 .428394 0 .637609 0C.687422 0 .747198-.009963 .797011-.009963H2.759651C2.909091-.009963 3.068493 0 3.227895 0C3.526775 0 3.716065-.049813 3.716065-.318804C3.716065-.498132 3.606476-.617684 3.35741-.617684H2.211706V-1.763387C2.211706-2.660025 2.699875-3.755915 3.915318-3.755915C4.054795-3.755915 4.044832-3.307597 4.433375-3.307597C4.652553-3.307597 4.851806-3.476961 4.851806-3.73599C4.851806-4.214197 4.283935-4.363636 3.905355-4.363636C3.237858-4.363636 2.660025-4.034869 2.211706-3.556663Z'/>
<path id='g0-115' d='M1.384807-.328767C1.753425-.049813 2.201743 .049813 2.660025 .049813C3.506849 .049813 4.572852-.249066 4.572852-1.255293C4.572852-2.560399 2.689913-2.560399 2.022416-2.709838C1.743462-2.779577 1.325031-2.919054 1.325031-3.217933C1.325031-3.666252 2.052304-3.745953 2.361146-3.765878C2.450809-3.765878 2.540473-3.775841 2.6401-3.775841C2.948941-3.775841 3.486924-3.706102 3.556663-3.307597C3.626401-3.048568 3.616438-2.889166 3.945205-2.889166C4.234122-2.889166 4.273973-3.078456 4.273973-3.267746V-4.054795C4.273973-4.254047 4.164384-4.383562 3.975093-4.383562C3.835616-4.383562 3.726027-4.293898 3.676214-4.174346C3.337484-4.313823 3.038605-4.383562 2.660025-4.383562C1.843088-4.383562 .71731-4.164384 .71731-3.198007C.71731-1.58406 3.965131-2.331258 3.965131-1.265255V-1.235367C3.965131-.597758 2.938979-.557908 2.719801-.557908H2.67995C2.161893-.557908 1.683686-.767123 1.474471-1.315068C1.354919-1.574097 1.354919-1.723537 1.05604-1.723537S.71731-1.544209 .71731-1.364882V-.498132C.71731-.438356 .707347-.368618 .707347-.298879C.707347-.079701 .826899 .049813 1.016189 .049813C1.255293 .049813 1.315068-.14944 1.384807-.328767Z'/>
<path id='g0-116' d='M1.514321-4.293898H.607721C.368618-4.293898 .249066-4.174346 .249066-3.985056C.249066-3.785803 .408468-3.686177 .597758-3.686177H1.514321V-1.09589C1.58406-.368618 2.15193 .049813 2.929016 .049813C3.666252 .049813 4.473225-.408468 4.473225-1.225405V-1.344956C4.473225-1.613948 4.293898-1.653798 4.11457-1.653798C3.895392-1.653798 3.775841-1.534247 3.775841-1.305106V-1.235367C3.775841-.777086 3.327522-.557908 2.968867-.557908C2.410959-.557908 2.211706-.896638 2.211706-1.354919V-3.686177H3.855542C4.034869-3.686177 4.254047-3.716065 4.254047-3.985056C4.254047-4.174346 4.134496-4.293898 3.915318-4.293898H2.211706V-5.17061C2.211706-5.459527 2.052304-5.519303 1.863014-5.519303S1.514321-5.449564 1.514321-5.160648V-4.293898Z'/>
<path id='g0-117' d='M.956413-3.686177V-1.24533C.956413-.956413 .966376-.737235 1.135741-.448319C1.404732-.039851 1.92279 .049813 2.381071 .049813C2.789539 .049813 3.227895-.059776 3.566625-.318804C3.566625-.119552 3.686177-.009963 3.92528-.009963H4.752179C4.951432-.009963 5.110834-.099626 5.110834-.318804C5.110834-.518057 4.961395-.617684 4.772105-.617684H4.26401V-3.92528C4.26401-4.144458 4.204234-4.293898 3.875467-4.293898H3.108344C2.938979-4.293898 2.719801-4.273973 2.719801-3.995019C2.719801-3.815691 2.82939-3.686177 3.048568-3.686177H3.566625V-1.643836C3.566625-.856787 2.998755-.557908 2.410959-.557908C2.042341-.557908 1.653798-.607721 1.653798-1.215442V-3.905355C1.653798-4.11457 1.603985-4.293898 1.315068-4.293898H.478207C.278954-4.293898 .109589-4.204234 .109589-3.985056C.109589-3.775841 .268991-3.686177 .448319-3.686177H.956413Z'/>
<path id='g0-120' d='M1.723537-.617684L2.580324-1.843088L3.466999-.617684H3.307597C3.088418-.617684 2.968867-.498132 2.968867-.308842C2.968867-.099626 3.118306-.009963 3.307597-.009963H4.582814C4.83188-.009963 4.931507-.129514 4.931507-.318804C4.931507-.587796 4.732254-.627646 4.542964-.627646C4.463263-.627646 4.383562-.617684 4.323786-.617684H4.254047C4.124533-.617684 4.084682-.687422 4.014944-.777086L3.805729-1.036115C3.596513-1.295143 3.387298-1.564134 3.178082-1.823163C3.078456-1.952677 2.978829-2.102117 2.859278-2.211706V-2.221669C2.968867-2.321295 3.058531-2.460772 3.148194-2.580324C3.427148-2.919054 3.905355-3.686177 4.104608-3.686177H4.194271C4.254047-3.686177 4.323786-3.676214 4.403487-3.676214C4.582814-3.676214 4.79203-3.716065 4.79203-3.985056C4.79203-4.174346 4.692403-4.293898 4.443337-4.293898H3.16812C2.978829-4.293898 2.82939-4.204234 2.82939-3.995019C2.82939-3.795766 2.968867-3.686177 3.178082-3.686177H3.317559L2.590286-2.689913L1.823163-3.686177H1.972603C2.191781-3.686177 2.30137-3.815691 2.30137-3.995019C2.30137-4.214197 2.132005-4.303861 1.932752-4.303861C1.863014-4.303861 1.783313-4.293898 1.723537-4.293898H.946451C.876712-4.293898 .797011-4.303861 .71731-4.303861C.478207-4.303861 .328767-4.194271 .328767-3.985056C.328767-3.726027 .547945-3.676214 .737235-3.676214C.816936-3.676214 .886675-3.686177 .956413-3.686177H1.036115C1.195517-3.686177 1.285181-3.486924 1.39477-3.35741L2.032379-2.560399C2.11208-2.450809 2.281445-2.291407 2.281445-2.221669V-2.201743C2.261519-2.11208 2.082192-1.932752 1.992528-1.8132C1.77335-1.534247 1.564134-1.255293 1.344956-.976339L1.165629-.747198C1.09589-.657534 1.066002-.617684 .956413-.617684H.637609C.418431-.617684 .278954-.518057 .278954-.308842C.278954-.059776 .478207-.009963 .637609-.009963H1.683686C1.743462-.009963 1.8132 0 1.872976 0C2.072229 0 2.241594-.099626 2.241594-.308842C2.241594-.508095 2.102117-.617684 1.872976-.617684H1.723537Z'/>
<path id='g0-121' d='M.976339-3.686177C.996264-3.58655 1.046077-3.496887 1.085928-3.39726C1.39477-2.590286 1.723537-1.803238 2.032379-1.006227L2.30137-.328767C2.34122-.229141 2.420922-.089664 2.420922-.009963C2.420922 .109589 2.34122 .239103 2.311333 .348692C2.132005 .846824 1.942715 1.653798 1.235367 1.653798C1.265255 1.58406 1.285181 1.514321 1.285181 1.444583C1.285181 1.175592 1.085928 1.006227 .846824 1.006227C.557908 1.006227 .418431 1.235367 .418431 1.454545C.418431 1.932752 .826899 2.261519 1.265255 2.261519C2.271482 2.261519 2.669988 1.075965 2.929016 .278954C3.277709-.797011 3.656289-1.863014 4.024907-2.929016C4.084682-3.098381 4.144458-3.257783 4.194271-3.427148C4.244085-3.536737 4.224159-3.686177 4.393524-3.686177H4.60274C4.79203-3.686177 4.98132-3.716065 4.98132-4.024907C4.98132-4.244085 4.782067-4.293898 4.612702-4.293898H3.566625C3.506849-4.293898 3.437111-4.303861 3.367372-4.303861C3.138232-4.303861 3.01868-4.174346 3.01868-3.995019C3.01868-3.795766 3.138232-3.686177 3.387298-3.686177H3.696139L2.709838-.707347L1.574097-3.686177H1.863014C2.082192-3.686177 2.221669-3.785803 2.221669-3.985056C2.221669-4.204234 2.072229-4.293898 1.863014-4.293898H.797011C.737235-4.293898 .67746-4.303861 .607721-4.303861C.37858-4.303861 .259029-4.164384 .259029-3.985056C.259029-3.785803 .398506-3.686177 .627646-3.686177H.976339Z'/>
<path id='g1-28' d='M1.046077-4.293898H.268991V-3.985056H1.046077V-.687422C1.046077-.348692 .757161-.318804 .448319-.318804H.268991V-.009963H2.49066V-.318804H2.251557C1.972603-.318804 1.713574-.348692 1.713574-.687422V-3.985056H3.317559C3.596513-3.985056 3.815691-3.935243 3.815691-3.39726C3.815691-3.297634 3.805729-3.198007 3.805729-3.098381V-.737235C3.805729-.328767 3.526775-.318804 3.088418-.318804H3.028643V-.009963H5.250311V-.318804H5.001245C4.722291-.318804 4.473225-.358655 4.473225-.71731V-4.41345L2.968867-4.293898H1.683686V-5.310087C1.683686-5.549191 1.693649-5.768369 1.793275-5.987547C2.012453-6.495641 2.600249-6.814446 3.158157-6.814446C3.476961-6.814446 3.785803-6.714819 4.014944-6.485679C3.755915-6.485679 3.536737-6.306351 3.536737-6.03736C3.536737-5.798257 3.726027-5.569116 3.995019-5.569116C4.224159-5.569116 4.433375-5.728518 4.4533-5.977584V-6.03736C4.4533-6.724782 3.73599-7.033624 3.148194-7.033624C2.400996-7.033624 1.504359-6.714819 1.155666-5.987547C1.05604-5.778331 1.046077-5.559153 1.046077-5.330012V-4.293898Z'/>
<path id='g1-33' d='M1.305106-7.13325C1.006227-7.13325 .856787-6.834371 .856787-6.575342C.856787-6.425903 .886675-6.276463 .896638-6.136986C.966376-5.110834 1.09589-4.07472 1.165629-3.048568C1.185554-2.739726 1.215442-2.440847 1.24533-2.132005C1.255293-2.032379 1.235367-1.882939 1.364882-1.872976H1.414695C1.544209-1.892902 1.514321-2.072229 1.524284-2.171856C1.693649-3.556663 1.763387-4.951432 1.892902-6.336239C1.902864-6.435866 1.912827-6.525529 1.912827-6.625156C1.912827-6.933998 1.673724-7.143213 1.384807-7.143213C1.354919-7.143213 1.334994-7.13325 1.305106-7.13325ZM1.305106-1.05604C1.05604-1.026152 .856787-.806974 .856787-.537983C.856787-.249066 1.105853-.009963 1.384807-.009963C1.653798-.009963 1.912827-.229141 1.912827-.537983C1.912827-.826899 1.663761-1.066002 1.384807-1.066002C1.354919-1.066002 1.334994-1.05604 1.305106-1.05604Z'/>
<path id='g1-34' d='M1.534247-3.466999H1.753425C1.863014-4.07472 1.902864-4.722291 1.96264-5.339975C2.022416-5.768369 2.11208-6.22665 2.11208-6.645081C2.11208-6.90411 1.892902-7.083437 1.643836-7.083437C1.334994-7.083437 1.185554-6.864259 1.185554-6.625156C1.185554-6.445828 1.225405-6.256538 1.24533-6.067248C1.344956-5.200498 1.464508-4.333748 1.534247-3.466999ZM3.217933-3.466999H3.437111C3.516812-4.4533 3.686177-5.439601 3.765878-6.435866C3.775841-6.495641 3.785803-6.56538 3.785803-6.625156C3.785803-6.864259 3.636364-7.083437 3.327522-7.083437C3.078456-7.083437 2.859278-6.90411 2.859278-6.645081C2.859278-6.495641 2.889166-6.346202 2.909091-6.206725C2.978829-5.529265 3.048568-4.851806 3.138232-4.174346C3.158157-3.935243 3.178082-3.696139 3.217933-3.466999Z'/>
<path id='g1-44' d='M1.783313-.18929C1.803238-.139477 1.8132-.079701 1.8132-.019925C1.8132 .657534 1.494396 1.235367 1.05604 1.713574C1.036115 1.743462 1.016189 1.783313 1.016189 1.8132C1.016189 1.853051 1.066002 1.912827 1.115816 1.912827C1.255293 1.912827 1.524284 1.534247 1.653798 1.315068C1.892902 .9066 2.022416 .438356 2.022416-.029888C2.022416-.478207 1.892902-1.066002 1.374844-1.066002C1.075965-1.066002 .856787-.836862 .856787-.537983C.856787-.199253 1.115816-.009963 1.384807-.009963C1.534247-.009963 1.693649-.059776 1.783313-.18929Z'/>
<path id='g1-45' d='M.109589-2.440847V-1.853051H2.759651V-2.440847H.109589Z'/>
<path id='g1-46' d='M1.305106-1.05604C1.05604-1.026152 .856787-.797011 .856787-.547945S1.05604-.009963 1.364882-.009963C1.633873-.009963 1.912827-.219178 1.912827-.52802C1.912827-.787049 1.713574-1.066002 1.39477-1.066002C1.364882-1.066002 1.334994-1.05604 1.305106-1.05604Z'/>
<path id='g1-47' d='M4.273973-7.47198C4.174346-7.412204 4.11457-7.13325 4.044832-6.973848L3.506849-5.529265C2.779577-3.58655 2.042341-1.653798 1.315068 .288917L.597758 2.201743C.587796 2.251557 .557908 2.30137 .557908 2.351183V2.371108C.557908 2.430884 .587796 2.470735 .647572 2.470735H.67746C.787049 2.450809 .86675 2.122042 .936488 1.942715L1.564134 .259029C2.30137-1.683686 3.028643-3.636364 3.755915-5.579078L4.383562-7.242839C4.403487-7.272727 4.41345-7.312578 4.41345-7.352428V-7.372354C4.41345-7.43213 4.373599-7.481943 4.313823-7.481943C4.303861-7.481943 4.283935-7.481943 4.273973-7.47198Z'/>
<path id='g1-48' d='M2.351183-6.645081C.428394-6.475716 .388543-4.124533 .388543-3.148194C.388543-2.221669 .468244-1.135741 1.09589-.398506C1.414695-.019925 1.96264 .219178 2.460772 .219178C3.317559 .219178 3.975093-.328767 4.283935-1.09589C4.552927-1.783313 4.582814-2.540473 4.582814-3.267746C4.582814-4.204234 4.483188-5.339975 3.875467-6.027397C3.536737-6.41594 2.998755-6.655044 2.49066-6.655044C2.440847-6.655044 2.400996-6.645081 2.351183-6.645081ZM1.225405-2.580324C1.215442-2.669988 1.215442-2.749689 1.215442-2.839352V-3.317559C1.215442-3.795766 1.215442-4.26401 1.265255-4.742217C1.295143-5.120797 1.334994-5.539228 1.544209-5.867995C1.763387-6.196762 2.11208-6.425903 2.500623-6.425903C3.666252-6.425903 3.745953-4.971357 3.745953-3.985056V-3.516812C3.745953-3.247821 3.755915-2.958904 3.755915-2.660025C3.755915-1.384807 3.58655-.009963 2.49066-.009963C1.155666-.009963 1.285181-1.942715 1.225405-2.580324Z'/>
<path id='g1-49' d='M.896638-6.007472V-5.69863C1.325031-5.69863 1.803238-5.748443 2.191781-5.957659V-.757161C2.191781-.368618 1.8132-.308842 1.424658-.308842C1.255293-.308842 1.085928-.318804 .946451-.318804V-.009963H4.184309V-.318804C4.014944-.318804 3.845579-.308842 3.686177-.308842C3.287671-.308842 2.938979-.368618 2.938979-.747198V-6.485679C2.938979-6.575342 2.909091-6.645081 2.799502-6.645081C2.660025-6.645081 2.49066-6.455791 2.381071-6.37609C1.942715-6.087173 1.404732-6.007472 .896638-6.007472Z'/>
<path id='g1-50' d='M.886675-5.32005C1.125778-5.828144 1.494396-6.336239 2.211706-6.336239C3.148194-6.336239 3.566625-5.479452 3.566625-4.702366C3.566625-3.785803 2.948941-3.028643 2.381071-2.371108C1.8132-1.703611 1.205479-1.066002 .627646-.408468C.537983-.318804 .498132-.259029 .498132-.129514V-.009963H4.194271L4.473225-1.753425H4.224159C4.144458-1.295143 4.194271-.797011 3.686177-.797011H3.287671C2.998755-.787049 2.709838-.777086 2.420922-.777086C2.032379-.777086 1.653798-.787049 1.275218-.787049L1.96264-1.444583C2.241594-1.713574 2.510585-1.982565 2.799502-2.231631C3.536737-2.889166 4.473225-3.606476 4.473225-4.712329C4.473225-5.838107 3.516812-6.655044 2.391034-6.655044C1.43462-6.655044 .498132-5.927771 .498132-4.861768C.498132-4.612702 .597758-4.293898 1.016189-4.293898C1.315068-4.293898 1.544209-4.503113 1.544209-4.801993C1.544209-5.070984 1.344956-5.330012 1.036115-5.330012C.986301-5.330012 .936488-5.32005 .886675-5.32005Z'/>
<path id='g1-51' d='M1.085928-5.778331C1.424658-6.246575 1.96264-6.396015 2.500623-6.396015C3.088418-6.396015 3.35741-5.798257 3.35741-5.300125C3.35741-4.672478 3.148194-3.855542 2.480697-3.656289C2.251557-3.596513 1.663761-3.666252 1.663761-3.476961V-3.447073C1.673724-3.377335 1.743462-3.367372 1.823163-3.367372H1.942715C2.052304-3.367372 2.171856-3.377335 2.291407-3.377335C3.267746-3.377335 3.526775-2.450809 3.526775-1.733499V-1.58406C3.516812-.946451 3.237858-.069738 2.381071-.069738C1.833126-.069738 1.165629-.328767 .876712-.836862C.9066-.836862 .936488-.826899 .976339-.826899C1.295143-.826899 1.524284-1.075965 1.524284-1.384807C1.524284-1.663761 1.334994-1.892902 1.05604-1.932752H.996264C.597758-1.932752 .418431-1.653798 .418431-1.344956C.418431-.298879 1.544209 .209215 2.420922 .209215C3.496887 .209215 4.552927-.577833 4.552927-1.723537C4.552927-2.650062 3.765878-3.35741 2.879203-3.516812C3.606476-3.775841 4.283935-4.383562 4.283935-5.250311C4.283935-6.127024 3.377335-6.645081 2.440847-6.645081C1.673724-6.645081 .687422-6.22665 .687422-5.280199C.687422-4.961395 .926526-4.772105 1.195517-4.772105S1.693649-4.971357 1.693649-5.270237C1.693649-5.579078 1.474471-5.778331 1.165629-5.778331H1.085928Z'/>
<path id='g1-52' d='M.278954-1.653798H2.929016V-.747198C2.929016-.33873 2.620174-.318804 2.102117-.318804H1.96264V-.009963H4.672478V-.318804C4.542964-.318804 4.41345-.308842 4.293898-.308842C3.975093-.308842 3.706102-.368618 3.706102-.747198V-1.653798H4.692403V-1.96264H3.706102V-6.425903C3.706102-6.465753 3.716065-6.515567 3.716065-6.56538C3.716065-6.674969 3.686177-6.75467 3.566625-6.75467C3.39726-6.75467 3.377335-6.684932 3.307597-6.575342C2.371108-5.160648 1.43462-3.73599 .508095-2.321295C.388543-2.141968 .268991-1.992528 .268991-1.833126C.268991-1.77335 .278954-1.713574 .278954-1.653798ZM.557908-1.96264L2.988792-5.65878V-1.96264H.557908Z'/>
<path id='g1-53' d='M.816936-1.195517C.86675-1.175592 .926526-1.165629 .986301-1.165629C1.275218-1.165629 1.484433-1.374844 1.484433-1.663761C1.484433-1.942715 1.255293-2.141968 .996264-2.141968C.727273-2.141968 .498132-1.952677 .498132-1.633873C.498132-.607721 1.315068 .199253 2.321295 .199253C3.526775 .199253 4.473225-.826899 4.473225-2.032379C4.473225-3.048568 3.785803-4.194271 2.590286-4.194271C2.11208-4.194271 1.663761-4.014944 1.315068-3.686177V-5.628892C1.554172-5.569116 1.793275-5.50934 2.042341-5.499377H2.161893C2.859278-5.499377 3.516812-5.798257 3.985056-6.346202C4.024907-6.405978 4.084682-6.465753 4.084682-6.535492V-6.555417C4.07472-6.60523 4.034869-6.645081 3.985056-6.645081C3.865504-6.645081 3.636364-6.505604 3.457036-6.455791C3.16812-6.366127 2.859278-6.326276 2.550436-6.326276C2.102117-6.326276 1.703611-6.435866 1.275218-6.575342C1.225405-6.595268 1.175592-6.625156 1.125778-6.635118H1.105853C1.05604-6.635118 1.016189-6.595268 1.006227-6.545455V-3.347447C1.006227-3.257783 1.036115-3.188045 1.135741-3.188045C1.255293-3.188045 1.364882-3.407223 1.414695-3.457036C1.693649-3.785803 2.122042-3.975093 2.560399-3.975093H2.590286C3.457036-3.955168 3.58655-2.839352 3.58655-2.082192C3.58655-1.404732 3.5467-.557908 2.779577-.179328C2.620174-.099626 2.440847-.069738 2.271482-.069738C1.62391-.069738 .986301-.56787 .816936-1.195517Z'/>
<path id='g1-59' d='M1.783313-.18929C1.803238-.139477 1.8132-.079701 1.8132-.019925C1.8132 .657534 1.494396 1.235367 1.05604 1.713574C1.036115 1.743462 1.016189 1.783313 1.016189 1.8132C1.016189 1.853051 1.066002 1.912827 1.115816 1.912827C1.255293 1.912827 1.524284 1.534247 1.653798 1.315068C1.892902 .9066 2.022416 .438356 2.022416-.029888C2.022416-.478207 1.892902-1.066002 1.374844-1.066002C1.075965-1.066002 .856787-.836862 .856787-.537983C.856787-.199253 1.115816-.009963 1.384807-.009963C1.534247-.009963 1.693649-.059776 1.783313-.18929ZM1.305106-4.283935C1.05604-4.254047 .856787-4.024907 .856787-3.775841S1.05604-3.237858 1.364882-3.237858C1.633873-3.237858 1.912827-3.447073 1.912827-3.755915C1.912827-4.014944 1.713574-4.293898 1.39477-4.293898C1.364882-4.293898 1.334994-4.283935 1.305106-4.283935Z'/>
<path id='g1-61' d='M.617684-3.566625C.577833-3.5467 .547945-3.506849 .547945-3.466999C.547945-3.39726 .607721-3.35741 .67746-3.35741H7.013699C7.083437-3.35741 7.193026-3.377335 7.193026-3.466999C7.193026-3.5467 7.103362-3.58655 7.033624-3.58655C6.993773-3.58655 6.94396-3.576588 6.90411-3.576588H.687422C.657534-3.576588 .637609-3.576588 .617684-3.566625ZM.627646-1.633873C.577833-1.613948 .557908-1.58406 .557908-1.544209C.557908-1.494396 .597758-1.43462 .667497-1.424658H7.023661C7.0934-1.424658 7.193026-1.454545 7.193026-1.534247S7.0934-1.653798 7.023661-1.653798C6.973848-1.653798 6.933998-1.643836 6.894147-1.643836H.707347C.67746-1.643836 .647572-1.643836 .627646-1.633873Z'/>
<path id='g1-62' d='M6.525529-2.510585V-2.49066C5.798257-2.191781 5.080946-1.843088 4.363636-1.504359C3.865504-1.275218 3.367372-1.05604 2.86924-.826899L1.026152 .019925C.966376 .049813 .836862 .089664 .836862 .179328C.836862 .249066 .876712 .288917 .946451 .288917C1.026152 .288917 1.105853 .229141 1.165629 .199253C2.590286-.438356 4.014944-1.115816 5.439601-1.753425C5.927771-1.972603 6.90411-2.351183 6.90411-2.500623S5.927771-3.028643 5.439601-3.247821C4.024907-3.875467 2.580324-4.572852 1.165629-5.200498C1.105853-5.230386 1.026152-5.290162 .946451-5.290162C.876712-5.290162 .836862-5.250311 .836862-5.180573C.836862-5.090909 .966376-5.051059 1.026152-5.021171L1.255293-4.921544C2.291407-4.443337 3.327522-3.965131 4.373599-3.486924L6.22665-2.6401C6.326276-2.600249 6.425903-2.550436 6.525529-2.510585Z'/>
<path id='g1-91' d='M1.036115-7.481943V2.480697H2.540473V2.261519H1.703611V-7.262765H2.540473V-7.481943H1.036115Z'/>
<path id='g1-93' d='M.219178-7.481943V-7.262765H1.05604V2.261519H.219178V2.480697H1.723537V-7.481943H.219178Z'/>
<path id='g1-97' d='M1.115816-3.795766C1.364882-4.104608 1.803238-4.244085 2.171856-4.244085C2.909091-4.244085 3.237858-3.576588 3.237858-2.86924V-2.610212C2.092154-2.610212 .408468-2.251557 .408468-.946451V-.86675C.488169-.099626 1.454545 .099626 2.022416 .099626C2.530511 .099626 3.178082-.239103 3.307597-.747198H3.317559C3.377335-.318804 3.646326 .049813 4.094645 .049813C4.503113 .049813 4.861768-.278954 4.911582-.727273V-1.454545H4.662516V-.946451C4.662516-.67746 4.612702-.268991 4.303861-.268991C3.985056-.268991 3.935243-.657534 3.935243-.926526V-2.590286C3.935243-2.719801 3.945205-2.839352 3.945205-2.968867C3.945205-3.935243 3.038605-4.463263 2.211706-4.463263C1.58406-4.463263 .697385-4.154421 .697385-3.35741C.697385-3.068493 .9066-2.879203 1.165629-2.879203C1.444583-2.879203 1.613948-3.098381 1.613948-3.337484C1.613948-3.626401 1.384807-3.795766 1.115816-3.795766ZM3.237858-2.400996V-1.39477C3.237858-.707347 2.759651-.159402 2.11208-.119552H2.072229C1.603985-.119552 1.185554-.488169 1.185554-.966376V-1.016189C1.255293-2.022416 2.381071-2.371108 3.237858-2.400996Z'/>
<path id='g1-98' d='M.268991-6.814446V-6.505604H.438356C.747198-6.505604 1.046077-6.475716 1.046077-6.007472V-.009963L1.285181-.029888L1.414695-.199253L1.653798-.617684H1.673724C1.912827-.139477 2.500623 .099626 2.998755 .099626C4.234122 .099626 5.190535-.976339 5.190535-2.161893C5.190535-3.307597 4.313823-4.403487 3.038605-4.403487C2.520548-4.403487 2.062267-4.154421 1.713574-3.765878V-6.924035L.268991-6.814446ZM4.343711-1.912827C4.303861-1.43462 4.254047-1.016189 3.955168-.647572C3.706102-.328767 3.327522-.119552 2.929016-.119552C2.500623-.119552 2.11208-.368618 1.882939-.727273C1.803238-.836862 1.743462-.926526 1.743462-1.075965V-2.739726C1.743462-2.86924 1.733499-2.998755 1.733499-3.128269C1.733499-3.726027 2.460772-4.184309 3.01868-4.184309C4.094645-4.184309 4.353674-2.929016 4.353674-2.141968C4.353674-2.062267 4.353674-1.992528 4.343711-1.912827Z'/>
<path id='g1-99' d='M3.576588-3.855542C3.317559-3.835616 3.108344-3.676214 3.108344-3.39726C3.108344-3.128269 3.297634-2.938979 3.566625-2.938979C3.865504-2.938979 4.024907-3.158157 4.024907-3.437111V-3.496887C3.92528-4.224159 3.078456-4.463263 2.500623-4.463263C1.285181-4.463263 .328767-3.39726 .328767-2.161893C.328767-1.036115 1.205479 .099626 2.49066 .099626C3.148194 .099626 3.795766-.259029 4.064757-.956413C4.084682-1.016189 4.134496-1.105853 4.134496-1.175592S4.084682-1.295143 4.014944-1.295143C3.865504-1.295143 3.775841-.916563 3.706102-.787049C3.466999-.398506 3.058531-.159402 2.610212-.14944C1.544209-.14944 1.215442-1.215442 1.165629-2.002491V-2.122042C1.165629-2.919054 1.354919-4.11457 2.450809-4.214197H2.530511C2.899128-4.214197 3.287671-4.104608 3.576588-3.855542Z'/>
<path id='g1-100' d='M3.028643-6.814446V-6.505604H3.188045C3.536737-6.505604 3.805729-6.465753 3.805729-5.88792L3.795766-3.795766C3.556663-4.194271 2.988792-4.403487 2.530511-4.403487C1.305106-4.403487 .328767-3.347447 .328767-2.141968C.328767-1.075965 1.145704 .099626 2.460772 .099626C2.978829 .099626 3.447073-.14944 3.775841-.547945V.099626L5.250311-.009963V-.318804H5.080946C4.772105-.318804 4.473225-.348692 4.473225-.816936V-6.924035L3.028643-6.814446ZM1.165629-1.902864V-2.052304C1.165629-2.789539 1.255293-3.536737 1.942715-3.995019C2.141968-4.11457 2.371108-4.184309 2.600249-4.184309C3.088418-4.184309 3.785803-3.785803 3.785803-3.158157C3.785803-3.028643 3.775841-2.899128 3.775841-2.769614V-1.115816C3.775841-.986301 3.726027-.896638 3.656289-.797011C3.39726-.408468 2.968867-.119552 2.500623-.119552C1.77335-.119552 1.315068-.787049 1.205479-1.474471C1.185554-1.613948 1.185554-1.763387 1.165629-1.902864Z'/>
<path id='g1-101' d='M1.115816-2.311333H3.985056C4.094645-2.311333 4.144458-2.381071 4.144458-2.49066C4.144458-3.5467 3.496887-4.463263 2.381071-4.463263C1.155666-4.463263 .278954-3.377335 .278954-2.191781C.278954-1.275218 .787049-.458281 1.663761-.059776C1.892902 .039851 2.161893 .099626 2.410959 .099626H2.440847C3.20797 .099626 3.845579-.328767 4.11457-1.09589C4.124533-1.125778 4.124533-1.165629 4.124533-1.195517C4.124533-1.265255 4.084682-1.315068 4.014944-1.315068C3.865504-1.315068 3.805729-.986301 3.745953-.876712C3.496887-.438356 3.01868-.14944 2.500623-.14944C2.132005-.14944 1.8132-.358655 1.544209-.627646C1.145704-1.085928 1.115816-1.733499 1.115816-2.311333ZM1.125778-2.520548C1.125778-3.287671 1.534247-4.244085 2.351183-4.244085H2.400996C3.377335-4.154421 3.367372-3.118306 3.466999-2.520548H1.125778Z'/>
<path id='g1-102' d='M1.105853-4.293898H.328767V-3.985056H1.105853V-.687422C1.105853-.348692 .816936-.318804 .518057-.318804H.33873V-.009963H2.739726V-.318804H2.420922C2.201743-.318804 1.972603-.328767 1.853051-.438356C1.77335-.52802 1.77335-.657534 1.77335-.777086V-3.985056H2.909091V-4.293898H1.743462V-5.599004C1.743462-6.146949 2.122042-6.814446 2.660025-6.814446C2.759651-6.814446 2.899128-6.794521 2.978829-6.734745C2.789539-6.684932 2.67995-6.505604 2.67995-6.316314C2.67995-6.057285 2.879203-5.88792 3.118306-5.88792C3.377335-5.88792 3.566625-6.087173 3.566625-6.306351C3.566625-6.784558 3.068493-7.033624 2.660025-7.033624C1.753425-7.033624 1.105853-6.326276 1.105853-5.3599V-4.293898Z'/>
<path id='g1-103' d='M1.185554-.229141V-.219178C.71731-.129514 .278954 .318804 .278954 .787049C.278954 1.723537 1.713574 2.042341 2.480697 2.042341C3.317559 2.042341 4.692403 1.743462 4.692403 .71731C4.692403 .069738 4.234122-.37858 3.636364-.547945C3.277709-.657534 2.909091-.667497 2.530511-.667497H1.62391C1.305106-.697385 1.05604-1.016189 1.05604-1.334994V-1.384807C1.066002-1.514321 1.135741-1.77335 1.235367-1.77335C1.364882-1.743462 1.504359-1.633873 1.653798-1.58406C1.833126-1.524284 2.032379-1.494396 2.221669-1.494396C3.038605-1.494396 3.835616-2.102117 3.835616-2.948941C3.835616-3.287671 3.696139-3.686177 3.427148-3.905355V-3.915318C3.696139-4.11457 3.955168-4.293898 4.313823-4.293898C4.343711-4.293898 4.373599-4.293898 4.403487-4.283935C4.313823-4.224159 4.254047-4.154421 4.254047-4.024907C4.254047-3.865504 4.383562-3.726027 4.542964-3.726027C4.712329-3.726027 4.83188-3.865504 4.83188-4.024907C4.83188-4.293898 4.612702-4.513076 4.333748-4.513076C3.985056-4.513076 3.646326-4.373599 3.387298-4.154421C3.35741-4.124533 3.317559-4.084682 3.277709-4.07472H3.267746C3.20797-4.07472 3.128269-4.154421 3.078456-4.184309C2.819427-4.323786 2.520548-4.403487 2.221669-4.403487C1.43462-4.403487 .587796-3.855542 .587796-2.948941C.587796-2.620174 .71731-2.321295 .916563-2.062267C.956413-2.022416 1.026152-1.972603 1.026152-1.92279S.966376-1.823163 .946451-1.783313C.816936-1.58406 .747198-1.334994 .747198-1.09589C.747198-.787049 .886675-.37858 1.185554-.229141ZM.806974 .836862V.757161C.806974 .229141 1.265255-.079701 1.803238-.079701H2.580324C3.20797-.079701 4.164384 .009963 4.164384 .777086C4.164384 1.504359 3.098381 1.8132 2.480697 1.8132C1.823163 1.8132 .9066 1.514321 .806974 .836862ZM1.344956-2.749689V-2.879203C1.344956-3.427148 1.474471-4.164384 2.211706-4.164384C2.82939-4.164384 3.078456-3.58655 3.078456-2.948941C3.078456-2.540473 2.998755-1.733499 2.221669-1.733499C1.96264-1.733499 1.713574-1.853051 1.544209-2.072229C1.39477-2.271482 1.374844-2.510585 1.344956-2.749689Z'/>
<path id='g1-104' d='M.318804-6.814446V-6.505604H.468244C.836862-6.505604 1.09589-6.465753 1.09589-5.987547V-.956413C1.09589-.886675 1.105853-.816936 1.105853-.737235C1.105853-.358655 .836862-.318804 .557908-.318804H.318804V-.009963H2.570361V-.318804H2.311333C2.032379-.318804 1.793275-.358655 1.793275-.727273V-2.550436C1.793275-3.267746 2.161893-4.184309 3.148194-4.184309C3.785803-4.184309 3.845579-3.496887 3.845579-3.068493V-.687422C3.845579-.348692 3.556663-.318804 3.247821-.318804H3.068493V-.009963H5.32005V-.318804H5.070984C4.801993-.318804 4.542964-.358655 4.542964-.697385V-2.879203C4.542964-3.20797 4.533001-3.536737 4.383562-3.835616C4.144458-4.273973 3.646326-4.403487 3.188045-4.403487C2.610212-4.403487 1.96264-4.014944 1.77335-3.457036L1.763387-6.924035L.318804-6.814446Z'/>
<path id='g1-105' d='M.368618-4.293898V-3.985056H.557908C.846824-3.985056 1.105853-3.945205 1.105853-3.486924V-.727273C1.105853-.37858 .926526-.318804 .328767-.318804V-.009963H2.470735V-.318804H2.271482C2.012453-.318804 1.77335-.348692 1.77335-.667497V-4.403487L.368618-4.293898ZM1.205479-6.665006C.956413-6.635118 .757161-6.41594 .757161-6.146949C.757161-5.858032 1.006227-5.618929 1.285181-5.618929C1.554172-5.618929 1.8132-5.838107 1.8132-6.146949C1.8132-6.435866 1.564134-6.674969 1.285181-6.674969C1.255293-6.674969 1.235367-6.665006 1.205479-6.665006Z'/>
<path id='g1-107' d='M.268991-6.814446V-6.505604H.438356C.757161-6.505604 1.046077-6.465753 1.046077-5.987547V-.956413C1.046077-.886675 1.05604-.816936 1.05604-.737235C1.05604-.358655 .787049-.318804 .508095-.318804H.268991V-.009963H2.460772V-.318804H2.231631C1.932752-.318804 1.683686-.358655 1.683686-.737235V-1.663761C1.683686-1.872976 2.082192-2.15193 2.321295-2.331258C2.410959-2.161893 2.540473-2.012453 2.650062-1.853051C2.889166-1.524284 3.128269-1.205479 3.347447-.876712C3.407223-.787049 3.486924-.657534 3.486924-.537983C3.486924-.358655 3.287671-.318804 3.138232-.318804V-.009963H5.090909V-.318804C4.921544-.318804 4.732254-.318804 4.572852-.398506C4.343711-.52802 4.184309-.767123 4.044832-.976339C3.795766-1.325031 3.5467-1.683686 3.287671-2.032379L2.929016-2.540473C2.889166-2.590286 2.819427-2.67995 2.819427-2.719801V-2.739726C2.819427-2.809465 3.118306-3.028643 3.257783-3.138232C3.716065-3.536737 4.234122-3.985056 4.871731-3.985056V-4.293898H3.058531V-3.985056C3.20797-3.985056 3.337484-3.875467 3.337484-3.73599C3.337484-3.437111 2.86924-3.138232 2.600249-2.919054C2.30137-2.660025 2.012453-2.400996 1.713574-2.15193V-6.924035L.268991-6.814446Z'/>
<path id='g1-108' d='M.328767-6.814446V-6.505604H.478207C.846824-6.505604 1.105853-6.465753 1.105853-5.987547V-.956413C1.105853-.886675 1.115816-.816936 1.115816-.737235C1.115816-.358655 .846824-.318804 .56787-.318804H.328767V-.009963H2.550436V-.318804H2.30137C2.012453-.318804 1.77335-.358655 1.77335-.747198V-6.924035L.328767-6.814446Z'/>
<path id='g1-109' d='M.318804-4.293898V-3.985056H.468244C.797011-3.985056 1.09589-3.955168 1.09589-3.486924V-.737235C1.09589-.328767 .816936-.318804 .37858-.318804H.318804V-.009963H2.570361V-.318804H2.311333C2.032379-.318804 1.793275-.358655 1.793275-.727273V-2.550436C1.793275-3.277709 2.191781-4.184309 3.148194-4.184309C3.785803-4.184309 3.855542-3.526775 3.855542-3.068493V-.697385C3.855542-.33873 3.556663-.318804 3.227895-.318804H3.078456V-.009963H5.330012V-.318804H5.070984C4.79203-.318804 4.552927-.358655 4.552927-.727273V-2.550436C4.552927-3.277709 4.951432-4.184309 5.907846-4.184309C6.545455-4.184309 6.615193-3.526775 6.615193-3.068493V-.697385C6.615193-.33873 6.316314-.318804 5.987547-.318804H5.838107V-.009963H8.089664V-.318804H7.880448C7.581569-.318804 7.312578-.348692 7.312578-.697385V-2.948941C7.312578-3.317559 7.292653-3.646326 7.053549-3.985056C6.794521-4.313823 6.366127-4.403487 5.967621-4.403487C5.32005-4.403487 4.79203-4.024907 4.523039-3.447073C4.333748-4.154421 3.88543-4.403487 3.198007-4.403487C2.560399-4.403487 1.952677-4.004981 1.743462-3.387298L1.733499-4.403487L.318804-4.293898Z'/>
<path id='g1-110' d='M.318804-4.293898V-3.985056H.468244C.797011-3.985056 1.09589-3.955168 1.09589-3.486924V-.737235C1.09589-.328767 .816936-.318804 .37858-.318804H.318804V-.009963H2.570361V-.318804H2.311333C2.032379-.318804 1.793275-.358655 1.793275-.727273V-2.550436C1.793275-3.267746 2.161893-4.184309 3.148194-4.184309C3.785803-4.184309 3.845579-3.496887 3.845579-3.068493V-.687422C3.845579-.348692 3.556663-.318804 3.247821-.318804H3.068493V-.009963H5.32005V-.318804H5.070984C4.801993-.318804 4.542964-.358655 4.542964-.697385V-2.879203C4.542964-3.20797 4.533001-3.5467 4.373599-3.845579C4.144458-4.283935 3.636364-4.403487 3.178082-4.403487C2.570361-4.403487 1.942715-3.985056 1.743462-3.387298L1.733499-4.403487L.318804-4.293898Z'/>
<path id='g1-111' d='M2.34122-4.463263C1.085928-4.333748 .278954-3.277709 .278954-2.122042C.278954-.996264 1.165629 .099626 2.49066 .099626C3.686177 .099626 4.692403-.876712 4.692403-2.132005C4.692403-3.317559 3.795766-4.473225 2.470735-4.473225C2.430884-4.473225 2.381071-4.463263 2.34122-4.463263ZM1.115816-1.892902V-2.331258C1.115816-3.088418 1.354919-4.244085 2.480697-4.244085C3.287671-4.244085 3.745953-3.566625 3.835616-2.809465C3.855542-2.590286 3.855542-2.381071 3.855542-2.161893C3.855542-1.514321 3.785803-.707347 3.148194-.33873C2.948941-.209215 2.729763-.14944 2.500623-.14944C1.77335-.14944 1.265255-.71731 1.155666-1.494396C1.135741-1.62391 1.135741-1.763387 1.115816-1.892902Z'/>
<path id='g1-112' d='M.268991-4.293898V-3.985056H.458281C.757161-3.985056 1.046077-3.955168 1.046077-3.556663V1.215442C1.046077 1.574097 .787049 1.613948 .498132 1.613948H.268991V1.92279H2.520548V1.613948H2.281445C1.982565 1.613948 1.743462 1.574097 1.743462 1.215442L1.753425-.508095C1.982565-.099626 2.540473 .099626 2.968867 .099626C4.204234 .099626 5.190535-.956413 5.190535-2.161893C5.190535-3.35741 4.26401-4.403487 3.098381-4.403487C2.550436-4.403487 2.072229-4.164384 1.713574-3.755915V-4.403487L.268991-4.293898ZM4.343711-1.982565C4.293898-1.255293 3.905355-.209215 2.998755-.119552H2.938979C2.510585-.119552 2.122042-.358655 1.882939-.71731C1.803238-.826899 1.743462-.926526 1.743462-1.066002V-2.739726C1.743462-2.86924 1.733499-2.998755 1.733499-3.128269C1.733499-3.656289 2.410959-4.154421 2.998755-4.154421C4.004981-4.154421 4.353674-2.849315 4.353674-2.141968C4.353674-2.092154 4.353674-2.032379 4.343711-1.982565Z'/>
<path id='g1-113' d='M3.775841-.617684L3.785803 1.225405C3.785803 1.594022 3.536737 1.613948 3.008717 1.613948V1.92279H5.260274V1.613948H5.021171C4.742217 1.613948 4.483188 1.574097 4.483188 1.205479V-4.403487L4.273973-4.383562L4.144458-4.134496L3.875467-3.496887C3.626401-4.054795 3.108344-4.403487 2.500623-4.403487C1.24533-4.403487 .328767-3.297634 .328767-2.132005C.328767-1.016189 1.225405 .099626 2.430884 .099626C2.909091 .099626 3.536737-.14944 3.775841-.617684ZM1.165629-1.982565V-2.092154C1.165629-2.889166 1.454545-3.845579 2.351183-4.124533C2.430884-4.144458 2.520548-4.154421 2.610212-4.154421C3.257783-4.154421 3.716065-3.506849 3.815691-2.929016V-1.334994C3.815691-.737235 3.188045-.268991 2.799502-.159402C2.689913-.129514 2.570361-.119552 2.460772-.119552C1.823163-.139477 1.384807-.846824 1.235367-1.474471C1.205479-1.643836 1.185554-1.8132 1.165629-1.982565Z'/>
<path id='g1-114' d='M.268991-4.293898V-3.985056H.418431C.747198-3.985056 1.046077-3.955168 1.046077-3.486924V-.737235C1.046077-.328767 .767123-.318804 .328767-.318804H.268991V-.009963H2.67995V-.318804C2.560399-.318804 2.420922-.308842 2.30137-.308842C1.982565-.308842 1.713574-.358655 1.713574-.727273V-2.052304C1.713574-2.899128 1.912827-4.184309 2.889166-4.184309C2.929016-4.184309 2.958904-4.184309 2.998755-4.174346V-4.164384C2.849315-4.104608 2.769614-3.945205 2.769614-3.785803C2.769614-3.556663 2.919054-3.39726 3.148194-3.35741C3.437111-3.35741 3.626401-3.536737 3.626401-3.785803C3.626401-4.184309 3.247821-4.403487 2.889166-4.403487C2.30137-4.403487 1.77335-3.875467 1.673724-3.337484L1.663761-4.403487L.268991-4.293898Z'/>
<path id='g1-115' d='M1.753425-4.463263C1.384807-4.423412 .996264-4.353674 .707347-4.104608C.468244-3.895392 .328767-3.556663 .328767-3.237858C.328767-1.534247 3.098381-2.500623 3.098381-1.006227C3.098381-.398506 2.550436-.119552 2.002491-.119552C1.24533-.119552 .737235-.657534 .597758-1.514321C.577833-1.603985 .56787-1.693649 .448319-1.693649C.368618-1.693649 .328767-1.633873 .328767-1.564134V.009963C.33873 .059776 .368618 .089664 .418431 .099626H.438356C.597758 .099626 .757161-.268991 .876712-.298879H.886675C.966376-.298879 1.235367-.049813 1.444583 .019925C1.613948 .079701 1.793275 .099626 1.972603 .099626C2.799502 .099626 3.58655-.33873 3.58655-1.255293C3.58655-1.912827 3.108344-2.450809 2.450809-2.620174C1.833126-2.789539 .816936-2.789539 .816936-3.516812C.816936-4.124533 1.484433-4.273973 1.92279-4.273973C2.410959-4.273973 3.088418-4.004981 3.088418-3.148194C3.088418-3.058531 3.098381-2.978829 3.20797-2.978829C3.307597-2.978829 3.347447-3.058531 3.347447-3.158157C3.347447-3.20797 3.337484-3.257783 3.337484-3.297634V-4.323786C3.337484-4.383562 3.307597-4.463263 3.227895-4.463263C3.068493-4.463263 2.968867-4.214197 2.859278-4.214197H2.849315C2.769614-4.214197 2.610212-4.343711 2.49066-4.383562C2.311333-4.443337 2.11208-4.473225 1.92279-4.473225C1.863014-4.473225 1.8132-4.463263 1.753425-4.463263Z'/>
<path id='g1-116' d='M1.484433-6.136986C1.484433-5.449564 1.195517-4.204234 .179328-4.204234V-3.985056H1.036115V-1.414695C1.036115-1.085928 1.05604-.757161 1.215442-.468244C1.43462-.069738 1.902864 .099626 2.34122 .099626C3.158157 .099626 3.317559-.816936 3.317559-1.444583V-1.8132H3.068493C3.068493-1.663761 3.078456-1.514321 3.078456-1.354919C3.078456-.916563 2.978829-.14944 2.391034-.14944C1.823163-.14944 1.733499-.836862 1.733499-1.285181V-3.985056H3.148194V-4.293898H1.733499V-6.136986H1.484433Z'/>
<path id='g1-117' d='M.318804-4.293898V-3.985056H.458281C.737235-3.985056 1.026152-3.965131 1.085928-3.666252C1.09589-3.556663 1.09589-3.457036 1.09589-3.347447V-1.364882C1.09589-1.036115 1.105853-.727273 1.285181-.438356C1.554172-.009963 2.122042 .109589 2.590286 .109589C3.038605 .109589 3.447073-.089664 3.696139-.458281C3.765878-.557908 3.835616-.657534 3.865504-.777086L3.875467 .099626L5.32005-.009963V-.318804H5.17061C4.841843-.318804 4.542964-.348692 4.542964-.797011V-4.403487L3.068493-4.293898V-3.985056H3.217933C3.5467-3.985056 3.845579-3.955168 3.845579-3.486924V-1.683686C3.845579-.946451 3.466999-.129514 2.6401-.129514C2.082192-.129514 1.793275-.268991 1.793275-1.325031V-4.403487L.318804-4.293898Z'/>
<path id='g1-119' d='M.179328-4.293898V-3.985056H.328767C.846824-3.985056 .86675-3.765878 1.115816-3.058531C1.364882-2.371108 1.62391-1.683686 1.863014-.996264L2.161893-.159402C2.201743-.049813 2.231631 .089664 2.371108 .099626H2.391034C2.610212 .099626 2.749689-.56787 2.879203-.896638C3.058531-1.424658 3.247821-1.952677 3.447073-2.480697C3.496887-2.620174 3.556663-2.759651 3.58655-2.899128H3.596513C3.626401-2.759651 3.686177-2.620174 3.73599-2.480697L4.024907-1.673724C4.204234-1.155666 4.403487-.647572 4.582814-.129514C4.622665-.019925 4.662516 .099626 4.801993 .099626C5.021171 .099626 5.190535-.607721 5.310087-.966376L5.877958-2.550436C6.107098-3.178082 6.246575-3.985056 7.003736-3.985056V-4.293898H5.3599V-3.985056C5.618929-3.975093 5.897883-3.835616 5.927771-3.556663C5.927771-3.277709 5.758406-2.958904 5.668742-2.699875C5.50934-2.271482 5.3599-1.843088 5.210461-1.414695C5.13076-1.205479 5.031133-.986301 4.98132-.767123H4.971357C4.921544-1.006227 4.79203-1.305106 4.692403-1.554172C4.463263-2.201743 4.224159-2.839352 4.004981-3.496887C3.975093-3.566625 3.945205-3.646326 3.945205-3.726027V-3.765878C3.995019-3.985056 4.323786-3.985056 4.523039-3.985056V-4.293898H2.590286V-3.985056H2.769614C3.158157-3.985056 3.247821-3.835616 3.377335-3.496887C3.39726-3.427148 3.447073-3.337484 3.447073-3.257783C3.437111-3.16812 3.387298-3.068493 3.35741-2.988792L2.789539-1.404732C2.729763-1.235367 2.67995-1.066002 2.610212-.9066C2.49066-1.165629 2.410959-1.454545 2.311333-1.723537C2.161893-2.15193 2.002491-2.580324 1.853051-3.008717L1.673724-3.516812C1.653798-3.576588 1.613948-3.646326 1.613948-3.716065C1.613948-3.975093 1.982565-3.985056 2.201743-3.985056V-4.293898H.179328Z'/>
<path id='g1-120' d='M.169365-4.293898V-3.985056H.368618C.886675-3.985056 1.026152-3.775841 1.255293-3.486924L2.191781-2.261519C2.231631-2.221669 2.311333-2.141968 2.311333-2.082192C2.30137-2.032379 2.221669-1.952677 2.191781-1.912827C1.594022-1.225405 1.155666-.318804 .119552-.318804V-.009963H1.902864V-.318804C1.713574-.318804 1.613948-.498132 1.613948-.637609C1.613948-.836862 1.763387-.976339 1.882939-1.125778S2.122042-1.43462 2.251557-1.58406C2.331258-1.683686 2.420922-1.77335 2.480697-1.882939C2.729763-1.613948 2.938979-1.295143 3.158157-1.006227L3.347447-.757161C3.387298-.707347 3.457036-.637609 3.457036-.56787C3.457036-.408468 3.237858-.318804 3.098381-.318804V-.009963H5.140722V-.318804H4.961395C4.79203-.318804 4.60274-.328767 4.4533-.408468C4.273973-.498132 4.154421-.687422 4.034869-.836862C3.706102-1.275218 3.35741-1.713574 3.028643-2.15193L2.938979-2.271482C2.919054-2.291407 2.899128-2.321295 2.889166-2.351183C2.889166-2.410959 2.958904-2.470735 2.988792-2.510585L3.297634-2.889166C3.476961-3.108344 3.636364-3.347447 3.845579-3.5467C4.154421-3.825654 4.542964-3.985056 4.961395-3.985056V-4.293898H3.188045V-3.985056C3.387298-3.935243 3.466999-3.835616 3.466999-3.676214C3.466999-3.387298 3.148194-3.128269 2.978829-2.899128C2.909091-2.809465 2.759651-2.600249 2.709838-2.600249C2.650062-2.600249 2.510585-2.82939 2.420922-2.938979C2.201743-3.217933 1.853051-3.576588 1.853051-3.745953C1.853051-3.895392 2.072229-3.975093 2.201743-3.985056V-4.293898H.169365Z'/>
<path id='g1-121' d='M.18929-4.293898V-3.985056H.348692C.627646-3.985056 .846824-3.955168 1.016189-3.576588C1.474471-2.480697 1.912827-1.374844 2.381071-.278954C2.410959-.199253 2.480697-.089664 2.480697 0C2.480697 .009963 2.470735 .029888 2.470735 .039851C2.400996 .249066 2.30137 .448319 2.211706 .647572C2.012453 1.135741 1.723537 1.8132 1.105853 1.8132C.956413 1.8132 .757161 1.753425 .637609 1.633873C.826899 1.603985 1.026152 1.494396 1.026152 1.215442C1.026152 .996264 .876712 .816936 .657534 .797011C.348692 .797011 .18929 .976339 .18929 1.225405C.18929 1.723537 .657534 2.032379 1.105853 2.032379H1.115816C1.833126 2.032379 2.211706 1.295143 2.460772 .707347L2.759651-.009963C3.108344-.86675 3.466999-1.723537 3.825654-2.580324L4.064757-3.148194C4.234122-3.616438 4.493151-3.985056 5.061021-3.985056V-4.293898H3.457036V-3.985056C3.686177-3.985056 3.915318-3.825654 3.915318-3.576588C3.915318-3.447073 3.855542-3.317559 3.805729-3.198007C3.516812-2.520548 3.257783-1.833126 2.958904-1.155666C2.929016-1.066002 2.879203-.976339 2.859278-.886675H2.849315C2.779577-1.115816 2.669988-1.325031 2.580324-1.544209C2.321295-2.191781 2.012453-2.849315 1.77335-3.506849C1.743462-3.576588 1.703611-3.646326 1.703611-3.726027V-3.765878C1.763387-3.985056 2.052304-3.985056 2.251557-3.985056V-4.293898H.18929Z'/>
</defs>
<g id='page1' transform='matrix(2 0 0 2 0 0)'>
<use x='-14.536172' y='17.344276' xlink:href='#g1-91'/>
<use x='-8.932795' y='17.344276' xlink:href='#g1-62'/>
<use x='-1.185967' y='17.344276' xlink:href='#g1-61'/>
<use x='6.560861' y='17.344276' xlink:href='#g1-115'/>
<use x='10.48961' y='17.344276' xlink:href='#g1-116'/>
<use x='14.363024' y='17.344276' xlink:href='#g1-101'/>
<use x='18.789783' y='17.344276' xlink:href='#g1-97'/>
<use x='23.769887' y='17.344276' xlink:href='#g1-108'/>
<use x='26.536611' y='17.344276' xlink:href='#g1-116'/>
<use x='30.410026' y='17.344276' xlink:href='#g1-104'/>
<use x='35.943474' y='17.344276' xlink:href='#g1-44'/>
<use x='38.710199' y='17.344276' xlink:href='#g1-115'/>
<use x='42.638947' y='17.344276' xlink:href='#g1-104'/>
<use x='48.172396' y='17.344276' xlink:href='#g1-111'/>
<use x='53.1525' y='17.344276' xlink:href='#g1-114'/>
<use x='57.053581' y='17.344276' xlink:href='#g1-116'/>
<use x='60.926996' y='17.344276' xlink:href='#g1-101'/>
<use x='65.353755' y='17.344276' xlink:href='#g1-110'/>
<use x='73.723841' y='17.344276' xlink:href='#g1-62'/>
<use x='81.470669' y='17.344276' xlink:href='#g1-61'/>
<use x='89.217497' y='17.344276' xlink:href='#g1-51'/>
<use x='94.197601' y='17.344276' xlink:href='#g1-112'/>
<use x='99.73105' y='17.344276' xlink:href='#g1-116'/>
<use x='103.604464' y='17.344276' xlink:href='#g1-44'/>
<use x='106.371189' y='17.344276' xlink:href='#g1-100'/>
<use x='111.904637' y='17.344276' xlink:href='#g1-114'/>
<use x='115.805719' y='17.344276' xlink:href='#g1-97'/>
<use x='120.50915' y='17.344276' xlink:href='#g1-119'/>
<use x='127.702634' y='17.344276' xlink:href='#g1-61'/>
<use x='135.449462' y='17.344276' xlink:href='#g1-98'/>
<use x='140.982911' y='17.344276' xlink:href='#g1-108'/>
<use x='143.749635' y='17.344276' xlink:href='#g1-97'/>
<use x='148.729739' y='17.344276' xlink:href='#g1-99'/>
<use x='152.879826' y='17.344276' xlink:href='#g1-107'/>
<use x='158.136602' y='17.344276' xlink:href='#g1-44'/>
<use x='163.836662' y='17.344276' xlink:href='#g1-110'/>
<use x='169.370111' y='17.344276' xlink:href='#g1-111'/>
<use x='174.626887' y='17.344276' xlink:href='#g1-100'/>
<use x='180.160336' y='17.344276' xlink:href='#g1-101'/>
<use x='184.587095' y='17.344276' xlink:href='#g1-115'/>
<use x='188.515844' y='17.344276' xlink:href='#g1-47'/>
<use x='193.495948' y='17.344276' xlink:href='#g1-46'/>
<use x='196.262672' y='17.344276' xlink:href='#g1-115'/>
<use x='200.191421' y='17.344276' xlink:href='#g1-116'/>
<use x='203.788163' y='17.344276' xlink:href='#g1-121'/>
<use x='209.044939' y='17.344276' xlink:href='#g1-108'/>
<use x='211.811663' y='17.344276' xlink:href='#g1-101'/>
<use x='219.075075' y='17.344276' xlink:href='#g1-61'/>
<use x='229.658541' y='17.344276' xlink:href='#g1-100'/>
<use x='235.191989' y='17.344276' xlink:href='#g1-114'/>
<use x='239.093071' y='17.344276' xlink:href='#g1-97'/>
<use x='243.796502' y='17.344276' xlink:href='#g1-119'/>
<use x='250.989986' y='17.344276' xlink:href='#g1-44'/>
<use x='256.690046' y='17.344276' xlink:href='#g1-114'/>
<use x='260.591127' y='17.344276' xlink:href='#g1-101'/>
<use x='265.017886' y='17.344276' xlink:href='#g1-99'/>
<use x='269.444645' y='17.344276' xlink:href='#g1-116'/>
<use x='273.31806' y='17.344276' xlink:href='#g1-97'/>
<use x='278.298164' y='17.344276' xlink:href='#g1-110'/>
<use x='283.831612' y='17.344276' xlink:href='#g1-103'/>
<use x='288.811716' y='17.344276' xlink:href='#g1-108'/>
<use x='291.578441' y='17.344276' xlink:href='#g1-101'/>
<use x='296.0052' y='17.344276' xlink:href='#g1-44'/>
<use x='301.70526' y='17.344276' xlink:href='#g1-98'/>
<use x='307.238709' y='17.344276' xlink:href='#g1-97'/>
<use x='312.218813' y='17.344276' xlink:href='#g1-99'/>
<use x='316.368899' y='17.344276' xlink:href='#g1-107'/>
<use x='321.625676' y='17.344276' xlink:href='#g1-103'/>
<use x='326.605779' y='17.344276' xlink:href='#g1-114'/>
<use x='330.506861' y='17.344276' xlink:href='#g1-111'/>
<use x='335.486965' y='17.344276' xlink:href='#g1-117'/>
<use x='341.020414' y='17.344276' xlink:href='#g1-110'/>
<use x='346.553862' y='17.344276' xlink:href='#g1-100'/>
<use x='354.923964' y='17.344276' xlink:href='#g1-114'/>
<use x='358.825045' y='17.344276' xlink:href='#g1-101'/>
<use x='363.251804' y='17.344276' xlink:href='#g1-99'/>
<use x='367.678563' y='17.344276' xlink:href='#g1-116'/>
<use x='371.551977' y='17.344276' xlink:href='#g1-97'/>
<use x='376.532081' y='17.344276' xlink:href='#g1-110'/>
<use x='382.06553' y='17.344276' xlink:href='#g1-103'/>
<use x='387.045634' y='17.344276' xlink:href='#g1-108'/>
<use x='389.812358' y='17.344276' xlink:href='#g1-101'/>
<use x='394.239117' y='17.344276' xlink:href='#g1-47'/>
<use x='399.219221' y='17.344276' xlink:href='#g1-46'/>
<use x='401.985946' y='17.344276' xlink:href='#g1-115'/>
<use x='405.914694' y='17.344276' xlink:href='#g1-116'/>
<use x='409.511436' y='17.344276' xlink:href='#g1-121'/>
<use x='414.768212' y='17.344276' xlink:href='#g1-108'/>
<use x='417.534937' y='17.344276' xlink:href='#g1-101'/>
<use x='424.798333' y='17.344276' xlink:href='#g1-61'/>
<use x='435.381814' y='17.344276' xlink:href='#g1-28'/>
<use x='440.915263' y='17.344276' xlink:href='#g1-108'/>
<use x='443.681987' y='17.344276' xlink:href='#g1-108'/>
<use x='446.448712' y='17.344276' xlink:href='#g1-61'/>
<use x='454.19554' y='17.344276' xlink:href='#g1-119'/>
<use x='461.389023' y='17.344276' xlink:href='#g1-104'/>
<use x='466.922472' y='17.344276' xlink:href='#g1-105'/>
<use x='469.689197' y='17.344276' xlink:href='#g1-116'/>
<use x='473.562611' y='17.344276' xlink:href='#g1-101'/>
<use x='477.98937' y='17.344276' xlink:href='#g1-44'/>
<use x='-29.480132' y='29.299444' xlink:href='#g1-115'/>
<use x='-25.551384' y='29.299444' xlink:href='#g1-104'/>
<use x='-20.017935' y='29.299444' xlink:href='#g1-111'/>
<use x='-15.314504' y='29.299444' xlink:href='#g1-119'/>
<use x='-3.2734' y='29.299444' xlink:href='#g1-98'/>
<use x='2.260049' y='29.299444' xlink:href='#g1-97'/>
<use x='7.240153' y='29.299444' xlink:href='#g1-99'/>
<use x='11.390239' y='29.299444' xlink:href='#g1-107'/>
<use x='16.647016' y='29.299444' xlink:href='#g1-103'/>
<use x='21.62712' y='29.299444' xlink:href='#g1-114'/>
<use x='25.528201' y='29.299444' xlink:href='#g1-111'/>
<use x='30.508305' y='29.299444' xlink:href='#g1-117'/>
<use x='36.041754' y='29.299444' xlink:href='#g1-110'/>
<use x='41.575203' y='29.299444' xlink:href='#g1-100'/>
<use x='51.956272' y='29.299444' xlink:href='#g1-114'/>
<use x='55.857353' y='29.299444' xlink:href='#g1-101'/>
<use x='60.284112' y='29.299444' xlink:href='#g1-99'/>
<use x='64.710871' y='29.299444' xlink:href='#g1-116'/>
<use x='68.584285' y='29.299444' xlink:href='#g1-97'/>
<use x='73.564389' y='29.299444' xlink:href='#g1-110'/>
<use x='79.097838' y='29.299444' xlink:href='#g1-103'/>
<use x='84.077942' y='29.299444' xlink:href='#g1-108'/>
<use x='86.844666' y='29.299444' xlink:href='#g1-101'/>
<use x='91.271425' y='29.299444' xlink:href='#g1-93'/>
<use x='94.03815' y='29.299444' xlink:href='#g1-44'/>
<use x='102.034379' y='29.299444' xlink:href='#g1-109'/>
<use x='110.057879' y='29.299444' xlink:href='#g1-121'/>
<use x='115.037983' y='29.299444' xlink:href='#g1-97'/>
<use x='120.018087' y='29.299444' xlink:href='#g1-114'/>
<use x='123.919168' y='29.299444' xlink:href='#g1-114'/>
<use x='127.82025' y='29.299444' xlink:href='#g1-111'/>
<use x='132.523681' y='29.299444' xlink:href='#g1-119'/>
<use x='139.717165' y='29.299444' xlink:href='#g1-115'/>
<use x='143.645913' y='29.299444' xlink:href='#g1-47'/>
<use x='148.626017' y='29.299444' xlink:href='#g1-46'/>
<use x='151.392742' y='29.299444' xlink:href='#g1-115'/>
<use x='155.32149' y='29.299444' xlink:href='#g1-116'/>
<use x='158.918232' y='29.299444' xlink:href='#g1-121'/>
<use x='164.175008' y='29.299444' xlink:href='#g1-108'/>
<use x='166.941733' y='29.299444' xlink:href='#g1-101'/>
<use x='171.368492' y='29.299444' xlink:href='#g1-61'/>
<use x='179.11532' y='29.299444' xlink:href='#g1-108'/>
<use x='181.882045' y='29.299444' xlink:href='#g1-105'/>
<use x='184.648769' y='29.299444' xlink:href='#g1-110'/>
<use x='190.182218' y='29.299444' xlink:href='#g1-101'/>
<use x='199.456582' y='29.299444' xlink:href='#g1-119'/>
<use x='206.650065' y='29.299444' xlink:href='#g1-105'/>
<use x='209.41679' y='29.299444' xlink:href='#g1-100'/>
<use x='214.950238' y='29.299444' xlink:href='#g1-116'/>
<use x='218.823653' y='29.299444' xlink:href='#g1-104'/>
<use x='224.357101' y='29.299444' xlink:href='#g1-61'/>
<use x='232.10393' y='29.299444' xlink:href='#g1-49'/>
<use x='237.084034' y='29.299444' xlink:href='#g1-109'/>
<use x='245.384207' y='29.299444' xlink:href='#g1-109'/>
<use x='253.68438' y='29.299444' xlink:href='#g1-44'/>
<use x='256.451104' y='29.299444' xlink:href='#g1-100'/>
<use x='261.984553' y='29.299444' xlink:href='#g1-114'/>
<use x='265.885635' y='29.299444' xlink:href='#g1-97'/>
<use x='270.589066' y='29.299444' xlink:href='#g1-119'/>
<use x='277.782549' y='29.299444' xlink:href='#g1-61'/>
<use x='285.529378' y='29.299444' xlink:href='#g1-98'/>
<use x='291.062827' y='29.299444' xlink:href='#g1-108'/>
<use x='293.829551' y='29.299444' xlink:href='#g1-97'/>
<use x='298.809655' y='29.299444' xlink:href='#g1-99'/>
<use x='302.959741' y='29.299444' xlink:href='#g1-107'/>
<use x='308.216518' y='29.299444' xlink:href='#g1-44'/>
<use x='316.212747' y='29.299444' xlink:href='#g1-112'/>
<use x='322.022868' y='29.299444' xlink:href='#g1-111'/>
<use x='327.002972' y='29.299444' xlink:href='#g1-115'/>
<use x='330.93172' y='29.299444' xlink:href='#g1-116'/>
<use x='334.805134' y='29.299444' xlink:href='#g1-97'/>
<use x='339.785238' y='29.299444' xlink:href='#g1-99'/>
<use x='344.211997' y='29.299444' xlink:href='#g1-116'/>
<use x='348.085412' y='29.299444' xlink:href='#g1-105'/>
<use x='350.852136' y='29.299444' xlink:href='#g1-111'/>
<use x='355.83224' y='29.299444' xlink:href='#g1-110'/>
<use x='361.365689' y='29.299444' xlink:href='#g1-61'/>
<use x='369.112517' y='29.299444' xlink:href='#g1-100'/>
<use x='374.645966' y='29.299444' xlink:href='#g1-114'/>
<use x='378.547047' y='29.299444' xlink:href='#g1-97'/>
<use x='383.250479' y='29.299444' xlink:href='#g1-119'/>
<use x='390.443962' y='29.299444' xlink:href='#g1-44'/>
<use x='398.440191' y='29.299444' xlink:href='#g1-108'/>
<use x='401.206915' y='29.299444' xlink:href='#g1-105'/>
<use x='403.97364' y='29.299444' xlink:href='#g1-110'/>
<use x='409.507088' y='29.299444' xlink:href='#g1-101'/>
<use x='418.781468' y='29.299444' xlink:href='#g1-119'/>
<use x='425.974951' y='29.299444' xlink:href='#g1-105'/>
<use x='428.741676' y='29.299444' xlink:href='#g1-100'/>
<use x='434.275124' y='29.299444' xlink:href='#g1-116'/>
<use x='438.148538' y='29.299444' xlink:href='#g1-104'/>
<use x='443.681987' y='29.299444' xlink:href='#g1-61'/>
<use x='451.428816' y='29.299444' xlink:href='#g1-51'/>
<use x='456.408919' y='29.299444' xlink:href='#g1-48'/>
<use x='461.389023' y='29.299444' xlink:href='#g1-109'/>
<use x='469.689197' y='29.299444' xlink:href='#g1-109'/>
<use x='477.98937' y='29.299444' xlink:href='#g1-44'/>
<use x='-29.480132' y='41.254612' xlink:href='#g1-115'/>
<use x='-25.551384' y='41.254612' xlink:href='#g1-104'/>
<use x='-20.017935' y='41.254612' xlink:href='#g1-111'/>
<use x='-15.037831' y='41.254612' xlink:href='#g1-114'/>
<use x='-11.13675' y='41.254612' xlink:href='#g1-116'/>
<use x='-7.263336' y='41.254612' xlink:href='#g1-101'/>
<use x='-2.836577' y='41.254612' xlink:href='#g1-110'/>
<use x='5.261535' y='41.254612' xlink:href='#g1-62'/>
<use x='13.008363' y='41.254612' xlink:href='#g1-61'/>
<use x='20.755191' y='41.254612' xlink:href='#g1-52'/>
<use x='25.735295' y='41.254612' xlink:href='#g1-109'/>
<use x='34.035468' y='41.254612' xlink:href='#g1-109'/>
<use x='44.900304' y='41.254612' xlink:href='#g1-91'/>
<use x='47.667028' y='41.254612' xlink:href='#g1-103'/>
<use x='52.647132' y='41.254612' xlink:href='#g1-114'/>
<use x='56.548213' y='41.254612' xlink:href='#g1-111'/>
<use x='61.251645' y='41.254612' xlink:href='#g1-119'/>
<use x='71.009791' y='41.254612' xlink:href='#g1-100'/>
<use x='76.543239' y='41.254612' xlink:href='#g1-111'/>
<use x='81.246671' y='41.254612' xlink:href='#g1-119'/>
<use x='88.440154' y='41.254612' xlink:href='#g1-110'/>
<use x='96.538265' y='41.254612' xlink:href='#g1-115'/>
<use x='100.467014' y='41.254612' xlink:href='#g1-101'/>
<use x='104.893773' y='41.254612' xlink:href='#g1-112'/>
<use x='110.427222' y='41.254612' xlink:href='#g1-61'/>
<use x='118.17405' y='41.254612' xlink:href='#g1-50'/>
<use x='123.154154' y='41.254612' xlink:href='#g1-48'/>
<use x='128.134258' y='41.254612' xlink:href='#g1-44'/>
<use x='130.900982' y='41.254612' xlink:href='#g1-98'/>
<use x='136.434431' y='41.254612' xlink:href='#g1-114'/>
<use x='140.335512' y='41.254612' xlink:href='#g1-97'/>
<use x='145.315616' y='41.254612' xlink:href='#g1-110'/>
<use x='150.849065' y='41.254612' xlink:href='#g1-99'/>
<use x='154.999152' y='41.254612' xlink:href='#g1-104'/>
<use x='163.097263' y='41.254612' xlink:href='#g1-108'/>
<use x='165.863987' y='41.254612' xlink:href='#g1-101'/>
<use x='170.290746' y='41.254612' xlink:href='#g1-102'/>
<use x='173.334143' y='41.254612' xlink:href='#g1-116'/>
<use x='179.77222' y='41.254612' xlink:href='#g1-115'/>
<use x='183.700968' y='41.254612' xlink:href='#g1-101'/>
<use x='188.127727' y='41.254612' xlink:href='#g1-112'/>
<use x='193.661176' y='41.254612' xlink:href='#g1-44'/>
<use x='196.4279' y='41.254612' xlink:href='#g1-101'/>
<use x='200.854659' y='41.254612' xlink:href='#g1-100'/>
<use x='206.388108' y='41.254612' xlink:href='#g1-103'/>
<use x='211.368212' y='41.254612' xlink:href='#g1-101'/>
<use x='218.359633' y='41.254612' xlink:href='#g1-113'/>
<use x='223.61641' y='41.254612' xlink:href='#g1-117'/>
<use x='229.149859' y='41.254612' xlink:href='#g1-111'/>
<use x='234.129962' y='41.254612' xlink:href='#g1-116'/>
<use x='238.003377' y='41.254612' xlink:href='#g1-101'/>
<use x='242.430136' y='41.254612' xlink:href='#g1-115'/>
<use x='246.358884' y='41.254612' xlink:href='#g1-61'/>
<use x='254.105713' y='41.254612' xlink:href='#g1-97'/>
<use x='259.085816' y='41.254612' xlink:href='#g1-117'/>
<use x='264.619265' y='41.254612' xlink:href='#g1-116'/>
<use x='268.492679' y='41.254612' xlink:href='#g1-111'/>
<use x='273.472783' y='41.254612' xlink:href='#g1-44'/>
<use x='278.955261' y='41.254612' xlink:href='#g1-110'/>
<use x='284.488709' y='41.254612' xlink:href='#g1-111'/>
<use x='289.745486' y='41.254612' xlink:href='#g1-100'/>
<use x='295.278934' y='41.254612' xlink:href='#g1-101'/>
<use x='299.705693' y='41.254612' xlink:href='#g1-115'/>
<use x='303.634442' y='41.254612' xlink:href='#g1-61'/>
<use x='311.38127' y='41.254612' xlink:href='#g1-114'/>
<use x='315.282352' y='41.254612' xlink:href='#g1-101'/>
<use x='319.709111' y='41.254612' xlink:href='#g1-99'/>
<use x='324.13587' y='41.254612' xlink:href='#g1-116'/>
<use x='328.009284' y='41.254612' xlink:href='#g1-97'/>
<use x='332.989388' y='41.254612' xlink:href='#g1-110'/>
<use x='338.522837' y='41.254612' xlink:href='#g1-103'/>
<use x='343.502941' y='41.254612' xlink:href='#g1-108'/>
<use x='346.269665' y='41.254612' xlink:href='#g1-101'/>
<use x='350.696424' y='41.254612' xlink:href='#g1-44'/>
<use x='353.463148' y='41.254612' xlink:href='#g1-109'/>
<use x='361.763322' y='41.254612' xlink:href='#g1-105'/>
<use x='364.530046' y='41.254612' xlink:href='#g1-110'/>
<use x='370.063495' y='41.254612' xlink:href='#g1-105'/>
<use x='372.830219' y='41.254612' xlink:href='#g1-109'/>
<use x='380.85372' y='41.254612' xlink:href='#g1-117'/>
<use x='386.387169' y='41.254612' xlink:href='#g1-109'/>
<use x='397.252004' y='41.254612' xlink:href='#g1-119'/>
<use x='404.445488' y='41.254612' xlink:href='#g1-105'/>
<use x='407.212212' y='41.254612' xlink:href='#g1-100'/>
<use x='412.745661' y='41.254612' xlink:href='#g1-116'/>
<use x='416.619075' y='41.254612' xlink:href='#g1-104'/>
<use x='422.152524' y='41.254612' xlink:href='#g1-61'/>
<use x='429.899352' y='41.254612' xlink:href='#g1-48'/>
<use x='434.879456' y='41.254612' xlink:href='#g1-46'/>
<use x='437.64618' y='41.254612' xlink:href='#g1-53'/>
<use x='442.626284' y='41.254612' xlink:href='#g1-99'/>
<use x='447.053043' y='41.254612' xlink:href='#g1-109'/>
<use x='455.353216' y='41.254612' xlink:href='#g1-44'/>
<use x='460.835678' y='41.254612' xlink:href='#g1-109'/>
<use x='469.135852' y='41.254612' xlink:href='#g1-105'/>
<use x='471.902576' y='41.254612' xlink:href='#g1-110'/>
<use x='477.436025' y='41.254612' xlink:href='#g1-45'/>
<use x='-29.480132' y='53.20978' xlink:href='#g1-105'/>
<use x='-26.713408' y='53.20978' xlink:href='#g1-109'/>
<use x='-18.689907' y='53.20978' xlink:href='#g1-117'/>
<use x='-13.156459' y='53.20978' xlink:href='#g1-109'/>
<use x='-1.536216' y='53.20978' xlink:href='#g1-104'/>
<use x='3.997233' y='53.20978' xlink:href='#g1-101'/>
<use x='8.423992' y='53.20978' xlink:href='#g1-105'/>
<use x='11.190716' y='53.20978' xlink:href='#g1-103'/>
<use x='16.17082' y='53.20978' xlink:href='#g1-104'/>
<use x='21.427596' y='53.20978' xlink:href='#g1-116'/>
<use x='25.30101' y='53.20978' xlink:href='#g1-61'/>
<use x='33.047839' y='53.20978' xlink:href='#g1-48'/>
<use x='38.027943' y='53.20978' xlink:href='#g1-46'/>
<use x='40.794667' y='53.20978' xlink:href='#g1-53'/>
<use x='45.774771' y='53.20978' xlink:href='#g1-99'/>
<use x='50.20153' y='53.20978' xlink:href='#g1-109'/>
<use x='58.501703' y='53.20978' xlink:href='#g1-44'/>
<use x='64.588497' y='53.20978' xlink:href='#g1-116'/>
<use x='68.461911' y='53.20978' xlink:href='#g1-101'/>
<use x='72.88867' y='53.20978' xlink:href='#g1-120'/>
<use x='78.145446' y='53.20978' xlink:href='#g1-116'/>
<use x='85.33893' y='53.20978' xlink:href='#g1-99'/>
<use x='89.765689' y='53.20978' xlink:href='#g1-101'/>
<use x='94.192448' y='53.20978' xlink:href='#g1-110'/>
<use x='99.449224' y='53.20978' xlink:href='#g1-116'/>
<use x='103.322638' y='53.20978' xlink:href='#g1-101'/>
<use x='107.749397' y='53.20978' xlink:href='#g1-114'/>
<use x='111.650479' y='53.20978' xlink:href='#g1-101'/>
<use x='116.077238' y='53.20978' xlink:href='#g1-100'/>
<use x='121.610687' y='53.20978' xlink:href='#g1-44'/>
<use x='127.69748' y='53.20978' xlink:href='#g1-116'/>
<use x='131.570894' y='53.20978' xlink:href='#g1-101'/>
<use x='135.997653' y='53.20978' xlink:href='#g1-120'/>
<use x='141.25443' y='53.20978' xlink:href='#g1-116'/>
<use x='148.447913' y='53.20978' xlink:href='#g1-119'/>
<use x='155.641397' y='53.20978' xlink:href='#g1-105'/>
<use x='158.408121' y='53.20978' xlink:href='#g1-100'/>
<use x='163.94157' y='53.20978' xlink:href='#g1-116'/>
<use x='167.814984' y='53.20978' xlink:href='#g1-104'/>
<use x='173.348433' y='53.20978' xlink:href='#g1-61'/>
<use x='181.095261' y='53.20978' xlink:href='#g1-53'/>
<use x='186.075365' y='53.20978' xlink:href='#g1-99'/>
<use x='190.502124' y='53.20978' xlink:href='#g1-109'/>
<use x='198.802297' y='53.20978' xlink:href='#g1-44'/>
<use x='204.889091' y='53.20978' xlink:href='#g1-100'/>
<use x='210.42254' y='53.20978' xlink:href='#g1-114'/>
<use x='214.323621' y='53.20978' xlink:href='#g1-97'/>
<use x='219.027052' y='53.20978' xlink:href='#g1-119'/>
<use x='226.220536' y='53.20978' xlink:href='#g1-61'/>
<use x='233.967364' y='53.20978' xlink:href='#g1-98'/>
<use x='239.500813' y='53.20978' xlink:href='#g1-108'/>
<use x='242.267537' y='53.20978' xlink:href='#g1-97'/>
<use x='247.247641' y='53.20978' xlink:href='#g1-99'/>
<use x='251.397728' y='53.20978' xlink:href='#g1-107'/>
<use x='256.654504' y='53.20978' xlink:href='#g1-44'/>
<use x='262.741298' y='53.20978' xlink:href='#g1-28'/>
<use x='268.274747' y='53.20978' xlink:href='#g1-108'/>
<use x='271.041471' y='53.20978' xlink:href='#g1-108'/>
<use x='273.808195' y='53.20978' xlink:href='#g1-61'/>
<use x='281.555024' y='53.20978' xlink:href='#g1-111'/>
<use x='286.535128' y='53.20978' xlink:href='#g1-114'/>
<use x='290.436209' y='53.20978' xlink:href='#g1-97'/>
<use x='295.416313' y='53.20978' xlink:href='#g1-110'/>
<use x='300.949762' y='53.20978' xlink:href='#g1-103'/>
<use x='305.929866' y='53.20978' xlink:href='#g1-101'/>
<use x='310.356625' y='53.20978' xlink:href='#g1-33'/>
<use x='313.123349' y='53.20978' xlink:href='#g1-53'/>
<use x='318.103453' y='53.20978' xlink:href='#g1-48'/>
<use x='323.083557' y='53.20978' xlink:href='#g1-44'/>
<use x='329.170351' y='53.20978' xlink:href='#g1-93'/>
<use x='335.257144' y='53.20978' xlink:href='#g1-111'/>
<use x='340.237248' y='53.20978' xlink:href='#g1-114'/>
<use x='344.13833' y='53.20978' xlink:href='#g1-103'/>
<use x='349.118433' y='53.20978' xlink:href='#g1-91'/>
<use x='351.885158' y='53.20978' xlink:href='#g1-97'/>
<use x='356.865262' y='53.20978' xlink:href='#g1-115'/>
<use x='360.79401' y='53.20978' xlink:href='#g1-61'/>
<use x='368.540839' y='53.20978' xlink:href='#g0-111'/>
<use x='373.769948' y='53.20978' xlink:href='#g0-114'/>
<use x='378.999057' y='53.20978' xlink:href='#g0-103'/>
<use x='384.228166' y='53.20978' xlink:href='#g0-45'/>
<use x='389.457275' y='53.20978' xlink:href='#g0-109'/>
<use x='394.686384' y='53.20978' xlink:href='#g0-111'/>
<use x='399.915493' y='53.20978' xlink:href='#g0-100'/>
<use x='405.144602' y='53.20978' xlink:href='#g0-101'/>
<use x='413.693781' y='53.20978' xlink:href='#g1-28'/>
<use x='419.22723' y='53.20978' xlink:href='#g1-108'/>
<use x='421.993954' y='53.20978' xlink:href='#g1-101'/>
<use x='-29.480132' y='65.164948' xlink:href='#g0-40'/>
<use x='-24.251023' y='65.164948' xlink:href='#g0-46'/>
<use x='-19.021914' y='65.164948' xlink:href='#g0-111'/>
<use x='-13.792805' y='65.164948' xlink:href='#g0-114'/>
<use x='-8.563696' y='65.164948' xlink:href='#g0-103'/>
<use x='-3.334587' y='65.164948' xlink:href='#g0-41'/>
<use x='1.894522' y='65.164948' xlink:href='#g1-93'/>
<use x='7.981316' y='65.164948' xlink:href='#g1-45'/>
<use x='11.301385' y='65.164948' xlink:href='#g1-62'/>
<use x='19.048213' y='65.164948' xlink:href='#g1-91'/>
<use x='21.814938' y='65.164948' xlink:href='#g1-114'/>
<use x='25.716019' y='65.164948' xlink:href='#g1-101'/>
<use x='30.142778' y='65.164948' xlink:href='#g1-100'/>
<use x='35.676227' y='65.164948' xlink:href='#g1-44'/>
<use x='38.442951' y='65.164948' xlink:href='#g1-34'/>
<use x='43.423055' y='65.164948' xlink:href='#g0-111'/>
<use x='48.652164' y='65.164948' xlink:href='#g0-120'/>
<use x='53.881273' y='65.164948' xlink:href='#g0-45'/>
<use x='59.110383' y='65.164948' xlink:href='#g0-104'/>
<use x='64.339492' y='65.164948' xlink:href='#g0-117'/>
<use x='69.568601' y='65.164948' xlink:href='#g0-103'/>
<use x='74.79771' y='65.164948' xlink:href='#g0-111'/>
<use x='80.026819' y='65.164948' xlink:href='#g1-34'/>
<use x='85.006923' y='65.164948' xlink:href='#g1-93'/>
<use x='91.093717' y='65.164948' xlink:href='#g1-109'/>
<use x='99.39389' y='65.164948' xlink:href='#g1-100'/>
<use x='104.927339' y='65.164948' xlink:href='#g1-91'/>
<use x='107.694063' y='65.164948' xlink:href='#g1-97'/>
<use x='112.674167' y='65.164948' xlink:href='#g1-115'/>
<use x='116.602915' y='65.164948' xlink:href='#g1-61'/>
<use x='124.349744' y='65.164948' xlink:href='#g0-98'/>
<use x='129.578853' y='65.164948' xlink:href='#g0-108'/>
<use x='134.807962' y='65.164948' xlink:href='#g0-97'/>
<use x='140.037071' y='65.164948' xlink:href='#g0-99'/>
<use x='145.26618' y='65.164948' xlink:href='#g0-107'/>
<use x='150.495289' y='65.164948' xlink:href='#g0-102'/>
<use x='155.724398' y='65.164948' xlink:href='#g0-114'/>
<use x='160.953507' y='65.164948' xlink:href='#g0-105'/>
<use x='166.182617' y='65.164948' xlink:href='#g0-100'/>
<use x='171.411726' y='65.164948' xlink:href='#g0-97'/>
<use x='176.640835' y='65.164948' xlink:href='#g0-121'/>
<use x='185.190013' y='65.164948' xlink:href='#g1-109'/>
<use x='193.490186' y='65.164948' xlink:href='#g1-97'/>
<use x='198.47029' y='65.164948' xlink:href='#g1-114'/>
<use x='202.371372' y='65.164948' xlink:href='#g1-107'/>
<use x='207.628148' y='65.164948' xlink:href='#g1-100'/>
<use x='213.161597' y='65.164948' xlink:href='#g1-111'/>
<use x='217.865028' y='65.164948' xlink:href='#g1-119'/>
<use x='225.058512' y='65.164948' xlink:href='#g1-110'/>
<use x='-29.480132' y='77.120117' xlink:href='#g0-40'/>
<use x='-24.251023' y='77.120117' xlink:href='#g0-46'/>
<use x='-19.021914' y='77.120117' xlink:href='#g0-109'/>
<use x='-13.792805' y='77.120117' xlink:href='#g0-100'/>
<use x='-8.563696' y='77.120117' xlink:href='#g0-41'/>
<use x='-3.334587' y='77.120117' xlink:href='#g1-93'/>
<use x='2.752207' y='77.120117' xlink:href='#g1-45'/>
<use x='6.072276' y='77.120117' xlink:href='#g1-62'/>
<use x='13.819104' y='77.120117' xlink:href='#g1-91'/>
<use x='16.585829' y='77.120117' xlink:href='#g1-34'/>
<use x='21.565933' y='77.120117' xlink:href='#g0-104'/>
<use x='26.795042' y='77.120117' xlink:href='#g0-117'/>
<use x='32.024151' y='77.120117' xlink:href='#g0-103'/>
<use x='37.25326' y='77.120117' xlink:href='#g0-111'/>
<use x='42.482369' y='77.120117' xlink:href='#g1-34'/>
<use x='47.462473' y='77.120117' xlink:href='#g1-93'/>
<use x='53.549267' y='77.120117' xlink:href='#g1-104'/>
<use x='58.806043' y='77.120117' xlink:href='#g1-116'/>
<use x='62.679457' y='77.120117' xlink:href='#g1-109'/>
<use x='70.97963' y='77.120117' xlink:href='#g1-108'/>
<use x='73.746355' y='77.120117' xlink:href='#g1-91'/>
<use x='76.513079' y='77.120117' xlink:href='#g1-97'/>
<use x='81.493183' y='77.120117' xlink:href='#g1-115'/>
<use x='85.421932' y='77.120117' xlink:href='#g1-61'/>
<use x='93.16876' y='77.120117' xlink:href='#g1-115'/>
<use x='97.097508' y='77.120117' xlink:href='#g1-116'/>
<use x='100.970923' y='77.120117' xlink:href='#g1-97'/>
<use x='105.951027' y='77.120117' xlink:href='#g1-116'/>
<use x='109.824441' y='77.120117' xlink:href='#g1-105'/>
<use x='112.591165' y='77.120117' xlink:href='#g1-99'/>
<use x='120.337993' y='77.120117' xlink:href='#g0-46'/>
<use x='125.567102' y='77.120117' xlink:href='#g0-104'/>
<use x='130.796212' y='77.120117' xlink:href='#g0-116'/>
<use x='136.025321' y='77.120117' xlink:href='#g0-109'/>
<use x='141.25443' y='77.120117' xlink:href='#g0-108'/>
<use x='151.712648' y='77.120117' xlink:href='#g0-43'/>
<use x='162.170866' y='77.120117' xlink:href='#g0-46'/>
<use x='167.399975' y='77.120117' xlink:href='#g0-99'/>
<use x='172.629084' y='77.120117' xlink:href='#g0-115'/>
<use x='177.858194' y='77.120117' xlink:href='#g0-115'/>
<use x='186.407372' y='77.120117' xlink:href='#g1-119'/>
<use x='193.324183' y='77.120117' xlink:href='#g1-101'/>
<use x='197.750942' y='77.120117' xlink:href='#g1-98'/>
<use x='203.284391' y='77.120117' xlink:href='#g1-115'/>
<use x='207.213139' y='77.120117' xlink:href='#g1-105'/>
<use x='209.979864' y='77.120117' xlink:href='#g1-116'/>
<use x='213.853278' y='77.120117' xlink:href='#g1-101'/>
<use x='218.280037' y='77.120117' xlink:href='#g1-93'/>
<use x='221.046761' y='77.120117' xlink:href='#g1-59'/>
<use x='227.133555' y='77.120117' xlink:href='#g1-59'/>
</g>
</svg>