<?xml version='1.0' encoding='UTF-8'?>
<!-- This file was generated by dvisvgm 2.13.1 -->
<svg version='1.1' xmlns='http://www.w3.org/2000/svg' xmlns:xlink='http://www.w3.org/1999/xlink' width='35.675656pt' height='9.339271pt' viewBox='-19.935322 14.981359 35.675656 9.339271'>
<defs>
<path id='g1-51' d='M2.889166-3.506849C3.706102-3.775841 4.283935-4.473225 4.283935-5.260274C4.283935-6.07721 3.407223-6.635118 2.450809-6.635118C1.444583-6.635118 .687422-6.03736 .687422-5.280199C.687422-4.951432 .9066-4.762142 1.195517-4.762142C1.504359-4.762142 1.703611-4.98132 1.703611-5.270237C1.703611-5.768369 1.235367-5.768369 1.085928-5.768369C1.39477-6.256538 2.052304-6.386052 2.410959-6.386052C2.819427-6.386052 3.367372-6.166874 3.367372-5.270237C3.367372-5.150685 3.347447-4.572852 3.088418-4.134496C2.789539-3.656289 2.450809-3.626401 2.201743-3.616438C2.122042-3.606476 1.882939-3.58655 1.8132-3.58655C1.733499-3.576588 1.663761-3.566625 1.663761-3.466999C1.663761-3.35741 1.733499-3.35741 1.902864-3.35741H2.34122C3.158157-3.35741 3.526775-2.67995 3.526775-1.703611C3.526775-.348692 2.839352-.059776 2.400996-.059776C1.972603-.059776 1.225405-.229141 .876712-.816936C1.225405-.767123 1.534247-.986301 1.534247-1.364882C1.534247-1.723537 1.265255-1.92279 .976339-1.92279C.737235-1.92279 .418431-1.783313 .418431-1.344956C.418431-.438356 1.344956 .219178 2.430884 .219178C3.646326 .219178 4.552927-.687422 4.552927-1.703611C4.552927-2.520548 3.92528-3.297634 2.889166-3.506849Z'/>
<path id='g0-60' d='M6.724782-4.961395C6.844334-5.021171 6.914072-5.070984 6.914072-5.180573S6.824408-5.379826 6.714819-5.379826C6.684932-5.379826 6.665006-5.379826 6.535492-5.310087L1.016189-2.709838C.9066-2.660025 .826899-2.610212 .826899-2.49066S.9066-2.321295 1.016189-2.271482L6.535492 .328767C6.665006 .398506 6.684932 .398506 6.714819 .398506C6.824408 .398506 6.914072 .308842 6.914072 .199253S6.844334 .039851 6.724782-.019925L1.494396-2.49066L6.724782-4.961395Z'/>
<path id='g0-62' d='M6.724782-2.271482C6.834371-2.321295 6.914072-2.371108 6.914072-2.49066S6.834371-2.660025 6.724782-2.709838L1.205479-5.310087C1.075965-5.379826 1.05604-5.379826 1.026152-5.379826C.916563-5.379826 .826899-5.290162 .826899-5.180573C.826899-5.090909 .876712-5.031133 1.016189-4.961395L6.246575-2.49066L1.016189-.019925C.876712 .049813 .826899 .109589 .826899 .199253C.826899 .308842 .916563 .398506 1.026152 .398506C1.05604 .398506 1.075965 .398506 1.205479 .328767L6.724782-2.271482Z'/>
</defs>
<g id='page1' transform='matrix(1.371429 0 0 1.371429 0 0)'>
<rect x='-14.536172' y='10.923908' width='26.013499' height='6.809885' fill='#fff'/>
<g fill='#2f4f4f'>
<use x='-14.536172' y='17.344276' xlink:href='#g0-60'/>
<use x='-4.020092' y='17.344276' xlink:href='#g1-51'/>
<use x='3.728579' y='17.344276' xlink:href='#g0-62'/>
</g>
</g>
</svg>