<?xml version='1.0' encoding='UTF-8'?>
<!-- This file was generated by dvisvgm 2.13.1 -->
<svg version='1.1' xmlns='http://www.w3.org/2000/svg' xmlns:xlink='http://www.w3.org/1999/xlink' width='215.790981pt' height='126.364238pt' viewBox='-19.9392 10.124997 215.790981 126.364238'>
<defs>
<path id='g0-61' d='M.617684-3.566625C.577833-3.5467 .547945-3.506849 .547945-3.466999C.547945-3.39726 .607721-3.35741 .67746-3.35741H7.013699C7.083437-3.35741 7.193026-3.377335 7.193026-3.466999C7.193026-3.5467 7.103362-3.58655 7.033624-3.58655C6.993773-3.58655 6.94396-3.576588 6.90411-3.576588H.687422C.657534-3.576588 .637609-3.576588 .617684-3.566625ZM.627646-1.633873C.577833-1.613948 .557908-1.58406 .557908-1.544209C.557908-1.494396 .597758-1.43462 .667497-1.424658H7.023661C7.0934-1.424658 7.193026-1.454545 7.193026-1.534247S7.0934-1.653798 7.023661-1.653798C6.973848-1.653798 6.933998-1.643836 6.894147-1.643836H.707347C.67746-1.643836 .647572-1.643836 .627646-1.633873Z'/>
<path id='g0-99' d='M3.576588-3.855542C3.317559-3.835616 3.108344-3.676214 3.108344-3.39726C3.108344-3.128269 3.297634-2.938979 3.566625-2.938979C3.865504-2.938979 4.024907-3.158157 4.024907-3.437111V-3.496887C3.92528-4.224159 3.078456-4.463263 2.500623-4.463263C1.285181-4.463263 .328767-3.39726 .328767-2.161893C.328767-1.036115 1.205479 .099626 2.49066 .099626C3.148194 .099626 3.795766-.259029 4.064757-.956413C4.084682-1.016189 4.134496-1.105853 4.134496-1.175592S4.084682-1.295143 4.014944-1.295143C3.865504-1.295143 3.775841-.916563 3.706102-.787049C3.466999-.398506 3.058531-.159402 2.610212-.14944C1.544209-.14944 1.215442-1.215442 1.165629-2.002491V-2.122042C1.165629-2.919054 1.354919-4.11457 2.450809-4.214197H2.530511C2.899128-4.214197 3.287671-4.104608 3.576588-3.855542Z'/>
<path id='g0-100' d='M3.028643-6.814446V-6.505604H3.188045C3.536737-6.505604 3.805729-6.465753 3.805729-5.88792L3.795766-3.795766C3.556663-4.194271 2.988792-4.403487 2.530511-4.403487C1.305106-4.403487 .328767-3.347447 .328767-2.141968C.328767-1.075965 1.145704 .099626 2.460772 .099626C2.978829 .099626 3.447073-.14944 3.775841-.547945V.099626L5.250311-.009963V-.318804H5.080946C4.772105-.318804 4.473225-.348692 4.473225-.816936V-6.924035L3.028643-6.814446ZM1.165629-1.902864V-2.052304C1.165629-2.789539 1.255293-3.536737 1.942715-3.995019C2.141968-4.11457 2.371108-4.184309 2.600249-4.184309C3.088418-4.184309 3.785803-3.785803 3.785803-3.158157C3.785803-3.028643 3.775841-2.899128 3.775841-2.769614V-1.115816C3.775841-.986301 3.726027-.896638 3.656289-.797011C3.39726-.408468 2.968867-.119552 2.500623-.119552C1.77335-.119552 1.315068-.787049 1.205479-1.474471C1.185554-1.613948 1.185554-1.763387 1.165629-1.902864Z'/>
<path id='g0-101' d='M1.115816-2.311333H3.985056C4.094645-2.311333 4.144458-2.381071 4.144458-2.49066C4.144458-3.5467 3.496887-4.463263 2.381071-4.463263C1.155666-4.463263 .278954-3.377335 .278954-2.191781C.278954-1.275218 .787049-.458281 1.663761-.059776C1.892902 .039851 2.161893 .099626 2.410959 .099626H2.440847C3.20797 .099626 3.845579-.328767 4.11457-1.09589C4.124533-1.125778 4.124533-1.165629 4.124533-1.195517C4.124533-1.265255 4.084682-1.315068 4.014944-1.315068C3.865504-1.315068 3.805729-.986301 3.745953-.876712C3.496887-.438356 3.01868-.14944 2.500623-.14944C2.132005-.14944 1.8132-.358655 1.544209-.627646C1.145704-1.085928 1.115816-1.733499 1.115816-2.311333ZM1.125778-2.520548C1.125778-3.287671 1.534247-4.244085 2.351183-4.244085H2.400996C3.377335-4.154421 3.367372-3.118306 3.466999-2.520548H1.125778Z'/>
<path id='g0-104' d='M.318804-6.814446V-6.505604H.468244C.836862-6.505604 1.09589-6.465753 1.09589-5.987547V-.956413C1.09589-.886675 1.105853-.816936 1.105853-.737235C1.105853-.358655 .836862-.318804 .557908-.318804H.318804V-.009963H2.570361V-.318804H2.311333C2.032379-.318804 1.793275-.358655 1.793275-.727273V-2.550436C1.793275-3.267746 2.161893-4.184309 3.148194-4.184309C3.785803-4.184309 3.845579-3.496887 3.845579-3.068493V-.687422C3.845579-.348692 3.556663-.318804 3.247821-.318804H3.068493V-.009963H5.32005V-.318804H5.070984C4.801993-.318804 4.542964-.358655 4.542964-.697385V-2.879203C4.542964-3.20797 4.533001-3.536737 4.383562-3.835616C4.144458-4.273973 3.646326-4.403487 3.188045-4.403487C2.610212-4.403487 1.96264-4.014944 1.77335-3.457036L1.763387-6.924035L.318804-6.814446Z'/>
<path id='g0-108' d='M.328767-6.814446V-6.505604H.478207C.846824-6.505604 1.105853-6.465753 1.105853-5.987547V-.956413C1.105853-.886675 1.115816-.816936 1.115816-.737235C1.115816-.358655 .846824-.318804 .56787-.318804H.328767V-.009963H2.550436V-.318804H2.30137C2.012453-.318804 1.77335-.358655 1.77335-.747198V-6.924035L.328767-6.814446Z'/>
<path id='g0-109' d='M.318804-4.293898V-3.985056H.468244C.797011-3.985056 1.09589-3.955168 1.09589-3.486924V-.737235C1.09589-.328767 .816936-.318804 .37858-.318804H.318804V-.009963H2.570361V-.318804H2.311333C2.032379-.318804 1.793275-.358655 1.793275-.727273V-2.550436C1.793275-3.277709 2.191781-4.184309 3.148194-4.184309C3.785803-4.184309 3.855542-3.526775 3.855542-3.068493V-.697385C3.855542-.33873 3.556663-.318804 3.227895-.318804H3.078456V-.009963H5.330012V-.318804H5.070984C4.79203-.318804 4.552927-.358655 4.552927-.727273V-2.550436C4.552927-3.277709 4.951432-4.184309 5.907846-4.184309C6.545455-4.184309 6.615193-3.526775 6.615193-3.068493V-.697385C6.615193-.33873 6.316314-.318804 5.987547-.318804H5.838107V-.009963H8.089664V-.318804H7.880448C7.581569-.318804 7.312578-.348692 7.312578-.697385V-2.948941C7.312578-3.317559 7.292653-3.646326 7.053549-3.985056C6.794521-4.313823 6.366127-4.403487 5.967621-4.403487C5.32005-4.403487 4.79203-4.024907 4.523039-3.447073C4.333748-4.154421 3.88543-4.403487 3.198007-4.403487C2.560399-4.403487 1.952677-4.004981 1.743462-3.387298L1.733499-4.403487L.318804-4.293898Z'/>
<path id='g0-111' d='M2.34122-4.463263C1.085928-4.333748 .278954-3.277709 .278954-2.122042C.278954-.996264 1.165629 .099626 2.49066 .099626C3.686177 .099626 4.692403-.876712 4.692403-2.132005C4.692403-3.317559 3.795766-4.473225 2.470735-4.473225C2.430884-4.473225 2.381071-4.463263 2.34122-4.463263ZM1.115816-1.892902V-2.331258C1.115816-3.088418 1.354919-4.244085 2.480697-4.244085C3.287671-4.244085 3.745953-3.566625 3.835616-2.809465C3.855542-2.590286 3.855542-2.381071 3.855542-2.161893C3.855542-1.514321 3.785803-.707347 3.148194-.33873C2.948941-.209215 2.729763-.14944 2.500623-.14944C1.77335-.14944 1.265255-.71731 1.155666-1.494396C1.135741-1.62391 1.135741-1.763387 1.115816-1.892902Z'/>
<path id='g0-116' d='M1.484433-6.136986C1.484433-5.449564 1.195517-4.204234 .179328-4.204234V-3.985056H1.036115V-1.414695C1.036115-1.085928 1.05604-.757161 1.215442-.468244C1.43462-.069738 1.902864 .099626 2.34122 .099626C3.158157 .099626 3.317559-.816936 3.317559-1.444583V-1.8132H3.068493C3.068493-1.663761 3.078456-1.514321 3.078456-1.354919C3.078456-.916563 2.978829-.14944 2.391034-.14944C1.823163-.14944 1.733499-.836862 1.733499-1.285181V-3.985056H3.148194V-4.293898H1.733499V-6.136986H1.484433Z'/>
</defs>
<g id='page1' transform='matrix(1.371429 0 0 1.371429 0 0)'>
<rect x='-14.539' y='7.38281' width='157.34759' height='92.14059' fill='#fff'/>
<path d='M-14.539 99.5234V7.38281H142.80859V99.5234Z' fill='#fff'/>
<path d='M-10.051 26.043H138.324216V11.871094H-10.051Z' fill='#80ff80'/>
<path d='M-10.051 26.043H138.324216V11.871094H-10.051Z' stroke='#000' fill='none' stroke-width='.3985' stroke-miterlimit='10'/>
<g fill='#2f4f4f' transform='matrix(1 0 0 1 -145.25308 10.7167)'>
<use x='191.819875' y='11.670059' xlink:href='#g0-61'/>
<use x='199.566704' y='11.670059' xlink:href='#g0-99'/>
<use x='203.993463' y='11.670059' xlink:href='#g0-111'/>
<use x='209.250239' y='11.670059' xlink:href='#g0-100'/>
<use x='214.783688' y='11.670059' xlink:href='#g0-101'/>
<use x='219.210447' y='11.670059' xlink:href='#g0-61'/>
</g>
<path d='M-10.051 60.5391H138.324216V46.3672H-10.051Z' fill='#80ff80'/>
<path d='M-10.051 60.5391H138.324216V46.3672H-10.051Z' stroke='#000' fill='none' stroke-width='.3985' stroke-miterlimit='10'/>
<g fill='#2f4f4f' transform='matrix(1 0 0 1 -145.25308 45.2141)'>
<use x='202.471764' y='11.670059' xlink:href='#g0-109'/>
<use x='210.771937' y='11.670059' xlink:href='#g0-100'/>
</g>
<path d='M64.1367 26.2422V41.1875' stroke='#000' fill='none' stroke-width='.3985' stroke-miterlimit='10'/>
<path d='M64.136748 43.17972L65.7305 39.99222L64.136748 41.187531L62.543 39.99222' fill='#2f4f4f'/>
<path d='M-10.051 95.0391H138.324216V80.8633H-10.051Z' fill='#80ff80'/>
<path d='M-10.051 95.0391H138.324216V80.8633H-10.051Z' stroke='#000' fill='none' stroke-width='.3985' stroke-miterlimit='10'/>
<g fill='#2f4f4f' transform='matrix(1 0 0 1 -145.25308 79.7116)'>
<use x='199.290031' y='11.670059' xlink:href='#g0-104'/>
<use x='204.546808' y='11.670059' xlink:href='#g0-116'/>
<use x='208.420222' y='11.670059' xlink:href='#g0-109'/>
<use x='216.720395' y='11.670059' xlink:href='#g0-108'/>
</g>
<path d='M64.1367 60.7383V75.6836' stroke='#000' fill='none' stroke-width='.3985' stroke-miterlimit='10'/>
<path d='M64.136748 77.6758L65.7305 74.4883L64.136748 75.683608L62.543 74.4883' fill='#2f4f4f'/>
</g>
</svg>