<?xml version='1.0' encoding='UTF-8'?>
<!-- This file was generated by dvisvgm 2.13.1 -->
<svg version='1.1' xmlns='http://www.w3.org/2000/svg' xmlns:xlink='http://www.w3.org/1999/xlink' width='215.790981pt' height='146.608855pt' viewBox='-19.9392 10.124997 215.790981 146.608855'>
<defs>
<path id='g1-28' d='M1.046077-4.293898H.268991V-3.985056H1.046077V-.687422C1.046077-.348692 .757161-.318804 .448319-.318804H.268991V-.009963H2.49066V-.318804H2.251557C1.972603-.318804 1.713574-.348692 1.713574-.687422V-3.985056H3.317559C3.596513-3.985056 3.815691-3.935243 3.815691-3.39726C3.815691-3.297634 3.805729-3.198007 3.805729-3.098381V-.737235C3.805729-.328767 3.526775-.318804 3.088418-.318804H3.028643V-.009963H5.250311V-.318804H5.001245C4.722291-.318804 4.473225-.358655 4.473225-.71731V-4.41345L2.968867-4.293898H1.683686V-5.310087C1.683686-5.549191 1.693649-5.768369 1.793275-5.987547C2.012453-6.495641 2.600249-6.814446 3.158157-6.814446C3.476961-6.814446 3.785803-6.714819 4.014944-6.485679C3.755915-6.485679 3.536737-6.306351 3.536737-6.03736C3.536737-5.798257 3.726027-5.569116 3.995019-5.569116C4.224159-5.569116 4.433375-5.728518 4.4533-5.977584V-6.03736C4.4533-6.724782 3.73599-7.033624 3.148194-7.033624C2.400996-7.033624 1.504359-6.714819 1.155666-5.987547C1.05604-5.778331 1.046077-5.559153 1.046077-5.330012V-4.293898Z'/>
<path id='g1-45' d='M.109589-2.440847V-1.853051H2.759651V-2.440847H.109589Z'/>
<path id='g1-66' d='M.358655-6.814446V-6.505604C.488169-6.505604 .617684-6.515567 .737235-6.515567C1.09589-6.515567 1.384807-6.465753 1.384807-6.067248V-.747198C1.384807-.368618 1.05604-.308842 .71731-.308842C.587796-.308842 .468244-.318804 .358655-.318804V-.009963H3.496887C3.706102-.009963 3.905355 0 4.11457 0C5.180573 0 6.495641-.498132 6.495641-1.892902C6.495641-2.849315 5.369863-3.556663 4.562889-3.556663V-3.576588C5.310087-3.656289 6.216687-4.283935 6.216687-5.13076V-5.200498C6.136986-6.346202 4.851806-6.824408 3.855542-6.824408C3.656289-6.824408 3.457036-6.814446 3.267746-6.814446H.358655ZM2.211706-3.437111H3.995019C4.961395-3.437111 5.489415-2.699875 5.489415-1.872976C5.489415-.986301 4.851806-.308842 3.835616-.308842C3.676214-.308842 3.516812-.318804 3.35741-.318804H2.590286C2.381071-.318804 2.211706-.37858 2.211706-.637609V-3.437111ZM2.211706-3.656289V-6.136986C2.211706-6.435866 2.351183-6.485679 2.570361-6.505604H3.835616C4.41345-6.505604 4.851806-6.296389 5.13076-5.708593C5.200498-5.529265 5.250311-5.32005 5.250311-5.120797C5.240349-4.244085 4.463263-3.646326 3.616438-3.646326C3.506849-3.646326 3.39726-3.656289 3.287671-3.656289H2.211706Z'/>
<path id='g1-77' d='M.368618-6.814446V-6.505604C.498132-6.505604 .627646-6.515567 .747198-6.515567C1.105853-6.515567 1.39477-6.465753 1.39477-6.067248V-1.026152C1.39477-.37858 .797011-.318804 .368618-.318804V-.009963H2.699875V-.318804C2.251557-.318804 1.663761-.37858 1.663761-1.066002C1.663761-1.155666 1.673724-1.255293 1.673724-1.344956L1.683686-6.445828C1.733499-6.236613 1.833126-6.03736 1.912827-5.838107C2.610212-3.995019 3.327522-2.161893 4.044832-.33873C4.084682-.229141 4.134496-.009963 4.283935-.009963H4.293898C4.443337-.029888 4.483188-.259029 4.533001-.37858C5.250311-2.241594 5.997509-4.124533 6.704857-5.997509C6.774595-6.166874 6.854296-6.336239 6.90411-6.515567L6.914072-.767123C6.914072-.368618 6.595268-.308842 6.276463-.308842C6.136986-.308842 6.007472-.318804 5.88792-.318804V-.009963H8.747198V-.318804C8.627646-.318804 8.498132-.308842 8.37858-.308842C8.029888-.308842 7.721046-.358655 7.721046-.747198V-6.067248C7.721046-6.455791 8.039851-6.515567 8.37858-6.515567C8.508095-6.515567 8.637609-6.505604 8.747198-6.505604V-6.814446H7.013699L6.824408-6.784558L6.724782-6.625156L4.562889-1.016189L2.391034-6.625156L2.291407-6.784558L2.102117-6.814446H.368618Z'/>
<path id='g1-79' d='M3.696139-7.033624C2.809465-6.90411 2.062267-6.615193 1.474471-5.917808C.86675-5.210461 .547945-4.293898 .547945-3.377335C.547945-1.663761 1.77335 .209215 3.88543 .209215C5.838107 .209215 7.193026-1.574097 7.193026-3.407223C7.193026-5.230386 5.84807-7.043587 3.845579-7.043587C3.795766-7.043587 3.745953-7.033624 3.696139-7.033624ZM1.574097-3.267746V-3.437111C1.574097-4.582814 1.8132-5.88792 2.958904-6.545455C3.237858-6.694894 3.5467-6.784558 3.865504-6.784558C4.712329-6.784558 5.429639-6.1868 5.818182-5.389788C6.087173-4.841843 6.166874-4.154421 6.166874-3.576588C6.166874-2.261519 5.858032-.617684 4.323786-.109589C4.184309-.069738 4.034869-.049813 3.895392-.049813C2.450809-.049813 1.763387-1.534247 1.613948-2.739726C1.594022-2.919054 1.594022-3.088418 1.574097-3.267746Z'/>
<path id='g1-97' d='M1.115816-3.795766C1.364882-4.104608 1.803238-4.244085 2.171856-4.244085C2.909091-4.244085 3.237858-3.576588 3.237858-2.86924V-2.610212C2.092154-2.610212 .408468-2.251557 .408468-.946451V-.86675C.488169-.099626 1.454545 .099626 2.022416 .099626C2.530511 .099626 3.178082-.239103 3.307597-.747198H3.317559C3.377335-.318804 3.646326 .049813 4.094645 .049813C4.503113 .049813 4.861768-.278954 4.911582-.727273V-1.454545H4.662516V-.946451C4.662516-.67746 4.612702-.268991 4.303861-.268991C3.985056-.268991 3.935243-.657534 3.935243-.926526V-2.590286C3.935243-2.719801 3.945205-2.839352 3.945205-2.968867C3.945205-3.935243 3.038605-4.463263 2.211706-4.463263C1.58406-4.463263 .697385-4.154421 .697385-3.35741C.697385-3.068493 .9066-2.879203 1.165629-2.879203C1.444583-2.879203 1.613948-3.098381 1.613948-3.337484C1.613948-3.626401 1.384807-3.795766 1.115816-3.795766ZM3.237858-2.400996V-1.39477C3.237858-.707347 2.759651-.159402 2.11208-.119552H2.072229C1.603985-.119552 1.185554-.488169 1.185554-.966376V-1.016189C1.255293-2.022416 2.381071-2.371108 3.237858-2.400996Z'/>
<path id='g1-98' d='M.268991-6.814446V-6.505604H.438356C.747198-6.505604 1.046077-6.475716 1.046077-6.007472V-.009963L1.285181-.029888L1.414695-.199253L1.653798-.617684H1.673724C1.912827-.139477 2.500623 .099626 2.998755 .099626C4.234122 .099626 5.190535-.976339 5.190535-2.161893C5.190535-3.307597 4.313823-4.403487 3.038605-4.403487C2.520548-4.403487 2.062267-4.154421 1.713574-3.765878V-6.924035L.268991-6.814446ZM4.343711-1.912827C4.303861-1.43462 4.254047-1.016189 3.955168-.647572C3.706102-.328767 3.327522-.119552 2.929016-.119552C2.500623-.119552 2.11208-.368618 1.882939-.727273C1.803238-.836862 1.743462-.926526 1.743462-1.075965V-2.739726C1.743462-2.86924 1.733499-2.998755 1.733499-3.128269C1.733499-3.726027 2.460772-4.184309 3.01868-4.184309C4.094645-4.184309 4.353674-2.929016 4.353674-2.141968C4.353674-2.062267 4.353674-1.992528 4.343711-1.912827Z'/>
<path id='g1-99' d='M3.576588-3.855542C3.317559-3.835616 3.108344-3.676214 3.108344-3.39726C3.108344-3.128269 3.297634-2.938979 3.566625-2.938979C3.865504-2.938979 4.024907-3.158157 4.024907-3.437111V-3.496887C3.92528-4.224159 3.078456-4.463263 2.500623-4.463263C1.285181-4.463263 .328767-3.39726 .328767-2.161893C.328767-1.036115 1.205479 .099626 2.49066 .099626C3.148194 .099626 3.795766-.259029 4.064757-.956413C4.084682-1.016189 4.134496-1.105853 4.134496-1.175592S4.084682-1.295143 4.014944-1.295143C3.865504-1.295143 3.775841-.916563 3.706102-.787049C3.466999-.398506 3.058531-.159402 2.610212-.14944C1.544209-.14944 1.215442-1.215442 1.165629-2.002491V-2.122042C1.165629-2.919054 1.354919-4.11457 2.450809-4.214197H2.530511C2.899128-4.214197 3.287671-4.104608 3.576588-3.855542Z'/>
<path id='g1-100' d='M3.028643-6.814446V-6.505604H3.188045C3.536737-6.505604 3.805729-6.465753 3.805729-5.88792L3.795766-3.795766C3.556663-4.194271 2.988792-4.403487 2.530511-4.403487C1.305106-4.403487 .328767-3.347447 .328767-2.141968C.328767-1.075965 1.145704 .099626 2.460772 .099626C2.978829 .099626 3.447073-.14944 3.775841-.547945V.099626L5.250311-.009963V-.318804H5.080946C4.772105-.318804 4.473225-.348692 4.473225-.816936V-6.924035L3.028643-6.814446ZM1.165629-1.902864V-2.052304C1.165629-2.789539 1.255293-3.536737 1.942715-3.995019C2.141968-4.11457 2.371108-4.184309 2.600249-4.184309C3.088418-4.184309 3.785803-3.785803 3.785803-3.158157C3.785803-3.028643 3.775841-2.899128 3.775841-2.769614V-1.115816C3.775841-.986301 3.726027-.896638 3.656289-.797011C3.39726-.408468 2.968867-.119552 2.500623-.119552C1.77335-.119552 1.315068-.787049 1.205479-1.474471C1.185554-1.613948 1.185554-1.763387 1.165629-1.902864Z'/>
<path id='g1-101' d='M1.115816-2.311333H3.985056C4.094645-2.311333 4.144458-2.381071 4.144458-2.49066C4.144458-3.5467 3.496887-4.463263 2.381071-4.463263C1.155666-4.463263 .278954-3.377335 .278954-2.191781C.278954-1.275218 .787049-.458281 1.663761-.059776C1.892902 .039851 2.161893 .099626 2.410959 .099626H2.440847C3.20797 .099626 3.845579-.328767 4.11457-1.09589C4.124533-1.125778 4.124533-1.165629 4.124533-1.195517C4.124533-1.265255 4.084682-1.315068 4.014944-1.315068C3.865504-1.315068 3.805729-.986301 3.745953-.876712C3.496887-.438356 3.01868-.14944 2.500623-.14944C2.132005-.14944 1.8132-.358655 1.544209-.627646C1.145704-1.085928 1.115816-1.733499 1.115816-2.311333ZM1.125778-2.520548C1.125778-3.287671 1.534247-4.244085 2.351183-4.244085H2.400996C3.377335-4.154421 3.367372-3.118306 3.466999-2.520548H1.125778Z'/>
<path id='g1-102' d='M1.105853-4.293898H.328767V-3.985056H1.105853V-.687422C1.105853-.348692 .816936-.318804 .518057-.318804H.33873V-.009963H2.739726V-.318804H2.420922C2.201743-.318804 1.972603-.328767 1.853051-.438356C1.77335-.52802 1.77335-.657534 1.77335-.777086V-3.985056H2.909091V-4.293898H1.743462V-5.599004C1.743462-6.146949 2.122042-6.814446 2.660025-6.814446C2.759651-6.814446 2.899128-6.794521 2.978829-6.734745C2.789539-6.684932 2.67995-6.505604 2.67995-6.316314C2.67995-6.057285 2.879203-5.88792 3.118306-5.88792C3.377335-5.88792 3.566625-6.087173 3.566625-6.306351C3.566625-6.784558 3.068493-7.033624 2.660025-7.033624C1.753425-7.033624 1.105853-6.326276 1.105853-5.3599V-4.293898Z'/>
<path id='g1-103' d='M1.185554-.229141V-.219178C.71731-.129514 .278954 .318804 .278954 .787049C.278954 1.723537 1.713574 2.042341 2.480697 2.042341C3.317559 2.042341 4.692403 1.743462 4.692403 .71731C4.692403 .069738 4.234122-.37858 3.636364-.547945C3.277709-.657534 2.909091-.667497 2.530511-.667497H1.62391C1.305106-.697385 1.05604-1.016189 1.05604-1.334994V-1.384807C1.066002-1.514321 1.135741-1.77335 1.235367-1.77335C1.364882-1.743462 1.504359-1.633873 1.653798-1.58406C1.833126-1.524284 2.032379-1.494396 2.221669-1.494396C3.038605-1.494396 3.835616-2.102117 3.835616-2.948941C3.835616-3.287671 3.696139-3.686177 3.427148-3.905355V-3.915318C3.696139-4.11457 3.955168-4.293898 4.313823-4.293898C4.343711-4.293898 4.373599-4.293898 4.403487-4.283935C4.313823-4.224159 4.254047-4.154421 4.254047-4.024907C4.254047-3.865504 4.383562-3.726027 4.542964-3.726027C4.712329-3.726027 4.83188-3.865504 4.83188-4.024907C4.83188-4.293898 4.612702-4.513076 4.333748-4.513076C3.985056-4.513076 3.646326-4.373599 3.387298-4.154421C3.35741-4.124533 3.317559-4.084682 3.277709-4.07472H3.267746C3.20797-4.07472 3.128269-4.154421 3.078456-4.184309C2.819427-4.323786 2.520548-4.403487 2.221669-4.403487C1.43462-4.403487 .587796-3.855542 .587796-2.948941C.587796-2.620174 .71731-2.321295 .916563-2.062267C.956413-2.022416 1.026152-1.972603 1.026152-1.92279S.966376-1.823163 .946451-1.783313C.816936-1.58406 .747198-1.334994 .747198-1.09589C.747198-.787049 .886675-.37858 1.185554-.229141ZM.806974 .836862V.757161C.806974 .229141 1.265255-.079701 1.803238-.079701H2.580324C3.20797-.079701 4.164384 .009963 4.164384 .777086C4.164384 1.504359 3.098381 1.8132 2.480697 1.8132C1.823163 1.8132 .9066 1.514321 .806974 .836862ZM1.344956-2.749689V-2.879203C1.344956-3.427148 1.474471-4.164384 2.211706-4.164384C2.82939-4.164384 3.078456-3.58655 3.078456-2.948941C3.078456-2.540473 2.998755-1.733499 2.221669-1.733499C1.96264-1.733499 1.713574-1.853051 1.544209-2.072229C1.39477-2.271482 1.374844-2.510585 1.344956-2.749689Z'/>
<path id='g1-105' d='M.368618-4.293898V-3.985056H.557908C.846824-3.985056 1.105853-3.945205 1.105853-3.486924V-.727273C1.105853-.37858 .926526-.318804 .328767-.318804V-.009963H2.470735V-.318804H2.271482C2.012453-.318804 1.77335-.348692 1.77335-.667497V-4.403487L.368618-4.293898ZM1.205479-6.665006C.956413-6.635118 .757161-6.41594 .757161-6.146949C.757161-5.858032 1.006227-5.618929 1.285181-5.618929C1.554172-5.618929 1.8132-5.838107 1.8132-6.146949C1.8132-6.435866 1.564134-6.674969 1.285181-6.674969C1.255293-6.674969 1.235367-6.665006 1.205479-6.665006Z'/>
<path id='g1-107' d='M.268991-6.814446V-6.505604H.438356C.757161-6.505604 1.046077-6.465753 1.046077-5.987547V-.956413C1.046077-.886675 1.05604-.816936 1.05604-.737235C1.05604-.358655 .787049-.318804 .508095-.318804H.268991V-.009963H2.460772V-.318804H2.231631C1.932752-.318804 1.683686-.358655 1.683686-.737235V-1.663761C1.683686-1.872976 2.082192-2.15193 2.321295-2.331258C2.410959-2.161893 2.540473-2.012453 2.650062-1.853051C2.889166-1.524284 3.128269-1.205479 3.347447-.876712C3.407223-.787049 3.486924-.657534 3.486924-.537983C3.486924-.358655 3.287671-.318804 3.138232-.318804V-.009963H5.090909V-.318804C4.921544-.318804 4.732254-.318804 4.572852-.398506C4.343711-.52802 4.184309-.767123 4.044832-.976339C3.795766-1.325031 3.5467-1.683686 3.287671-2.032379L2.929016-2.540473C2.889166-2.590286 2.819427-2.67995 2.819427-2.719801V-2.739726C2.819427-2.809465 3.118306-3.028643 3.257783-3.138232C3.716065-3.536737 4.234122-3.985056 4.871731-3.985056V-4.293898H3.058531V-3.985056C3.20797-3.985056 3.337484-3.875467 3.337484-3.73599C3.337484-3.437111 2.86924-3.138232 2.600249-2.919054C2.30137-2.660025 2.012453-2.400996 1.713574-2.15193V-6.924035L.268991-6.814446Z'/>
<path id='g1-108' d='M.328767-6.814446V-6.505604H.478207C.846824-6.505604 1.105853-6.465753 1.105853-5.987547V-.956413C1.105853-.886675 1.115816-.816936 1.115816-.737235C1.115816-.358655 .846824-.318804 .56787-.318804H.328767V-.009963H2.550436V-.318804H2.30137C2.012453-.318804 1.77335-.358655 1.77335-.747198V-6.924035L.328767-6.814446Z'/>
<path id='g1-109' d='M.318804-4.293898V-3.985056H.468244C.797011-3.985056 1.09589-3.955168 1.09589-3.486924V-.737235C1.09589-.328767 .816936-.318804 .37858-.318804H.318804V-.009963H2.570361V-.318804H2.311333C2.032379-.318804 1.793275-.358655 1.793275-.727273V-2.550436C1.793275-3.277709 2.191781-4.184309 3.148194-4.184309C3.785803-4.184309 3.855542-3.526775 3.855542-3.068493V-.697385C3.855542-.33873 3.556663-.318804 3.227895-.318804H3.078456V-.009963H5.330012V-.318804H5.070984C4.79203-.318804 4.552927-.358655 4.552927-.727273V-2.550436C4.552927-3.277709 4.951432-4.184309 5.907846-4.184309C6.545455-4.184309 6.615193-3.526775 6.615193-3.068493V-.697385C6.615193-.33873 6.316314-.318804 5.987547-.318804H5.838107V-.009963H8.089664V-.318804H7.880448C7.581569-.318804 7.312578-.348692 7.312578-.697385V-2.948941C7.312578-3.317559 7.292653-3.646326 7.053549-3.985056C6.794521-4.313823 6.366127-4.403487 5.967621-4.403487C5.32005-4.403487 4.79203-4.024907 4.523039-3.447073C4.333748-4.154421 3.88543-4.403487 3.198007-4.403487C2.560399-4.403487 1.952677-4.004981 1.743462-3.387298L1.733499-4.403487L.318804-4.293898Z'/>
<path id='g1-110' d='M.318804-4.293898V-3.985056H.468244C.797011-3.985056 1.09589-3.955168 1.09589-3.486924V-.737235C1.09589-.328767 .816936-.318804 .37858-.318804H.318804V-.009963H2.570361V-.318804H2.311333C2.032379-.318804 1.793275-.358655 1.793275-.727273V-2.550436C1.793275-3.267746 2.161893-4.184309 3.148194-4.184309C3.785803-4.184309 3.845579-3.496887 3.845579-3.068493V-.687422C3.845579-.348692 3.556663-.318804 3.247821-.318804H3.068493V-.009963H5.32005V-.318804H5.070984C4.801993-.318804 4.542964-.358655 4.542964-.697385V-2.879203C4.542964-3.20797 4.533001-3.5467 4.373599-3.845579C4.144458-4.283935 3.636364-4.403487 3.178082-4.403487C2.570361-4.403487 1.942715-3.985056 1.743462-3.387298L1.733499-4.403487L.318804-4.293898Z'/>
<path id='g1-111' d='M2.34122-4.463263C1.085928-4.333748 .278954-3.277709 .278954-2.122042C.278954-.996264 1.165629 .099626 2.49066 .099626C3.686177 .099626 4.692403-.876712 4.692403-2.132005C4.692403-3.317559 3.795766-4.473225 2.470735-4.473225C2.430884-4.473225 2.381071-4.463263 2.34122-4.463263ZM1.115816-1.892902V-2.331258C1.115816-3.088418 1.354919-4.244085 2.480697-4.244085C3.287671-4.244085 3.745953-3.566625 3.835616-2.809465C3.855542-2.590286 3.855542-2.381071 3.855542-2.161893C3.855542-1.514321 3.785803-.707347 3.148194-.33873C2.948941-.209215 2.729763-.14944 2.500623-.14944C1.77335-.14944 1.265255-.71731 1.155666-1.494396C1.135741-1.62391 1.135741-1.763387 1.115816-1.892902Z'/>
<path id='g1-114' d='M.268991-4.293898V-3.985056H.418431C.747198-3.985056 1.046077-3.955168 1.046077-3.486924V-.737235C1.046077-.328767 .767123-.318804 .328767-.318804H.268991V-.009963H2.67995V-.318804C2.560399-.318804 2.420922-.308842 2.30137-.308842C1.982565-.308842 1.713574-.358655 1.713574-.727273V-2.052304C1.713574-2.899128 1.912827-4.184309 2.889166-4.184309C2.929016-4.184309 2.958904-4.184309 2.998755-4.174346V-4.164384C2.849315-4.104608 2.769614-3.945205 2.769614-3.785803C2.769614-3.556663 2.919054-3.39726 3.148194-3.35741C3.437111-3.35741 3.626401-3.536737 3.626401-3.785803C3.626401-4.184309 3.247821-4.403487 2.889166-4.403487C2.30137-4.403487 1.77335-3.875467 1.673724-3.337484L1.663761-4.403487L.268991-4.293898Z'/>
<path id='g1-115' d='M1.753425-4.463263C1.384807-4.423412 .996264-4.353674 .707347-4.104608C.468244-3.895392 .328767-3.556663 .328767-3.237858C.328767-1.534247 3.098381-2.500623 3.098381-1.006227C3.098381-.398506 2.550436-.119552 2.002491-.119552C1.24533-.119552 .737235-.657534 .597758-1.514321C.577833-1.603985 .56787-1.693649 .448319-1.693649C.368618-1.693649 .328767-1.633873 .328767-1.564134V.009963C.33873 .059776 .368618 .089664 .418431 .099626H.438356C.597758 .099626 .757161-.268991 .876712-.298879H.886675C.966376-.298879 1.235367-.049813 1.444583 .019925C1.613948 .079701 1.793275 .099626 1.972603 .099626C2.799502 .099626 3.58655-.33873 3.58655-1.255293C3.58655-1.912827 3.108344-2.450809 2.450809-2.620174C1.833126-2.789539 .816936-2.789539 .816936-3.516812C.816936-4.124533 1.484433-4.273973 1.92279-4.273973C2.410959-4.273973 3.088418-4.004981 3.088418-3.148194C3.088418-3.058531 3.098381-2.978829 3.20797-2.978829C3.307597-2.978829 3.347447-3.058531 3.347447-3.158157C3.347447-3.20797 3.337484-3.257783 3.337484-3.297634V-4.323786C3.337484-4.383562 3.307597-4.463263 3.227895-4.463263C3.068493-4.463263 2.968867-4.214197 2.859278-4.214197H2.849315C2.769614-4.214197 2.610212-4.343711 2.49066-4.383562C2.311333-4.443337 2.11208-4.473225 1.92279-4.473225C1.863014-4.473225 1.8132-4.463263 1.753425-4.463263Z'/>
<path id='g1-116' d='M1.484433-6.136986C1.484433-5.449564 1.195517-4.204234 .179328-4.204234V-3.985056H1.036115V-1.414695C1.036115-1.085928 1.05604-.757161 1.215442-.468244C1.43462-.069738 1.902864 .099626 2.34122 .099626C3.158157 .099626 3.317559-.816936 3.317559-1.444583V-1.8132H3.068493C3.068493-1.663761 3.078456-1.514321 3.078456-1.354919C3.078456-.916563 2.978829-.14944 2.391034-.14944C1.823163-.14944 1.733499-.836862 1.733499-1.285181V-3.985056H3.148194V-4.293898H1.733499V-6.136986H1.484433Z'/>
<path id='g1-119' d='M.179328-4.293898V-3.985056H.328767C.846824-3.985056 .86675-3.765878 1.115816-3.058531C1.364882-2.371108 1.62391-1.683686 1.863014-.996264L2.161893-.159402C2.201743-.049813 2.231631 .089664 2.371108 .099626H2.391034C2.610212 .099626 2.749689-.56787 2.879203-.896638C3.058531-1.424658 3.247821-1.952677 3.447073-2.480697C3.496887-2.620174 3.556663-2.759651 3.58655-2.899128H3.596513C3.626401-2.759651 3.686177-2.620174 3.73599-2.480697L4.024907-1.673724C4.204234-1.155666 4.403487-.647572 4.582814-.129514C4.622665-.019925 4.662516 .099626 4.801993 .099626C5.021171 .099626 5.190535-.607721 5.310087-.966376L5.877958-2.550436C6.107098-3.178082 6.246575-3.985056 7.003736-3.985056V-4.293898H5.3599V-3.985056C5.618929-3.975093 5.897883-3.835616 5.927771-3.556663C5.927771-3.277709 5.758406-2.958904 5.668742-2.699875C5.50934-2.271482 5.3599-1.843088 5.210461-1.414695C5.13076-1.205479 5.031133-.986301 4.98132-.767123H4.971357C4.921544-1.006227 4.79203-1.305106 4.692403-1.554172C4.463263-2.201743 4.224159-2.839352 4.004981-3.496887C3.975093-3.566625 3.945205-3.646326 3.945205-3.726027V-3.765878C3.995019-3.985056 4.323786-3.985056 4.523039-3.985056V-4.293898H2.590286V-3.985056H2.769614C3.158157-3.985056 3.247821-3.835616 3.377335-3.496887C3.39726-3.427148 3.447073-3.337484 3.447073-3.257783C3.437111-3.16812 3.387298-3.068493 3.35741-2.988792L2.789539-1.404732C2.729763-1.235367 2.67995-1.066002 2.610212-.9066C2.49066-1.165629 2.410959-1.454545 2.311333-1.723537C2.161893-2.15193 2.002491-2.580324 1.853051-3.008717L1.673724-3.516812C1.653798-3.576588 1.613948-3.646326 1.613948-3.716065C1.613948-3.975093 1.982565-3.985056 2.201743-3.985056V-4.293898H.179328Z'/>
<path id='g1-121' d='M.18929-4.293898V-3.985056H.348692C.627646-3.985056 .846824-3.955168 1.016189-3.576588C1.474471-2.480697 1.912827-1.374844 2.381071-.278954C2.410959-.199253 2.480697-.089664 2.480697 0C2.480697 .009963 2.470735 .029888 2.470735 .039851C2.400996 .249066 2.30137 .448319 2.211706 .647572C2.012453 1.135741 1.723537 1.8132 1.105853 1.8132C.956413 1.8132 .757161 1.753425 .637609 1.633873C.826899 1.603985 1.026152 1.494396 1.026152 1.215442C1.026152 .996264 .876712 .816936 .657534 .797011C.348692 .797011 .18929 .976339 .18929 1.225405C.18929 1.723537 .657534 2.032379 1.105853 2.032379H1.115816C1.833126 2.032379 2.211706 1.295143 2.460772 .707347L2.759651-.009963C3.108344-.86675 3.466999-1.723537 3.825654-2.580324L4.064757-3.148194C4.234122-3.616438 4.493151-3.985056 5.061021-3.985056V-4.293898H3.457036V-3.985056C3.686177-3.985056 3.915318-3.825654 3.915318-3.576588C3.915318-3.447073 3.855542-3.317559 3.805729-3.198007C3.516812-2.520548 3.257783-1.833126 2.958904-1.155666C2.929016-1.066002 2.879203-.976339 2.859278-.886675H2.849315C2.779577-1.115816 2.669988-1.325031 2.580324-1.544209C2.321295-2.191781 2.012453-2.849315 1.77335-3.506849C1.743462-3.576588 1.703611-3.646326 1.703611-3.726027V-3.765878C1.763387-3.985056 2.052304-3.985056 2.251557-3.985056V-4.293898H.18929Z'/>
<path id='g0-43' d='M2.311333-3.35741H.687422C.508095-3.347447 .368618-3.227895 .368618-3.048568L.398506-2.919054C.478207-2.759651 .637609-2.749689 .787049-2.749689H2.311333V-1.135741C2.311333-.966376 2.420922-.806974 2.610212-.806974C2.789539-.806974 2.919054-.946451 2.919054-1.125778V-2.749689H4.433375C4.582814-2.749689 4.742217-2.759651 4.821918-2.919054L4.851806-3.048568C4.851806-3.227895 4.712329-3.347447 4.533001-3.35741H2.919054V-4.961395C2.919054-5.13076 2.809465-5.290162 2.620174-5.290162C2.440847-5.290162 2.311333-5.150685 2.311333-4.971357V-3.35741Z'/>
<path id='g0-46' d='M2.540473-1.255293C2.221669-1.175592 2.002491-.966376 2.002491-.637609C2.002491-.278954 2.261519-.009963 2.689913-.009963C3.008717-.089664 3.227895-.298879 3.227895-.627646C3.227895-.986301 2.968867-1.255293 2.540473-1.255293Z'/>
<path id='g0-99' d='M3.646326-3.73599C3.646326-3.706102 3.636364-3.676214 3.636364-3.646326C3.636364-3.35741 3.875467-3.198007 4.094645-3.198007C4.293898-3.198007 4.473225-3.317559 4.523039-3.576588C4.523039-4.343711 3.696139-4.383562 3.108344-4.383562C2.281445-4.383562 1.594022-4.134496 1.105853-3.417186C.856787-3.048568 .727273-2.600249 .727273-2.161893C.727273-1.115816 1.534247 .049813 2.899128 .049813C3.58655 .049813 4.26401-.209215 4.572852-.86675C4.60274-.936488 4.632628-1.026152 4.632628-1.105853C4.632628-1.285181 4.493151-1.374844 4.313823-1.374844H4.214197C4.004981-1.374844 3.955168-1.165629 3.895392-1.036115C3.73599-.707347 3.337484-.557908 2.998755-.557908C2.11208-.557908 1.424658-1.305106 1.424658-2.15193C1.424658-3.01868 2.052304-3.775841 3.01868-3.775841C3.227895-3.775841 3.437111-3.755915 3.646326-3.73599Z'/>
<path id='g0-100' d='M3.566625-5.489415V-3.915318C3.247821-4.164384 2.86924-4.353674 2.460772-4.353674C1.235367-4.353674 .358655-3.327522 .358655-2.141968C.358655-1.05604 1.105853-.039851 2.201743 .049813H2.30137C2.779577 .049813 3.217933-.14944 3.566625-.498132V-.348692C3.566625-.129514 3.676214-.009963 3.905355-.009963H4.742217C4.931507-.009963 5.110834-.089664 5.110834-.308842C5.110834-.518057 4.961395-.617684 4.762142-.617684H4.26401V-5.768369C4.26401-5.967621 4.164384-6.107098 3.915318-6.107098C3.855542-6.107098 3.795766-6.097136 3.73599-6.097136H3.068493C2.889166-6.097136 2.719801-6.007472 2.719801-5.798257C2.719801-5.618929 2.839352-5.489415 3.048568-5.489415H3.566625ZM1.05604-2.042341C1.05604-2.092154 1.046077-2.132005 1.046077-2.181818C1.046077-2.948941 1.643836-3.745953 2.450809-3.745953H2.510585C3.01868-3.716065 3.496887-3.267746 3.566625-2.799502V-2.291407C3.566625-2.181818 3.576588-2.062267 3.576588-1.942715C3.576588-1.225405 2.978829-.557908 2.34122-.557908C1.564134-.557908 1.125778-1.354919 1.05604-2.042341Z'/>
<path id='g0-103' d='M3.287671-4.054795H3.277709C3.048568-4.273973 2.6401-4.353674 2.331258-4.353674C1.504359-4.353674 .667497-3.726027 .667497-2.779577C.667497-2.500623 .737235-2.201743 .886675-1.96264C.9066-1.92279 .956413-1.872976 .966376-1.823163V-1.8132C.966376-1.703611 .777086-1.384807 .777086-1.165629C.777086-.876712 .886675-.687422 1.016189-.428394C.617684-.229141 .288917 .288917 .288917 .797011C.288917 1.833126 1.62391 2.271482 2.570361 2.271482C3.048568 2.271482 3.526775 2.211706 3.965131 2.012453C4.41345 1.803238 4.891656 1.444583 4.931507 .9066V.826899C4.931507-.418431 3.616438-.617684 2.590286-.617684H1.982565C1.932752-.627646 1.892902-.637609 1.843088-.647572H1.753425C1.504359-.647572 1.374844-.9066 1.374844-1.115816C1.374844-1.215442 1.39477-1.315068 1.424658-1.414695C1.673724-1.285181 1.932752-1.185554 2.221669-1.165629H2.321295C3.16812-1.165629 3.975093-1.8132 3.975093-2.759651C3.975093-3.01868 3.905355-3.267746 3.785803-3.496887C3.765878-3.516812 3.73599-3.566625 3.73599-3.606476C3.73599-3.696139 4.104608-3.765878 4.283935-3.795766C4.323786-3.606476 4.4533-3.457036 4.662516-3.457036C4.851806-3.457036 5.041096-3.58655 5.070984-3.805729V-3.855542C5.070984-4.234122 4.662516-4.41345 4.323786-4.41345C3.955168-4.41345 3.486924-4.254047 3.287671-4.054795ZM.876712 .856787C.876712 .826899 .86675 .806974 .86675 .777086C.86675 .229141 1.444583-.059776 1.902864-.059776C2.012453-.059776 2.122042-.049813 2.221669-.049813H2.729763C3.337484-.049813 4.273973 0 4.343711 .737235V.797011C4.343711 1.155666 3.92528 1.39477 3.626401 1.504359C3.297634 1.633873 2.938979 1.673724 2.590286 1.673724C2.221669 1.673724 1.853051 1.613948 1.504359 1.464508C1.24533 1.354919 .9066 1.165629 .876712 .856787ZM1.364882-2.67995V-2.759651C1.364882-3.277709 1.793275-3.755915 2.321295-3.755915H2.351183C2.82939-3.726027 3.217933-3.347447 3.277709-2.839352V-2.759651C3.277709-2.241594 2.849315-1.763387 2.321295-1.763387H2.291407C1.8132-1.793275 1.424658-2.171856 1.364882-2.67995Z'/>
<path id='g0-104' d='M.956413-5.489415V-.617684H.438356C.239103-.617684 .109589-.488169 .109589-.318804C.109589-.109589 .259029-.009963 .478207-.009963H2.11208C2.34122-.009963 2.500623-.089664 2.500623-.308842C2.500623-.508095 2.361146-.617684 2.171856-.617684H1.653798V-2.281445C1.653798-3.058531 2.11208-3.745953 2.919054-3.745953C3.437111-3.745953 3.566625-3.35741 3.566625-2.919054V-.617684H3.088418C2.879203-.617684 2.769614-.468244 2.769614-.308842C2.769614-.079701 2.948941-.009963 3.148194-.009963H4.742217C4.961395-.009963 5.110834-.109589 5.110834-.318804C5.110834-.488169 4.98132-.617684 4.782067-.617684H4.26401V-2.799502C4.26401-3.476961 4.084682-4.353674 2.968867-4.353674C2.49066-4.353674 2.002491-4.164384 1.653798-3.835616V-5.718555C1.653798-6.057285 1.484433-6.097136 1.275218-6.097136H.358655C.219178-6.067248 .109589-5.947696 .109589-5.798257C.109589-5.608966 .239103-5.489415 .428394-5.489415H.956413Z'/>
<path id='g0-108' d='M2.261519-5.489415V-.617684H.876712C.687422-.617684 .56787-.488169 .56787-.308842C.56787-.089664 .737235-.009963 .936488-.009963H4.41345C4.572852-.039851 4.652553-.179328 4.652553-.318804C4.652553-.488169 4.542964-.617684 4.353674-.617684H2.958904V-5.718555C2.958904-6.057285 2.789539-6.097136 2.580324-6.097136H.946451C.787049-6.097136 .56787-6.067248 .56787-5.798257C.56787-5.618929 .687422-5.489415 .886675-5.489415H2.261519Z'/>
<path id='g0-109' d='M1.075965-3.975093C1.075965-4.254047 .876712-4.303861 .67746-4.303861C.587796-4.303861 .498132-4.293898 .428394-4.293898H.308842C.129514-4.293898-.049813-4.224159-.049813-3.995019C-.049813-3.845579 .049813-3.706102 .209215-3.686177H.518057V-.617684C.458281-.617684 .398506-.627646 .328767-.627646C.129514-.627646-.049813-.537983-.049813-.318804C-.049813-.119552 .089664-.009963 .298879-.009963H1.275218C1.484433-.009963 1.643836-.099626 1.643836-.318804S1.464508-.627646 1.265255-.627646C1.195517-.627646 1.135741-.617684 1.075965-.617684V-2.181818C1.075965-2.759651 1.155666-3.556663 1.77335-3.716065C1.823163-3.73599 1.882939-3.745953 1.932752-3.745953C2.331258-3.745953 2.331258-3.188045 2.331258-2.879203V-.617684H2.181818C1.972603-.617684 1.823163-.52802 1.823163-.318804C1.823163-.119552 1.942715-.009963 2.171856-.009963H3.108344C3.317559-.009963 3.457036-.119552 3.457036-.318804C3.457036-.537983 3.277709-.627646 3.078456-.627646C3.008717-.627646 2.948941-.617684 2.889166-.617684V-2.181818C2.889166-2.759651 2.968867-3.556663 3.58655-3.716065C3.636364-3.73599 3.696139-3.745953 3.745953-3.745953C4.144458-3.745953 4.144458-3.188045 4.144458-2.879203V-.617684H3.995019C3.785803-.617684 3.636364-.52802 3.636364-.318804C3.636364-.119552 3.755915-.009963 3.985056-.009963H4.921544C5.13076-.009963 5.270237-.119552 5.270237-.318804C5.270237-.537983 5.090909-.627646 4.891656-.627646C4.821918-.627646 4.762142-.617684 4.702366-.617684V-2.929016C4.702366-3.486924 4.60274-4.363636 3.775841-4.363636C3.377335-4.363636 2.938979-4.11457 2.759651-3.815691C2.590286-4.134496 2.34122-4.353674 1.96264-4.353674C1.633873-4.353674 1.305106-4.194271 1.075965-3.975093Z'/>
<path id='g0-111' d='M2.470735-4.383562C1.285181-4.273973 .56787-3.20797 .56787-2.141968V-2.042341C.607721-.956413 1.454545 .049813 2.620174 .049813H2.739726C3.92528-.049813 4.652553-1.09589 4.652553-2.15193V-2.261519C4.612702-3.367372 3.755915-4.383562 2.580324-4.383562H2.470735ZM1.265255-2.102117C1.265255-2.141968 1.255293-2.191781 1.255293-2.231631C1.255293-2.968867 1.793275-3.775841 2.630137-3.775841C3.39726-3.775841 3.875467-3.058531 3.955168-2.351183V-2.261519C3.955168-1.514321 3.486924-.557908 2.610212-.557908H2.570361C1.823163-.617684 1.344956-1.305106 1.265255-2.102117Z'/>
<path id='g0-114' d='M2.211706-3.556663V-3.915318C2.211706-4.164384 2.11208-4.293898 1.853051-4.293898H.647572C.458281-4.293898 .308842-4.204234 .308842-3.995019S.438356-3.686177 .67746-3.686177H1.514321V-.617684H.657534C.428394-.617684 .308842-.498132 .308842-.318804C.308842-.14944 .428394 0 .637609 0C.687422 0 .747198-.009963 .797011-.009963H2.759651C2.909091-.009963 3.068493 0 3.227895 0C3.526775 0 3.716065-.049813 3.716065-.318804C3.716065-.498132 3.606476-.617684 3.35741-.617684H2.211706V-1.763387C2.211706-2.660025 2.699875-3.755915 3.915318-3.755915C4.054795-3.755915 4.044832-3.307597 4.433375-3.307597C4.652553-3.307597 4.851806-3.476961 4.851806-3.73599C4.851806-4.214197 4.283935-4.363636 3.905355-4.363636C3.237858-4.363636 2.660025-4.034869 2.211706-3.556663Z'/>
<path id='g0-115' d='M1.384807-.328767C1.753425-.049813 2.201743 .049813 2.660025 .049813C3.506849 .049813 4.572852-.249066 4.572852-1.255293C4.572852-2.560399 2.689913-2.560399 2.022416-2.709838C1.743462-2.779577 1.325031-2.919054 1.325031-3.217933C1.325031-3.666252 2.052304-3.745953 2.361146-3.765878C2.450809-3.765878 2.540473-3.775841 2.6401-3.775841C2.948941-3.775841 3.486924-3.706102 3.556663-3.307597C3.626401-3.048568 3.616438-2.889166 3.945205-2.889166C4.234122-2.889166 4.273973-3.078456 4.273973-3.267746V-4.054795C4.273973-4.254047 4.164384-4.383562 3.975093-4.383562C3.835616-4.383562 3.726027-4.293898 3.676214-4.174346C3.337484-4.313823 3.038605-4.383562 2.660025-4.383562C1.843088-4.383562 .71731-4.164384 .71731-3.198007C.71731-1.58406 3.965131-2.331258 3.965131-1.265255V-1.235367C3.965131-.597758 2.938979-.557908 2.719801-.557908H2.67995C2.161893-.557908 1.683686-.767123 1.474471-1.315068C1.354919-1.574097 1.354919-1.723537 1.05604-1.723537S.71731-1.544209 .71731-1.364882V-.498132C.71731-.438356 .707347-.368618 .707347-.298879C.707347-.079701 .826899 .049813 1.016189 .049813C1.255293 .049813 1.315068-.14944 1.384807-.328767Z'/>
<path id='g0-116' d='M1.514321-4.293898H.607721C.368618-4.293898 .249066-4.174346 .249066-3.985056C.249066-3.785803 .408468-3.686177 .597758-3.686177H1.514321V-1.09589C1.58406-.368618 2.15193 .049813 2.929016 .049813C3.666252 .049813 4.473225-.408468 4.473225-1.225405V-1.344956C4.473225-1.613948 4.293898-1.653798 4.11457-1.653798C3.895392-1.653798 3.775841-1.534247 3.775841-1.305106V-1.235367C3.775841-.777086 3.327522-.557908 2.968867-.557908C2.410959-.557908 2.211706-.896638 2.211706-1.354919V-3.686177H3.855542C4.034869-3.686177 4.254047-3.716065 4.254047-3.985056C4.254047-4.174346 4.134496-4.293898 3.915318-4.293898H2.211706V-5.17061C2.211706-5.459527 2.052304-5.519303 1.863014-5.519303S1.514321-5.449564 1.514321-5.160648V-4.293898Z'/>
</defs>
<g id='page1' transform='matrix(1.371429 0 0 1.371429 0 0)'>
<rect x='-14.539' y='7.38281' width='157.34759' height='106.90229' fill='#fff'/>
<path d='M-14.539 114.2851V7.38281H142.80859V114.2851Z' fill='#fff'/>
<path d='M-10.051 27.582H138.324216V11.871094H-10.051Z' fill='#80ff80'/>
<path d='M-10.051 27.582H138.324216V11.871094H-10.051Z' stroke='#000' fill='none' stroke-width='.3985' stroke-miterlimit='10'/>
<g fill='#2f4f4f' transform='matrix(1 0 0 1 -145.25308 10.3806)'>
<use x='155.327328' y='11.670059' xlink:href='#g0-46'/>
<use x='160.556437' y='11.670059' xlink:href='#g0-111'/>
<use x='165.785546' y='11.670059' xlink:href='#g0-114'/>
<use x='171.014655' y='11.670059' xlink:href='#g0-103'/>
<use x='179.563469' y='11.670059' xlink:href='#g1-28'/>
<use x='185.096917' y='11.670059' xlink:href='#g1-108'/>
<use x='187.863642' y='11.670059' xlink:href='#g1-101'/>
<use x='195.610105' y='11.670059' xlink:href='#g1-102'/>
<use x='198.653502' y='11.670059' xlink:href='#g1-114'/>
<use x='202.554584' y='11.670059' xlink:href='#g1-111'/>
<use x='207.534687' y='11.670059' xlink:href='#g1-109'/>
<use x='219.154565' y='11.670059' xlink:href='#g1-79'/>
<use x='226.901393' y='11.670059' xlink:href='#g1-114'/>
<use x='230.802475' y='11.670059' xlink:href='#g1-103'/>
<use x='235.782579' y='11.670059' xlink:href='#g1-45'/>
<use x='239.102648' y='11.670059' xlink:href='#g1-77'/>
<use x='248.232838' y='11.670059' xlink:href='#g1-111'/>
<use x='253.489615' y='11.670059' xlink:href='#g1-100'/>
<use x='259.023064' y='11.670059' xlink:href='#g1-101'/>
</g>
<path d='M-10.051 75.3008H138.324216V47.9062H-10.051Z' fill='#80ff80'/>
<path d='M-10.051 75.3008H138.324216V47.9062H-10.051Z' stroke='#000' fill='none' stroke-width='.3985' stroke-miterlimit='10'/>
<g fill='#2f4f4f' transform='matrix(1 0 0 1 -145.25308 46.4191)'>
<use x='172.287348' y='11.670059' xlink:href='#g0-46'/>
<use x='177.516457' y='11.670059' xlink:href='#g0-109'/>
<use x='182.745567' y='11.670059' xlink:href='#g0-100'/>
<use x='191.29438' y='11.670059' xlink:href='#g1-28'/>
<use x='196.827829' y='11.670059' xlink:href='#g1-108'/>
<use x='199.594553' y='11.670059' xlink:href='#g1-101'/>
<use x='207.341017' y='11.670059' xlink:href='#g1-105'/>
<use x='210.107741' y='11.670059' xlink:href='#g1-110'/>
<use x='218.960894' y='11.670059' xlink:href='#g1-66'/>
<use x='226.016042' y='11.670059' xlink:href='#g1-108'/>
<use x='228.782766' y='11.670059' xlink:href='#g1-97'/>
<use x='233.76287' y='11.670059' xlink:href='#g1-99'/>
<use x='237.912956' y='11.670059' xlink:href='#g1-107'/>
<use x='243.169733' y='11.670059' xlink:href='#g1-45'/>
<use x='172.42532' y='23.625227' xlink:href='#g1-102'/>
<use x='175.468717' y='23.625227' xlink:href='#g1-114'/>
<use x='179.369798' y='23.625227' xlink:href='#g1-105'/>
<use x='182.136522' y='23.625227' xlink:href='#g1-100'/>
<use x='187.669971' y='23.625227' xlink:href='#g1-97'/>
<use x='192.373403' y='23.625227' xlink:href='#g1-121'/>
<use x='200.949883' y='23.625227' xlink:href='#g1-109'/>
<use x='209.250057' y='23.625227' xlink:href='#g1-97'/>
<use x='214.23016' y='23.625227' xlink:href='#g1-114'/>
<use x='218.131242' y='23.625227' xlink:href='#g1-107'/>
<use x='223.388018' y='23.625227' xlink:href='#g1-100'/>
<use x='228.921467' y='23.625227' xlink:href='#g1-111'/>
<use x='233.624898' y='23.625227' xlink:href='#g1-119'/>
<use x='240.818382' y='23.625227' xlink:href='#g1-110'/>
</g>
<path d='M64.1367 27.7812V42.7266' stroke='#000' fill='none' stroke-width='.3985' stroke-miterlimit='10'/>
<path d='M64.136748 44.71871L65.7305 41.53121L64.136748 42.726521L62.543 41.53121' fill='#2f4f4f'/>
<path d='M-10.051 109.7969H138.324216V95.625H-10.051Z' fill='#80ff80'/>
<path d='M-10.051 109.7969H138.324216V95.625H-10.051Z' stroke='#000' fill='none' stroke-width='.3985' stroke-miterlimit='10'/>
<g fill='#2f4f4f' transform='matrix(1 0 0 1 -145.25308 94.4719)'>
<use x='162.327141' y='11.670059' xlink:href='#g0-46'/>
<use x='167.55625' y='11.670059' xlink:href='#g0-104'/>
<use x='172.785359' y='11.670059' xlink:href='#g0-116'/>
<use x='178.014468' y='11.670059' xlink:href='#g0-109'/>
<use x='183.243577' y='11.670059' xlink:href='#g0-108'/>
<use x='191.79239' y='11.670059' xlink:href='#g0-43'/>
<use x='200.341204' y='11.670059' xlink:href='#g0-46'/>
<use x='205.570313' y='11.670059' xlink:href='#g0-99'/>
<use x='210.799422' y='11.670059' xlink:href='#g0-115'/>
<use x='216.028531' y='11.670059' xlink:href='#g0-115'/>
<use x='224.577345' y='11.670059' xlink:href='#g1-119'/>
<use x='231.494156' y='11.670059' xlink:href='#g1-101'/>
<use x='235.920915' y='11.670059' xlink:href='#g1-98'/>
<use x='241.454364' y='11.670059' xlink:href='#g1-115'/>
<use x='245.383112' y='11.670059' xlink:href='#g1-105'/>
<use x='248.149837' y='11.670059' xlink:href='#g1-116'/>
<use x='252.023251' y='11.670059' xlink:href='#g1-101'/>
</g>
<path d='M64.1367 75.5V90.4453' stroke='#000' fill='none' stroke-width='.3985' stroke-miterlimit='10'/>
<path d='M64.136748 92.4375L65.7305 89.25L64.136748 90.445316L62.543 89.25' fill='#2f4f4f'/>
</g>
</svg>