<?xml version='1.0' encoding='UTF-8'?>
<!-- This file was generated by dvisvgm 2.13.1 -->
<svg version='1.1' xmlns='http://www.w3.org/2000/svg' xmlns:xlink='http://www.w3.org/1999/xlink' width='215.790981pt' height='126.364238pt' viewBox='-19.9392 10.124997 215.790981 126.364238'>
<defs>
<path id='g0-100' d='M3.566625-5.489415V-3.915318C3.247821-4.164384 2.86924-4.353674 2.460772-4.353674C1.235367-4.353674 .358655-3.327522 .358655-2.141968C.358655-1.05604 1.105853-.039851 2.201743 .049813H2.30137C2.779577 .049813 3.217933-.14944 3.566625-.498132V-.348692C3.566625-.129514 3.676214-.009963 3.905355-.009963H4.742217C4.931507-.009963 5.110834-.089664 5.110834-.308842C5.110834-.518057 4.961395-.617684 4.762142-.617684H4.26401V-5.768369C4.26401-5.967621 4.164384-6.107098 3.915318-6.107098C3.855542-6.107098 3.795766-6.097136 3.73599-6.097136H3.068493C2.889166-6.097136 2.719801-6.007472 2.719801-5.798257C2.719801-5.618929 2.839352-5.489415 3.048568-5.489415H3.566625ZM1.05604-2.042341C1.05604-2.092154 1.046077-2.132005 1.046077-2.181818C1.046077-2.948941 1.643836-3.745953 2.450809-3.745953H2.510585C3.01868-3.716065 3.496887-3.267746 3.566625-2.799502V-2.291407C3.566625-2.181818 3.576588-2.062267 3.576588-1.942715C3.576588-1.225405 2.978829-.557908 2.34122-.557908C1.564134-.557908 1.125778-1.354919 1.05604-2.042341Z'/>
<path id='g0-103' d='M3.287671-4.054795H3.277709C3.048568-4.273973 2.6401-4.353674 2.331258-4.353674C1.504359-4.353674 .667497-3.726027 .667497-2.779577C.667497-2.500623 .737235-2.201743 .886675-1.96264C.9066-1.92279 .956413-1.872976 .966376-1.823163V-1.8132C.966376-1.703611 .777086-1.384807 .777086-1.165629C.777086-.876712 .886675-.687422 1.016189-.428394C.617684-.229141 .288917 .288917 .288917 .797011C.288917 1.833126 1.62391 2.271482 2.570361 2.271482C3.048568 2.271482 3.526775 2.211706 3.965131 2.012453C4.41345 1.803238 4.891656 1.444583 4.931507 .9066V.826899C4.931507-.418431 3.616438-.617684 2.590286-.617684H1.982565C1.932752-.627646 1.892902-.637609 1.843088-.647572H1.753425C1.504359-.647572 1.374844-.9066 1.374844-1.115816C1.374844-1.215442 1.39477-1.315068 1.424658-1.414695C1.673724-1.285181 1.932752-1.185554 2.221669-1.165629H2.321295C3.16812-1.165629 3.975093-1.8132 3.975093-2.759651C3.975093-3.01868 3.905355-3.267746 3.785803-3.496887C3.765878-3.516812 3.73599-3.566625 3.73599-3.606476C3.73599-3.696139 4.104608-3.765878 4.283935-3.795766C4.323786-3.606476 4.4533-3.457036 4.662516-3.457036C4.851806-3.457036 5.041096-3.58655 5.070984-3.805729V-3.855542C5.070984-4.234122 4.662516-4.41345 4.323786-4.41345C3.955168-4.41345 3.486924-4.254047 3.287671-4.054795ZM.876712 .856787C.876712 .826899 .86675 .806974 .86675 .777086C.86675 .229141 1.444583-.059776 1.902864-.059776C2.012453-.059776 2.122042-.049813 2.221669-.049813H2.729763C3.337484-.049813 4.273973 0 4.343711 .737235V.797011C4.343711 1.155666 3.92528 1.39477 3.626401 1.504359C3.297634 1.633873 2.938979 1.673724 2.590286 1.673724C2.221669 1.673724 1.853051 1.613948 1.504359 1.464508C1.24533 1.354919 .9066 1.165629 .876712 .856787ZM1.364882-2.67995V-2.759651C1.364882-3.277709 1.793275-3.755915 2.321295-3.755915H2.351183C2.82939-3.726027 3.217933-3.347447 3.277709-2.839352V-2.759651C3.277709-2.241594 2.849315-1.763387 2.321295-1.763387H2.291407C1.8132-1.793275 1.424658-2.171856 1.364882-2.67995Z'/>
<path id='g0-104' d='M.956413-5.489415V-.617684H.438356C.239103-.617684 .109589-.488169 .109589-.318804C.109589-.109589 .259029-.009963 .478207-.009963H2.11208C2.34122-.009963 2.500623-.089664 2.500623-.308842C2.500623-.508095 2.361146-.617684 2.171856-.617684H1.653798V-2.281445C1.653798-3.058531 2.11208-3.745953 2.919054-3.745953C3.437111-3.745953 3.566625-3.35741 3.566625-2.919054V-.617684H3.088418C2.879203-.617684 2.769614-.468244 2.769614-.308842C2.769614-.079701 2.948941-.009963 3.148194-.009963H4.742217C4.961395-.009963 5.110834-.109589 5.110834-.318804C5.110834-.488169 4.98132-.617684 4.782067-.617684H4.26401V-2.799502C4.26401-3.476961 4.084682-4.353674 2.968867-4.353674C2.49066-4.353674 2.002491-4.164384 1.653798-3.835616V-5.718555C1.653798-6.057285 1.484433-6.097136 1.275218-6.097136H.358655C.219178-6.067248 .109589-5.947696 .109589-5.798257C.109589-5.608966 .239103-5.489415 .428394-5.489415H.956413Z'/>
<path id='g0-108' d='M2.261519-5.489415V-.617684H.876712C.687422-.617684 .56787-.488169 .56787-.308842C.56787-.089664 .737235-.009963 .936488-.009963H4.41345C4.572852-.039851 4.652553-.179328 4.652553-.318804C4.652553-.488169 4.542964-.617684 4.353674-.617684H2.958904V-5.718555C2.958904-6.057285 2.789539-6.097136 2.580324-6.097136H.946451C.787049-6.097136 .56787-6.067248 .56787-5.798257C.56787-5.618929 .687422-5.489415 .886675-5.489415H2.261519Z'/>
<path id='g0-109' d='M1.075965-3.975093C1.075965-4.254047 .876712-4.303861 .67746-4.303861C.587796-4.303861 .498132-4.293898 .428394-4.293898H.308842C.129514-4.293898-.049813-4.224159-.049813-3.995019C-.049813-3.845579 .049813-3.706102 .209215-3.686177H.518057V-.617684C.458281-.617684 .398506-.627646 .328767-.627646C.129514-.627646-.049813-.537983-.049813-.318804C-.049813-.119552 .089664-.009963 .298879-.009963H1.275218C1.484433-.009963 1.643836-.099626 1.643836-.318804S1.464508-.627646 1.265255-.627646C1.195517-.627646 1.135741-.617684 1.075965-.617684V-2.181818C1.075965-2.759651 1.155666-3.556663 1.77335-3.716065C1.823163-3.73599 1.882939-3.745953 1.932752-3.745953C2.331258-3.745953 2.331258-3.188045 2.331258-2.879203V-.617684H2.181818C1.972603-.617684 1.823163-.52802 1.823163-.318804C1.823163-.119552 1.942715-.009963 2.171856-.009963H3.108344C3.317559-.009963 3.457036-.119552 3.457036-.318804C3.457036-.537983 3.277709-.627646 3.078456-.627646C3.008717-.627646 2.948941-.617684 2.889166-.617684V-2.181818C2.889166-2.759651 2.968867-3.556663 3.58655-3.716065C3.636364-3.73599 3.696139-3.745953 3.745953-3.745953C4.144458-3.745953 4.144458-3.188045 4.144458-2.879203V-.617684H3.995019C3.785803-.617684 3.636364-.52802 3.636364-.318804C3.636364-.119552 3.755915-.009963 3.985056-.009963H4.921544C5.13076-.009963 5.270237-.119552 5.270237-.318804C5.270237-.537983 5.090909-.627646 4.891656-.627646C4.821918-.627646 4.762142-.617684 4.702366-.617684V-2.929016C4.702366-3.486924 4.60274-4.363636 3.775841-4.363636C3.377335-4.363636 2.938979-4.11457 2.759651-3.815691C2.590286-4.134496 2.34122-4.353674 1.96264-4.353674C1.633873-4.353674 1.305106-4.194271 1.075965-3.975093Z'/>
<path id='g0-111' d='M2.470735-4.383562C1.285181-4.273973 .56787-3.20797 .56787-2.141968V-2.042341C.607721-.956413 1.454545 .049813 2.620174 .049813H2.739726C3.92528-.049813 4.652553-1.09589 4.652553-2.15193V-2.261519C4.612702-3.367372 3.755915-4.383562 2.580324-4.383562H2.470735ZM1.265255-2.102117C1.265255-2.141968 1.255293-2.191781 1.255293-2.231631C1.255293-2.968867 1.793275-3.775841 2.630137-3.775841C3.39726-3.775841 3.875467-3.058531 3.955168-2.351183V-2.261519C3.955168-1.514321 3.486924-.557908 2.610212-.557908H2.570361C1.823163-.617684 1.344956-1.305106 1.265255-2.102117Z'/>
<path id='g0-114' d='M2.211706-3.556663V-3.915318C2.211706-4.164384 2.11208-4.293898 1.853051-4.293898H.647572C.458281-4.293898 .308842-4.204234 .308842-3.995019S.438356-3.686177 .67746-3.686177H1.514321V-.617684H.657534C.428394-.617684 .308842-.498132 .308842-.318804C.308842-.14944 .428394 0 .637609 0C.687422 0 .747198-.009963 .797011-.009963H2.759651C2.909091-.009963 3.068493 0 3.227895 0C3.526775 0 3.716065-.049813 3.716065-.318804C3.716065-.498132 3.606476-.617684 3.35741-.617684H2.211706V-1.763387C2.211706-2.660025 2.699875-3.755915 3.915318-3.755915C4.054795-3.755915 4.044832-3.307597 4.433375-3.307597C4.652553-3.307597 4.851806-3.476961 4.851806-3.73599C4.851806-4.214197 4.283935-4.363636 3.905355-4.363636C3.237858-4.363636 2.660025-4.034869 2.211706-3.556663Z'/>
<path id='g0-116' d='M1.514321-4.293898H.607721C.368618-4.293898 .249066-4.174346 .249066-3.985056C.249066-3.785803 .408468-3.686177 .597758-3.686177H1.514321V-1.09589C1.58406-.368618 2.15193 .049813 2.929016 .049813C3.666252 .049813 4.473225-.408468 4.473225-1.225405V-1.344956C4.473225-1.613948 4.293898-1.653798 4.11457-1.653798C3.895392-1.653798 3.775841-1.534247 3.775841-1.305106V-1.235367C3.775841-.777086 3.327522-.557908 2.968867-.557908C2.410959-.557908 2.211706-.896638 2.211706-1.354919V-3.686177H3.855542C4.034869-3.686177 4.254047-3.716065 4.254047-3.985056C4.254047-4.174346 4.134496-4.293898 3.915318-4.293898H2.211706V-5.17061C2.211706-5.459527 2.052304-5.519303 1.863014-5.519303S1.514321-5.449564 1.514321-5.160648V-4.293898Z'/>
</defs>
<g id='page1' transform='matrix(1.371429 0 0 1.371429 0 0)'>
<rect x='-14.539' y='7.38281' width='157.34759' height='92.14059' fill='#fff'/>
<path d='M-14.539 99.5234V7.38281H142.80859V99.5234Z' fill='#fff'/>
<path d='M-10.051 26.043H138.324216V11.871094H-10.051Z' fill='#80ff80'/>
<path d='M-10.051 26.043H138.324216V11.871094H-10.051Z' stroke='#000' fill='none' stroke-width='.3985' stroke-miterlimit='10'/>
<g fill='#2f4f4f' transform='matrix(1 0 0 1 -145.25308 8.3235)'>
<use x='201.544912' y='11.670059' xlink:href='#g0-111'/>
<use x='206.774021' y='11.670059' xlink:href='#g0-114'/>
<use x='212.00313' y='11.670059' xlink:href='#g0-103'/>
</g>
<path d='M-10.051 60.5391H138.324216V46.3672H-10.051Z' fill='#80ff80'/>
<path d='M-10.051 60.5391H138.324216V46.3672H-10.051Z' stroke='#000' fill='none' stroke-width='.3985' stroke-miterlimit='10'/>
<g fill='#2f4f4f' transform='matrix(1 0 0 1 -145.25308 44.8268)'>
<use x='204.159466' y='11.670059' xlink:href='#g0-109'/>
<use x='209.388575' y='11.670059' xlink:href='#g0-100'/>
</g>
<path d='M64.1367 26.2422V41.1875' stroke='#000' fill='none' stroke-width='.3985' stroke-miterlimit='10'/>
<path d='M64.136748 43.17972L65.7305 39.99222L64.136748 41.187531L62.543 39.99222' fill='#2f4f4f'/>
<path d='M-10.051 95.0391H138.324216V80.8633H-10.051Z' fill='#80ff80'/>
<path d='M-10.051 95.0391H138.324216V80.8633H-10.051Z' stroke='#000' fill='none' stroke-width='.3985' stroke-miterlimit='10'/>
<g fill='#2f4f4f' transform='matrix(1 0 0 1 -145.25308 79.3242)'>
<use x='198.930357' y='11.670059' xlink:href='#g0-104'/>
<use x='204.159466' y='11.670059' xlink:href='#g0-116'/>
<use x='209.388575' y='11.670059' xlink:href='#g0-109'/>
<use x='214.617684' y='11.670059' xlink:href='#g0-108'/>
</g>
<path d='M64.1367 60.7383V75.6836' stroke='#000' fill='none' stroke-width='.3985' stroke-miterlimit='10'/>
<path d='M64.136748 77.6758L65.7305 74.4883L64.136748 75.683608L62.543 74.4883' fill='#2f4f4f'/>
</g>
</svg>