<?xml version='1.0' encoding='UTF-8'?>
<!-- This file was generated by dvisvgm 2.13.1 -->
<svg version='1.1' xmlns='http://www.w3.org/2000/svg' xmlns:xlink='http://www.w3.org/1999/xlink' width='37.981553pt' height='13.663049pt' viewBox='-19.935322 13.539149 37.981553 13.663049'>
<defs>
<path id='g1-40' d='M3.297634 2.391034C3.297634 2.361146 3.297634 2.34122 3.128269 2.171856C1.882939 .916563 1.564134-.966376 1.564134-2.49066C1.564134-4.224159 1.942715-5.957659 3.16812-7.202989C3.297634-7.32254 3.297634-7.342466 3.297634-7.372354C3.297634-7.442092 3.257783-7.47198 3.198007-7.47198C3.098381-7.47198 2.201743-6.794521 1.613948-5.529265C1.105853-4.433375 .986301-3.327522 .986301-2.49066C.986301-1.713574 1.09589-.508095 1.643836 .617684C2.241594 1.843088 3.098381 2.49066 3.198007 2.49066C3.257783 2.49066 3.297634 2.460772 3.297634 2.391034Z'/>
<path id='g1-41' d='M2.879203-2.49066C2.879203-3.267746 2.769614-4.473225 2.221669-5.599004C1.62391-6.824408 .767123-7.47198 .667497-7.47198C.607721-7.47198 .56787-7.43213 .56787-7.372354C.56787-7.342466 .56787-7.32254 .757161-7.143213C1.733499-6.156912 2.30137-4.572852 2.30137-2.49066C2.30137-.787049 1.932752 .966376 .697385 2.221669C.56787 2.34122 .56787 2.361146 .56787 2.391034C.56787 2.450809 .607721 2.49066 .667497 2.49066C.767123 2.49066 1.663761 1.8132 2.251557 .547945C2.759651-.547945 2.879203-1.653798 2.879203-2.49066Z'/>
<path id='g2-51' d='M1.903861-2.329265C2.447821-2.329265 2.838356-1.952677 2.838356-1.206476C2.838356-.341719 2.336239-.083686 1.931756-.083686C1.652802-.083686 1.039103-.160399 .746202-.571856C1.073973-.585803 1.150685-.81594 1.150685-.962391C1.150685-1.185554 .983313-1.345953 .767123-1.345953C.571856-1.345953 .376588-1.227397 .376588-.941469C.376588-.285928 1.101868 .139477 1.945704 .139477C2.915068 .139477 3.584558-.509091 3.584558-1.206476C3.584558-1.750436 3.138232-2.294396 2.371108-2.454795C3.103362-2.719801 3.368369-3.242839 3.368369-3.668244C3.368369-4.219178 2.733748-4.630635 1.959651-4.630635S.592777-4.254047 .592777-3.696139C.592777-3.459029 .746202-3.326526 .955417-3.326526C1.171606-3.326526 1.311083-3.486924 1.311083-3.682192C1.311083-3.884433 1.171606-4.030884 .955417-4.044832C1.199502-4.351681 1.680697-4.428394 1.93873-4.428394C2.252553-4.428394 2.691905-4.274969 2.691905-3.668244C2.691905-3.375342 2.594271-3.054545 2.412951-2.838356C2.182814-2.57335 1.987547-2.559402 1.638854-2.538481C1.464508-2.524533 1.45056-2.524533 1.415691-2.517559C1.401743-2.517559 1.345953-2.503611 1.345953-2.426899C1.345953-2.329265 1.408717-2.329265 1.527273-2.329265H1.903861Z'/>
<path id='g2-63' d='M1.889913-1.785305C1.889913-2.399004 2.30137-2.915068 2.824408-3.242839C2.956912-3.326526 3.263761-3.542715 3.263761-3.96812C3.263761-4.337733 2.991781-4.909589 1.806227-4.909589C.948443-4.909589 .488169-4.456289 .488169-3.982067C.488169-3.696139 .718306-3.633375 .822914-3.633375C.955417-3.633375 1.150685-3.731009 1.150685-3.96812C1.150685-4.009963 1.150685-4.267995 .822914-4.29589C.948443-4.491158 1.26924-4.714321 1.785305-4.714321C2.580324-4.714321 2.629141-4.316812 2.629141-3.996015C2.629141-3.626401 2.489664-3.486924 2.378082-3.38929C1.910834-2.970859 1.652802-2.357161 1.652802-1.820174V-1.527273C1.652802-1.387796 1.652802-1.352927 1.771357-1.352927S1.889913-1.401743 1.889913-1.548194V-1.785305ZM2.168867-.397509C2.168867-.641594 1.973599-.801993 1.771357-.801993C1.527273-.801993 1.366874-.606725 1.366874-.404483C1.366874-.160399 1.562142 0 1.764384 0C2.008468 0 2.168867-.195268 2.168867-.397509Z'/>
<path id='g0-104' d='M2.859278-6.804483C2.859278-6.814446 2.859278-6.914072 2.729763-6.914072C2.500623-6.914072 1.77335-6.834371 1.514321-6.814446C1.43462-6.804483 1.325031-6.794521 1.325031-6.615193C1.325031-6.495641 1.414695-6.495641 1.564134-6.495641C2.042341-6.495641 2.062267-6.425903 2.062267-6.326276L2.032379-6.127024L.587796-.388543C.547945-.249066 .547945-.229141 .547945-.169365C.547945 .059776 .747198 .109589 .836862 .109589C.996264 .109589 1.155666-.009963 1.205479-.14944L1.39477-.9066L1.613948-1.803238C1.673724-2.022416 1.733499-2.241594 1.783313-2.470735C1.803238-2.530511 1.882939-2.859278 1.892902-2.919054C1.92279-3.008717 2.231631-3.566625 2.570361-3.835616C2.789539-3.995019 3.098381-4.184309 3.526775-4.184309S4.064757-3.845579 4.064757-3.486924C4.064757-2.948941 3.686177-1.863014 3.447073-1.255293C3.367372-1.026152 3.317559-.9066 3.317559-.707347C3.317559-.239103 3.666252 .109589 4.134496 .109589C5.070984 .109589 5.439601-1.344956 5.439601-1.424658C5.439601-1.524284 5.349938-1.524284 5.32005-1.524284C5.220423-1.524284 5.220423-1.494396 5.17061-1.344956C5.021171-.816936 4.702366-.109589 4.154421-.109589C3.985056-.109589 3.915318-.209215 3.915318-.438356C3.915318-.687422 4.004981-.926526 4.094645-1.145704C4.254047-1.574097 4.702366-2.759651 4.702366-3.337484C4.702366-3.985056 4.303861-4.403487 3.556663-4.403487C2.929016-4.403487 2.450809-4.094645 2.082192-3.636364L2.859278-6.804483Z'/>
<path id='g0-110' d='M.876712-.587796C.846824-.438356 .787049-.209215 .787049-.159402C.787049 .019925 .926526 .109589 1.075965 .109589C1.195517 .109589 1.374844 .029888 1.444583-.169365C1.454545-.18929 1.574097-.657534 1.633873-.9066L1.853051-1.803238C1.912827-2.022416 1.972603-2.241594 2.022416-2.470735C2.062267-2.6401 2.141968-2.929016 2.15193-2.968867C2.30137-3.277709 2.82939-4.184309 3.775841-4.184309C4.224159-4.184309 4.313823-3.815691 4.313823-3.486924C4.313823-2.86924 3.825654-1.594022 3.666252-1.165629C3.576588-.936488 3.566625-.816936 3.566625-.707347C3.566625-.239103 3.915318 .109589 4.383562 .109589C5.32005 .109589 5.688667-1.344956 5.688667-1.424658C5.688667-1.524284 5.599004-1.524284 5.569116-1.524284C5.469489-1.524284 5.469489-1.494396 5.419676-1.344956C5.220423-.667497 4.891656-.109589 4.403487-.109589C4.234122-.109589 4.164384-.209215 4.164384-.438356C4.164384-.687422 4.254047-.926526 4.343711-1.145704C4.533001-1.673724 4.951432-2.769614 4.951432-3.337484C4.951432-4.004981 4.523039-4.403487 3.805729-4.403487C2.909091-4.403487 2.420922-3.765878 2.251557-3.536737C2.201743-4.094645 1.793275-4.403487 1.334994-4.403487S.687422-4.014944 .587796-3.835616C.428394-3.496887 .288917-2.909091 .288917-2.86924C.288917-2.769614 .388543-2.769614 .408468-2.769614C.508095-2.769614 .518057-2.779577 .577833-2.998755C.747198-3.706102 .946451-4.184309 1.305106-4.184309C1.504359-4.184309 1.613948-4.054795 1.613948-3.726027C1.613948-3.516812 1.58406-3.407223 1.454545-2.889166L.876712-.587796Z'/>
</defs>
<g id='page1' transform='matrix(1.371429 0 0 1.371429 0 0)'>
<rect x='-14.536172' y='9.872296' width='27.694883' height='9.96264' fill='#fff'/>
<g fill='#2f4f4f'>
<use x='-14.536172' y='17.344276' xlink:href='#g0-104'/>
<use x='-8.796103' y='18.838657' xlink:href='#g2-51'/>
<use x='-4.824862' y='18.838657' xlink:href='#g2-63'/>
<use x='-.569962' y='17.344276' xlink:href='#g1-40'/>
<use x='3.304411' y='17.344276' xlink:href='#g0-110'/>
<use x='9.284337' y='17.344276' xlink:href='#g1-41'/>
</g>
</g>
</svg>